<?xml version="1.0"?>
<!DOCTYPE svg PUBLIC '-//W3C//DTD SVG 1.0//EN'
          'http://www.w3.org/TR/2001/REC-SVG-20010904/DTD/svg10.dtd'>
<svg xmlns:xlink="http://www.w3.org/1999/xlink" style="fill-opacity:1; color-rendering:auto; color-interpolation:auto; text-rendering:auto; stroke:black; stroke-linecap:square; stroke-miterlimit:10; shape-rendering:auto; stroke-opacity:1; fill:black; stroke-dasharray:none; font-weight:normal; stroke-width:1; font-family:'Dialog'; font-style:normal; stroke-linejoin:miter; font-size:12px; stroke-dashoffset:0; image-rendering:auto;" width="500" height="500" xmlns="http://www.w3.org/2000/svg"
><!--Generated by the Batik Graphics2D SVG Generator--><defs id="genericDefs"
  /><g
  ><defs id="defs1"
    ><clipPath clipPathUnits="userSpaceOnUse" id="clipPath1"
      ><path d="M0 0 L500 0 L500 500 L0 500 L0 0 Z"
      /></clipPath
    ></defs
    ><g style="fill:white; stroke:white;"
    ><rect x="0" y="0" width="500" style="clip-path:url(#clipPath1); stroke:none;" height="500"
    /></g
    ><g style="fill:white; text-rendering:optimizeSpeed; color-rendering:optimizeSpeed; image-rendering:optimizeSpeed; shape-rendering:crispEdges; stroke:white; color-interpolation:sRGB;"
    ><rect x="0" width="500" height="500" y="0" style="stroke:none;"
      /><path style="stroke:none;" d="M73 439 L453 439 L453 37 L73 37 Z"
    /></g
    ><g style="stroke-linecap:butt; fill-opacity:0.149; fill:rgb(38,38,38); text-rendering:geometricPrecision; image-rendering:optimizeQuality; color-rendering:optimizeQuality; stroke-linejoin:round; stroke:rgb(38,38,38); color-interpolation:linearRGB; stroke-width:0.8333; stroke-opacity:0.149;"
    ><line y2="37" style="fill:none;" x1="73" x2="73" y1="439"
      /><line y2="37" style="fill:none;" x1="149" x2="149" y1="439"
      /><line y2="37" style="fill:none;" x1="225" x2="225" y1="439"
      /><line y2="37" style="fill:none;" x1="301" x2="301" y1="439"
      /><line y2="37" style="fill:none;" x1="377" x2="377" y1="439"
      /><line y2="37" style="fill:none;" x1="453" x2="453" y1="439"
      /><line y2="439" style="fill:none;" x1="453" x2="73" y1="439"
      /><line y2="381.5714" style="fill:none;" x1="453" x2="73" y1="381.5714"
      /><line y2="324.1429" style="fill:none;" x1="453" x2="73" y1="324.1429"
      /><line y2="266.7143" style="fill:none;" x1="453" x2="73" y1="266.7143"
      /><line y2="209.2857" style="fill:none;" x1="453" x2="73" y1="209.2857"
      /><line y2="151.8571" style="fill:none;" x1="453" x2="73" y1="151.8571"
      /><line y2="94.4286" style="fill:none;" x1="453" x2="73" y1="94.4286"
      /><line y2="37" style="fill:none;" x1="453" x2="73" y1="37"
      /><line x1="73" x2="73" y1="439" style="stroke-linecap:square; fill-opacity:1; fill:none; stroke-opacity:1;" y2="37"
      /><line x1="453" x2="453" y1="439" style="stroke-linecap:square; fill-opacity:1; fill:none; stroke-opacity:1;" y2="37"
      /><line x1="73" x2="77.02" y1="439" style="stroke-linecap:square; fill-opacity:1; fill:none; stroke-opacity:1;" y2="439"
      /><line x1="73" x2="77.02" y1="381.5714" style="stroke-linecap:square; fill-opacity:1; fill:none; stroke-opacity:1;" y2="381.5714"
      /><line x1="73" x2="77.02" y1="324.1429" style="stroke-linecap:square; fill-opacity:1; fill:none; stroke-opacity:1;" y2="324.1429"
      /><line x1="73" x2="77.02" y1="266.7143" style="stroke-linecap:square; fill-opacity:1; fill:none; stroke-opacity:1;" y2="266.7143"
      /><line x1="73" x2="77.02" y1="209.2857" style="stroke-linecap:square; fill-opacity:1; fill:none; stroke-opacity:1;" y2="209.2857"
      /><line x1="73" x2="77.02" y1="151.8571" style="stroke-linecap:square; fill-opacity:1; fill:none; stroke-opacity:1;" y2="151.8571"
      /><line x1="73" x2="77.02" y1="94.4286" style="stroke-linecap:square; fill-opacity:1; fill:none; stroke-opacity:1;" y2="94.4286"
      /><line x1="73" x2="77.02" y1="37" style="stroke-linecap:square; fill-opacity:1; fill:none; stroke-opacity:1;" y2="37"
      /><line x1="453" x2="448.98" y1="439" style="stroke-linecap:square; fill-opacity:1; fill:none; stroke-opacity:1;" y2="439"
      /><line x1="453" x2="448.98" y1="381.5714" style="stroke-linecap:square; fill-opacity:1; fill:none; stroke-opacity:1;" y2="381.5714"
      /><line x1="453" x2="448.98" y1="324.1429" style="stroke-linecap:square; fill-opacity:1; fill:none; stroke-opacity:1;" y2="324.1429"
      /><line x1="453" x2="448.98" y1="266.7143" style="stroke-linecap:square; fill-opacity:1; fill:none; stroke-opacity:1;" y2="266.7143"
      /><line x1="453" x2="448.98" y1="209.2857" style="stroke-linecap:square; fill-opacity:1; fill:none; stroke-opacity:1;" y2="209.2857"
      /><line x1="453" x2="448.98" y1="151.8571" style="stroke-linecap:square; fill-opacity:1; fill:none; stroke-opacity:1;" y2="151.8571"
      /><line x1="453" x2="448.98" y1="94.4286" style="stroke-linecap:square; fill-opacity:1; fill:none; stroke-opacity:1;" y2="94.4286"
      /><line x1="453" x2="448.98" y1="37" style="stroke-linecap:square; fill-opacity:1; fill:none; stroke-opacity:1;" y2="37"
    /></g
    ><g transform="translate(66.3333,439)" style="font-size:16.6667px; fill:rgb(38,38,38); text-rendering:geometricPrecision; image-rendering:optimizeQuality; color-rendering:optimizeQuality; font-family:'SansSerif'; stroke:rgb(38,38,38); color-interpolation:linearRGB;"
    ><path style="stroke:none;" d="M-28.4531 2.8438 L-28.4531 1.3438 L-23.875 1.3438 L-23.875 2.8438 L-28.4531 2.8438 ZM-22.7502 0.5 Q-22.7502 -1.6562 -22.3049 -2.9766 Q-21.8596 -4.2969 -20.9846 -5.0078 Q-20.1096 -5.7188 -18.7815 -5.7188 Q-17.7971 -5.7188 -17.0627 -5.3281 Q-16.3283 -4.9375 -15.844 -4.1875 Q-15.3596 -3.4375 -15.0862 -2.375 Q-14.8127 -1.3125 -14.8127 0.5 Q-14.8127 2.6406 -15.2502 3.9531 Q-15.6877 5.2656 -16.5627 5.9844 Q-17.4377 6.7031 -18.7815 6.7031 Q-20.5471 6.7031 -21.5471 5.4531 Q-22.7502 3.9219 -22.7502 0.5 ZM-21.219 0.5 Q-21.219 3.5 -20.5158 4.4922 Q-19.8127 5.4844 -18.7815 5.4844 Q-17.7502 5.4844 -17.0471 4.4844 Q-16.344 3.4844 -16.344 0.5 Q-16.344 -2.5 -17.0471 -3.4922 Q-17.7502 -4.4844 -18.7971 -4.4844 Q-19.8283 -4.4844 -20.4377 -3.6094 Q-21.219 -2.5 -21.219 0.5 ZM-12.6431 6.5 L-12.6431 4.7969 L-10.9399 4.7969 L-10.9399 6.5 L-12.6431 6.5 ZM-0.9998 5.0625 L-0.9998 6.5 L-9.0467 6.5 Q-9.0623 5.9531 -8.8748 5.4688 Q-8.5623 4.6406 -7.8904 3.8438 Q-7.2185 3.0469 -5.9373 2 Q-3.9529 0.375 -3.2576 -0.5781 Q-2.5623 -1.5312 -2.5623 -2.375 Q-2.5623 -3.2656 -3.1951 -3.875 Q-3.8279 -4.4844 -4.8435 -4.4844 Q-5.9217 -4.4844 -6.5701 -3.8359 Q-7.2185 -3.1875 -7.2342 -2.0469 L-8.7654 -2.2031 Q-8.6092 -3.9219 -7.5779 -4.8203 Q-6.5467 -5.7188 -4.8123 -5.7188 Q-3.0623 -5.7188 -2.0388 -4.75 Q-1.0154 -3.7812 -1.0154 -2.3438 Q-1.0154 -1.6094 -1.3201 -0.9062 Q-1.6248 -0.2031 -2.3123 0.5781 Q-2.9998 1.3594 -4.6092 2.7188 Q-5.9529 3.8594 -6.3357 4.2578 Q-6.7185 4.6562 -6.9685 5.0625 L-0.9998 5.0625 Z"
    /></g
    ><g transform="translate(66.3333,381.5714)" style="font-size:16.6667px; fill:rgb(38,38,38); text-rendering:geometricPrecision; image-rendering:optimizeQuality; color-rendering:optimizeQuality; font-family:'SansSerif'; stroke:rgb(38,38,38); color-interpolation:linearRGB;"
    ><path style="stroke:none;" d="M-28.4531 2.8438 L-28.4531 1.3438 L-23.875 1.3438 L-23.875 2.8438 L-28.4531 2.8438 ZM-22.7502 0.5 Q-22.7502 -1.6562 -22.3049 -2.9766 Q-21.8596 -4.2969 -20.9846 -5.0078 Q-20.1096 -5.7188 -18.7815 -5.7188 Q-17.7971 -5.7188 -17.0627 -5.3281 Q-16.3283 -4.9375 -15.844 -4.1875 Q-15.3596 -3.4375 -15.0862 -2.375 Q-14.8127 -1.3125 -14.8127 0.5 Q-14.8127 2.6406 -15.2502 3.9531 Q-15.6877 5.2656 -16.5627 5.9844 Q-17.4377 6.7031 -18.7815 6.7031 Q-20.5471 6.7031 -21.5471 5.4531 Q-22.7502 3.9219 -22.7502 0.5 ZM-21.219 0.5 Q-21.219 3.5 -20.5158 4.4922 Q-19.8127 5.4844 -18.7815 5.4844 Q-17.7502 5.4844 -17.0471 4.4844 Q-16.344 3.4844 -16.344 0.5 Q-16.344 -2.5 -17.0471 -3.4922 Q-17.7502 -4.4844 -18.7971 -4.4844 Q-19.8283 -4.4844 -20.4377 -3.6094 Q-21.219 -2.5 -21.219 0.5 ZM-12.6431 6.5 L-12.6431 4.7969 L-10.9399 4.7969 L-10.9399 6.5 L-12.6431 6.5 ZM-3.2342 6.5 L-4.7185 6.5 L-4.7185 -3.0156 Q-5.2654 -2.5 -6.1404 -1.9922 Q-7.0154 -1.4844 -7.7185 -1.2188 L-7.7185 -2.6719 Q-6.4529 -3.25 -5.5154 -4.0938 Q-4.5779 -4.9375 -4.1873 -5.7188 L-3.2342 -5.7188 L-3.2342 6.5 Z"
    /></g
    ><g transform="translate(66.3333,324.1429)" style="font-size:16.6667px; fill:rgb(38,38,38); text-rendering:geometricPrecision; image-rendering:optimizeQuality; color-rendering:optimizeQuality; font-family:'SansSerif'; stroke:rgb(38,38,38); color-interpolation:linearRGB;"
    ><path style="stroke:none;" d="M-9.2969 0.5 Q-9.2969 -1.6562 -8.8516 -2.9766 Q-8.4062 -4.2969 -7.5312 -5.0078 Q-6.6562 -5.7188 -5.3281 -5.7188 Q-4.3438 -5.7188 -3.6094 -5.3281 Q-2.875 -4.9375 -2.3906 -4.1875 Q-1.9062 -3.4375 -1.6328 -2.375 Q-1.3594 -1.3125 -1.3594 0.5 Q-1.3594 2.6406 -1.7969 3.9531 Q-2.2344 5.2656 -3.1094 5.9844 Q-3.9844 6.7031 -5.3281 6.7031 Q-7.0938 6.7031 -8.0938 5.4531 Q-9.2969 3.9219 -9.2969 0.5 ZM-7.7656 0.5 Q-7.7656 3.5 -7.0625 4.4922 Q-6.3594 5.4844 -5.3281 5.4844 Q-4.2969 5.4844 -3.5938 4.4844 Q-2.8906 3.4844 -2.8906 0.5 Q-2.8906 -2.5 -3.5938 -3.4922 Q-4.2969 -4.4844 -5.3438 -4.4844 Q-6.375 -4.4844 -6.9844 -3.6094 Q-7.7656 -2.5 -7.7656 0.5 Z"
    /></g
    ><g transform="translate(66.3333,266.7143)" style="font-size:16.6667px; fill:rgb(38,38,38); text-rendering:geometricPrecision; image-rendering:optimizeQuality; color-rendering:optimizeQuality; font-family:'SansSerif'; stroke:rgb(38,38,38); color-interpolation:linearRGB;"
    ><path style="stroke:none;" d="M-23.2969 0.5 Q-23.2969 -1.6562 -22.8516 -2.9766 Q-22.4062 -4.2969 -21.5312 -5.0078 Q-20.6562 -5.7188 -19.3281 -5.7188 Q-18.3438 -5.7188 -17.6094 -5.3281 Q-16.875 -4.9375 -16.3906 -4.1875 Q-15.9062 -3.4375 -15.6328 -2.375 Q-15.3594 -1.3125 -15.3594 0.5 Q-15.3594 2.6406 -15.7969 3.9531 Q-16.2344 5.2656 -17.1094 5.9844 Q-17.9844 6.7031 -19.3281 6.7031 Q-21.0938 6.7031 -22.0938 5.4531 Q-23.2969 3.9219 -23.2969 0.5 ZM-21.7656 0.5 Q-21.7656 3.5 -21.0625 4.4922 Q-20.3594 5.4844 -19.3281 5.4844 Q-18.2969 5.4844 -17.5938 4.4844 Q-16.8906 3.4844 -16.8906 0.5 Q-16.8906 -2.5 -17.5938 -3.4922 Q-18.2969 -4.4844 -19.3438 -4.4844 Q-20.375 -4.4844 -20.9844 -3.6094 Q-21.7656 -2.5 -21.7656 0.5 ZM-13.1897 6.5 L-13.1897 4.7969 L-11.4866 4.7969 L-11.4866 6.5 L-13.1897 6.5 ZM-3.7808 6.5 L-5.2652 6.5 L-5.2652 -3.0156 Q-5.8121 -2.5 -6.6871 -1.9922 Q-7.5621 -1.4844 -8.2652 -1.2188 L-8.2652 -2.6719 Q-6.9996 -3.25 -6.0621 -4.0938 Q-5.1246 -4.9375 -4.7339 -5.7188 L-3.7808 -5.7188 L-3.7808 6.5 Z"
    /></g
    ><g transform="translate(66.3333,209.2857)" style="font-size:16.6667px; fill:rgb(38,38,38); text-rendering:geometricPrecision; image-rendering:optimizeQuality; color-rendering:optimizeQuality; font-family:'SansSerif'; stroke:rgb(38,38,38); color-interpolation:linearRGB;"
    ><path style="stroke:none;" d="M-23.2969 0.5 Q-23.2969 -1.6562 -22.8516 -2.9766 Q-22.4062 -4.2969 -21.5312 -5.0078 Q-20.6562 -5.7188 -19.3281 -5.7188 Q-18.3438 -5.7188 -17.6094 -5.3281 Q-16.875 -4.9375 -16.3906 -4.1875 Q-15.9062 -3.4375 -15.6328 -2.375 Q-15.3594 -1.3125 -15.3594 0.5 Q-15.3594 2.6406 -15.7969 3.9531 Q-16.2344 5.2656 -17.1094 5.9844 Q-17.9844 6.7031 -19.3281 6.7031 Q-21.0938 6.7031 -22.0938 5.4531 Q-23.2969 3.9219 -23.2969 0.5 ZM-21.7656 0.5 Q-21.7656 3.5 -21.0625 4.4922 Q-20.3594 5.4844 -19.3281 5.4844 Q-18.2969 5.4844 -17.5938 4.4844 Q-16.8906 3.4844 -16.8906 0.5 Q-16.8906 -2.5 -17.5938 -3.4922 Q-18.2969 -4.4844 -19.3438 -4.4844 Q-20.375 -4.4844 -20.9844 -3.6094 Q-21.7656 -2.5 -21.7656 0.5 ZM-13.1897 6.5 L-13.1897 4.7969 L-11.4866 4.7969 L-11.4866 6.5 L-13.1897 6.5 ZM-1.5464 5.0625 L-1.5464 6.5 L-9.5933 6.5 Q-9.6089 5.9531 -9.4214 5.4688 Q-9.1089 4.6406 -8.4371 3.8438 Q-7.7652 3.0469 -6.4839 2 Q-4.4996 0.375 -3.8043 -0.5781 Q-3.1089 -1.5312 -3.1089 -2.375 Q-3.1089 -3.2656 -3.7418 -3.875 Q-4.3746 -4.4844 -5.3902 -4.4844 Q-6.4683 -4.4844 -7.1168 -3.8359 Q-7.7652 -3.1875 -7.7808 -2.0469 L-9.3121 -2.2031 Q-9.1558 -3.9219 -8.1246 -4.8203 Q-7.0933 -5.7188 -5.3589 -5.7188 Q-3.6089 -5.7188 -2.5855 -4.75 Q-1.5621 -3.7812 -1.5621 -2.3438 Q-1.5621 -1.6094 -1.8668 -0.9062 Q-2.1714 -0.2031 -2.8589 0.5781 Q-3.5464 1.3594 -5.1558 2.7188 Q-6.4996 3.8594 -6.8824 4.2578 Q-7.2652 4.6562 -7.5152 5.0625 L-1.5464 5.0625 Z"
    /></g
    ><g transform="translate(66.3333,151.8571)" style="font-size:16.6667px; fill:rgb(38,38,38); text-rendering:geometricPrecision; image-rendering:optimizeQuality; color-rendering:optimizeQuality; font-family:'SansSerif'; stroke:rgb(38,38,38); color-interpolation:linearRGB;"
    ><path style="stroke:none;" d="M-23.2969 0.5 Q-23.2969 -1.6562 -22.8516 -2.9766 Q-22.4062 -4.2969 -21.5312 -5.0078 Q-20.6562 -5.7188 -19.3281 -5.7188 Q-18.3438 -5.7188 -17.6094 -5.3281 Q-16.875 -4.9375 -16.3906 -4.1875 Q-15.9062 -3.4375 -15.6328 -2.375 Q-15.3594 -1.3125 -15.3594 0.5 Q-15.3594 2.6406 -15.7969 3.9531 Q-16.2344 5.2656 -17.1094 5.9844 Q-17.9844 6.7031 -19.3281 6.7031 Q-21.0938 6.7031 -22.0938 5.4531 Q-23.2969 3.9219 -23.2969 0.5 ZM-21.7656 0.5 Q-21.7656 3.5 -21.0625 4.4922 Q-20.3594 5.4844 -19.3281 5.4844 Q-18.2969 5.4844 -17.5938 4.4844 Q-16.8906 3.4844 -16.8906 0.5 Q-16.8906 -2.5 -17.5938 -3.4922 Q-18.2969 -4.4844 -19.3438 -4.4844 Q-20.375 -4.4844 -20.9844 -3.6094 Q-21.7656 -2.5 -21.7656 0.5 ZM-13.1897 6.5 L-13.1897 4.7969 L-11.4866 4.7969 L-11.4866 6.5 L-13.1897 6.5 ZM-9.3902 3.2812 L-7.9058 3.0938 Q-7.6402 4.3594 -7.023 4.9219 Q-6.4058 5.4844 -5.5152 5.4844 Q-4.4683 5.4844 -3.7418 4.75 Q-3.0152 4.0156 -3.0152 2.9375 Q-3.0152 1.9062 -3.6871 1.2422 Q-4.3589 0.5781 -5.3902 0.5781 Q-5.8121 0.5781 -6.4527 0.7344 L-6.2808 -0.5781 Q-6.1402 -0.5625 -6.0464 -0.5625 Q-5.0933 -0.5625 -4.3277 -1.0547 Q-3.5621 -1.5469 -3.5621 -2.5938 Q-3.5621 -3.4062 -4.1168 -3.9453 Q-4.6714 -4.4844 -5.5464 -4.4844 Q-6.4214 -4.4844 -6.9996 -3.9375 Q-7.5777 -3.3906 -7.7496 -2.2969 L-9.2496 -2.5625 Q-8.9683 -4.0625 -7.9996 -4.8906 Q-7.0308 -5.7188 -5.5777 -5.7188 Q-4.5933 -5.7188 -3.7496 -5.2891 Q-2.9058 -4.8594 -2.4683 -4.125 Q-2.0308 -3.3906 -2.0308 -2.5625 Q-2.0308 -1.7656 -2.4527 -1.1172 Q-2.8746 -0.4688 -3.7027 -0.0938 Q-2.6246 0.1562 -2.023 0.9453 Q-1.4214 1.7344 -1.4214 2.9062 Q-1.4214 4.5 -2.5855 5.6094 Q-3.7496 6.7188 -5.5308 6.7188 Q-7.1246 6.7188 -8.1871 5.7656 Q-9.2496 4.8125 -9.3902 3.2812 Z"
    /></g
    ><g transform="translate(66.3333,94.4286)" style="font-size:16.6667px; fill:rgb(38,38,38); text-rendering:geometricPrecision; image-rendering:optimizeQuality; color-rendering:optimizeQuality; font-family:'SansSerif'; stroke:rgb(38,38,38); color-interpolation:linearRGB;"
    ><path style="stroke:none;" d="M-23.2969 0.5 Q-23.2969 -1.6562 -22.8516 -2.9766 Q-22.4062 -4.2969 -21.5312 -5.0078 Q-20.6562 -5.7188 -19.3281 -5.7188 Q-18.3438 -5.7188 -17.6094 -5.3281 Q-16.875 -4.9375 -16.3906 -4.1875 Q-15.9062 -3.4375 -15.6328 -2.375 Q-15.3594 -1.3125 -15.3594 0.5 Q-15.3594 2.6406 -15.7969 3.9531 Q-16.2344 5.2656 -17.1094 5.9844 Q-17.9844 6.7031 -19.3281 6.7031 Q-21.0938 6.7031 -22.0938 5.4531 Q-23.2969 3.9219 -23.2969 0.5 ZM-21.7656 0.5 Q-21.7656 3.5 -21.0625 4.4922 Q-20.3594 5.4844 -19.3281 5.4844 Q-18.2969 5.4844 -17.5938 4.4844 Q-16.8906 3.4844 -16.8906 0.5 Q-16.8906 -2.5 -17.5938 -3.4922 Q-18.2969 -4.4844 -19.3438 -4.4844 Q-20.375 -4.4844 -20.9844 -3.6094 Q-21.7656 -2.5 -21.7656 0.5 ZM-13.1897 6.5 L-13.1897 4.7969 L-11.4866 4.7969 L-11.4866 6.5 L-13.1897 6.5 ZM-4.6089 6.5 L-4.6089 3.5938 L-9.8902 3.5938 L-9.8902 2.2188 L-4.3433 -5.6719 L-3.1246 -5.6719 L-3.1246 2.2188 L-1.4683 2.2188 L-1.4683 3.5938 L-3.1246 3.5938 L-3.1246 6.5 L-4.6089 6.5 ZM-4.6089 2.2188 L-4.6089 -3.2656 L-8.4214 2.2188 L-4.6089 2.2188 Z"
    /></g
    ><g transform="translate(66.3333,37)" style="font-size:16.6667px; fill:rgb(38,38,38); text-rendering:geometricPrecision; image-rendering:optimizeQuality; color-rendering:optimizeQuality; font-family:'SansSerif'; stroke:rgb(38,38,38); color-interpolation:linearRGB;"
    ><path style="stroke:none;" d="M-23.2969 0.5 Q-23.2969 -1.6562 -22.8516 -2.9766 Q-22.4062 -4.2969 -21.5312 -5.0078 Q-20.6562 -5.7188 -19.3281 -5.7188 Q-18.3438 -5.7188 -17.6094 -5.3281 Q-16.875 -4.9375 -16.3906 -4.1875 Q-15.9062 -3.4375 -15.6328 -2.375 Q-15.3594 -1.3125 -15.3594 0.5 Q-15.3594 2.6406 -15.7969 3.9531 Q-16.2344 5.2656 -17.1094 5.9844 Q-17.9844 6.7031 -19.3281 6.7031 Q-21.0938 6.7031 -22.0938 5.4531 Q-23.2969 3.9219 -23.2969 0.5 ZM-21.7656 0.5 Q-21.7656 3.5 -21.0625 4.4922 Q-20.3594 5.4844 -19.3281 5.4844 Q-18.2969 5.4844 -17.5938 4.4844 Q-16.8906 3.4844 -16.8906 0.5 Q-16.8906 -2.5 -17.5938 -3.4922 Q-18.2969 -4.4844 -19.3438 -4.4844 Q-20.375 -4.4844 -20.9844 -3.6094 Q-21.7656 -2.5 -21.7656 0.5 ZM-13.1897 6.5 L-13.1897 4.7969 L-11.4866 4.7969 L-11.4866 6.5 L-13.1897 6.5 ZM-9.4058 3.3125 L-7.8277 3.1719 Q-7.6558 4.3281 -7.023 4.9062 Q-6.3902 5.4844 -5.4996 5.4844 Q-4.4214 5.4844 -3.6714 4.6719 Q-2.9214 3.8594 -2.9214 2.5 Q-2.9214 1.2344 -3.6402 0.4922 Q-4.3589 -0.25 -5.5152 -0.25 Q-6.2339 -0.25 -6.8199 0.0781 Q-7.4058 0.4062 -7.7339 0.9375 L-9.1402 0.75 L-7.9527 -5.5 L-1.9058 -5.5 L-1.9058 -4.0781 L-6.7652 -4.0781 L-7.4214 -0.8125 Q-6.3277 -1.5625 -5.1246 -1.5625 Q-3.5308 -1.5625 -2.4293 -0.4609 Q-1.3277 0.6406 -1.3277 2.375 Q-1.3277 4.0312 -2.2964 5.2344 Q-3.4683 6.7031 -5.4996 6.7031 Q-7.1558 6.7031 -8.2027 5.7734 Q-9.2496 4.8438 -9.4058 3.3125 Z"
    /></g
    ><g transform="translate(32.3333,237.9998) rotate(-90)" style="font-size:26.6667px; fill:rgb(38,38,38); text-rendering:geometricPrecision; image-rendering:optimizeQuality; color-rendering:optimizeQuality; font-family:'mwa_cmr10'; stroke:rgb(38,38,38); color-interpolation:linearRGB;"
    ><path style="stroke:none;" d="M-60.977 -9.6001 L-60.977 -10.5532 Q-58.5708 -10.5532 -58.0083 -12.147 L-52.352 -28.6313 Q-52.2739 -28.9282 -51.9145 -28.9282 L-51.5708 -28.9282 Q-51.2114 -28.9282 -51.1333 -28.6313 L-45.2114 -11.4126 Q-44.9614 -10.8345 -44.2583 -10.6938 Q-43.5551 -10.5532 -42.4926 -10.5532 L-42.4926 -9.6001 L-50.0239 -9.6001 L-50.0239 -10.5532 Q-47.7895 -10.5532 -47.7895 -11.272 L-47.7895 -11.4126 L-49.2426 -15.6313 L-55.8051 -15.6313 L-57.0083 -12.147 Q-57.0395 -12.0532 -57.0395 -11.8657 Q-57.0395 -11.1938 -56.3989 -10.8735 Q-55.7583 -10.5532 -55.0239 -10.5532 L-55.0239 -9.6001 L-60.977 -9.6001 ZM-55.477 -16.5688 L-49.5708 -16.5688 L-52.5239 -25.1782 L-55.477 -16.5688 Z"
      /><path style="stroke:none;" d="M-41.0551 -9.6001 L-41.0551 -10.5532 Q-40.1176 -10.5532 -39.5317 -10.6938 Q-38.9457 -10.8345 -38.9457 -11.4126 L-38.9457 -18.772 Q-38.9457 -19.5063 -39.1567 -19.8267 Q-39.3676 -20.147 -39.7817 -20.2173 Q-40.1957 -20.2876 -41.0551 -20.2876 L-41.0551 -21.2407 L-37.1332 -21.5376 L-37.1332 -18.897 Q-36.5863 -20.0532 -35.5238 -20.7954 Q-34.4613 -21.5376 -33.2113 -21.5376 Q-30.102 -21.5376 -29.5707 -19.0063 Q-29.0238 -20.1313 -27.9848 -20.8345 Q-26.9457 -21.5376 -25.6957 -21.5376 Q-24.477 -21.5376 -23.641 -21.1392 Q-22.8051 -20.7407 -22.3832 -19.9282 Q-21.9613 -19.1157 -21.9613 -17.897 L-21.9613 -11.4126 Q-21.9613 -10.8345 -21.3598 -10.6938 Q-20.7582 -10.5532 -19.852 -10.5532 L-19.852 -9.6001 L-26.0238 -9.6001 L-26.0238 -10.5532 Q-25.102 -10.5532 -24.5082 -10.6938 Q-23.9145 -10.8345 -23.9145 -11.4126 L-23.9145 -17.8188 Q-23.9145 -19.1782 -24.2973 -20.0063 Q-24.6801 -20.8345 -25.8676 -20.8345 Q-27.4301 -20.8345 -28.4457 -19.5845 Q-29.4613 -18.3345 -29.4613 -16.7251 L-29.4613 -11.4126 Q-29.4613 -10.8345 -28.8676 -10.6938 Q-28.2738 -10.5532 -27.352 -10.5532 L-27.352 -9.6001 L-33.5395 -9.6001 L-33.5395 -10.5532 Q-32.6176 -10.5532 -32.0238 -10.6938 Q-31.4301 -10.8345 -31.4301 -11.4126 L-31.4301 -17.8188 Q-31.4301 -19.1313 -31.8129 -19.9829 Q-32.1957 -20.8345 -33.3676 -20.8345 Q-34.9457 -20.8345 -35.9535 -19.5845 Q-36.9613 -18.3345 -36.9613 -16.7251 L-36.9613 -11.4126 Q-36.9613 -10.8345 -36.3676 -10.6938 Q-35.7738 -10.5532 -34.8676 -10.5532 L-34.8676 -9.6001 L-41.0551 -9.6001 Z"
      /><path style="stroke:none;" d="M-18.9266 -4.3657 L-18.9266 -5.3032 Q-18.0047 -5.3032 -17.4109 -5.4595 Q-16.8172 -5.6157 -16.8172 -6.1782 L-16.8172 -19.1782 Q-16.8172 -19.9282 -17.3484 -20.1079 Q-17.8797 -20.2876 -18.9266 -20.2876 L-18.9266 -21.2407 L-14.9422 -21.5376 L-14.9422 -19.8501 Q-14.1922 -20.6782 -13.2156 -21.1079 Q-12.2391 -21.5376 -11.1297 -21.5376 Q-9.5359 -21.5376 -8.2547 -20.6704 Q-6.9734 -19.8032 -6.2547 -18.397 Q-5.5359 -16.9907 -5.5359 -15.4282 Q-5.5359 -13.7876 -6.3328 -12.3813 Q-7.1297 -10.9751 -8.5047 -10.1392 Q-9.8797 -9.3032 -11.5359 -9.3032 Q-13.5047 -9.3032 -14.8641 -10.897 L-14.8641 -6.1782 Q-14.8641 -5.6157 -14.2625 -5.4595 Q-13.6609 -5.3032 -12.7547 -5.3032 L-12.7547 -4.3657 L-18.9266 -4.3657 ZM-14.8641 -12.2251 Q-14.3797 -11.2563 -13.5359 -10.6313 Q-12.6922 -10.0063 -11.6922 -10.0063 Q-10.7547 -10.0063 -10.0359 -10.5063 Q-9.3172 -11.0063 -8.8328 -11.8501 Q-8.3484 -12.6938 -8.1141 -13.6235 Q-7.8797 -14.5532 -7.8797 -15.4282 Q-7.8797 -16.5063 -8.2703 -17.7642 Q-8.6609 -19.022 -9.4578 -19.8892 Q-10.2547 -20.7563 -11.3953 -20.7563 Q-12.4891 -20.7563 -13.4031 -20.1938 Q-14.3172 -19.6313 -14.8641 -18.6782 L-14.8641 -12.2251 Z"
      /><path style="stroke:none;" d="M-3.9867 -9.6001 L-3.9867 -10.5532 Q-3.0648 -10.5532 -2.4711 -10.6938 Q-1.8773 -10.8345 -1.8773 -11.4126 L-1.8773 -25.5845 Q-1.8773 -26.3032 -2.0961 -26.6235 Q-2.3148 -26.9438 -2.7211 -27.022 Q-3.1273 -27.1001 -3.9867 -27.1001 L-3.9867 -28.0376 L0.0289 -28.3345 L0.0289 -11.4126 Q0.0289 -10.8345 0.6227 -10.6938 Q1.2164 -10.5532 2.1227 -10.5532 L2.1227 -9.6001 L-3.9867 -9.6001 Z"
      /><path style="stroke:none;" d="M3.4207 -9.6001 L3.4207 -10.5532 Q4.3426 -10.5532 4.9364 -10.6938 Q5.5301 -10.8345 5.5301 -11.4126 L5.5301 -18.772 Q5.5301 -19.8188 5.1317 -20.0532 Q4.7332 -20.2876 3.5457 -20.2876 L3.5457 -21.2407 L7.4364 -21.5376 L7.4364 -11.4126 Q7.4364 -10.8345 7.9442 -10.6938 Q8.452 -10.5532 9.3114 -10.5532 L9.3114 -9.6001 L3.4207 -9.6001 ZM4.577 -26.1782 Q4.577 -26.772 5.0223 -27.2173 Q5.4676 -27.6626 6.0457 -27.6626 Q6.4364 -27.6626 6.7879 -27.4673 Q7.1395 -27.272 7.3348 -26.9126 Q7.5301 -26.5532 7.5301 -26.1782 Q7.5301 -25.5845 7.0848 -25.1392 Q6.6395 -24.6938 6.0457 -24.6938 Q5.4676 -24.6938 5.0223 -25.1392 Q4.577 -25.5845 4.577 -26.1782 Z"
      /><path style="stroke:none;" d="M12.75 -12.8501 L12.75 -20.2876 L10.5157 -20.2876 L10.5157 -20.9907 Q12.2813 -20.9907 13.1094 -22.6392 Q13.9375 -24.2876 13.9375 -26.2095 L14.7188 -26.2095 L14.7188 -21.2407 L18.5313 -21.2407 L18.5313 -20.2876 L14.7188 -20.2876 L14.7188 -12.897 Q14.7188 -11.772 15.0938 -10.9282 Q15.4688 -10.0845 16.4532 -10.0845 Q17.375 -10.0845 17.7813 -10.9751 Q18.1875 -11.8657 18.1875 -12.897 L18.1875 -14.4907 L18.9688 -14.4907 L18.9688 -12.8501 Q18.9688 -12.0063 18.6563 -11.1782 Q18.3438 -10.3501 17.7344 -9.8267 Q17.125 -9.3032 16.2657 -9.3032 Q14.6407 -9.3032 13.6954 -10.272 Q12.75 -11.2407 12.75 -12.8501 Z"
      /><path style="stroke:none;" d="M23.2767 -12.8188 L23.2767 -18.772 Q23.2767 -19.5063 23.0658 -19.8267 Q22.8548 -20.147 22.4408 -20.2173 Q22.0267 -20.2876 21.1673 -20.2876 L21.1673 -21.2407 L25.2611 -21.5376 L25.2611 -12.8188 Q25.2611 -11.7563 25.4095 -11.1704 Q25.5579 -10.5845 26.0579 -10.2954 Q26.5579 -10.0063 27.6361 -10.0063 Q29.0892 -10.0063 29.9408 -11.2173 Q30.7923 -12.4282 30.7923 -13.9751 L30.7923 -18.772 Q30.7923 -19.5063 30.5736 -19.8267 Q30.3548 -20.147 29.9486 -20.2173 Q29.5423 -20.2876 28.6829 -20.2876 L28.6829 -21.2407 L32.7611 -21.5376 L32.7611 -12.0532 Q32.7611 -11.3345 32.9798 -11.0142 Q33.1986 -10.6938 33.6048 -10.6235 Q34.0111 -10.5532 34.8704 -10.5532 L34.8704 -9.6001 L30.8704 -9.3032 L30.8704 -11.5845 Q30.3704 -10.5688 29.4798 -9.936 Q28.5892 -9.3032 27.4954 -9.3032 Q25.5579 -9.3032 24.4173 -10.1235 Q23.2767 -10.9438 23.2767 -12.8188 Z"
      /><path style="stroke:none;" d="M41.7791 -9.3032 Q40.1853 -9.3032 38.865 -10.1626 Q37.5447 -11.022 36.8103 -12.436 Q36.0759 -13.8501 36.0759 -15.4282 Q36.0759 -17.0688 36.8728 -18.4673 Q37.6697 -19.8657 39.0447 -20.7017 Q40.4197 -21.5376 42.0603 -21.5376 Q43.0603 -21.5376 43.9431 -21.1157 Q44.8259 -20.6938 45.4666 -19.9595 L45.4666 -25.5845 Q45.4666 -26.3032 45.2478 -26.6235 Q45.0291 -26.9438 44.6306 -27.022 Q44.2322 -27.1001 43.3728 -27.1001 L43.3728 -28.0376 L47.3728 -28.3345 L47.3728 -12.0532 Q47.3728 -11.3345 47.5837 -11.0142 Q47.7947 -10.6938 48.2009 -10.6235 Q48.6072 -10.5532 49.4666 -10.5532 L49.4666 -9.6001 L45.3884 -9.3032 L45.3884 -10.9907 Q44.6853 -10.1938 43.7244 -9.7485 Q42.7634 -9.3032 41.7791 -9.3032 ZM39.0291 -11.9438 Q39.4822 -11.0688 40.2556 -10.5376 Q41.0291 -10.0063 41.9353 -10.0063 Q43.0603 -10.0063 43.9978 -10.6548 Q44.9353 -11.3032 45.3884 -12.3345 L45.3884 -18.8032 Q45.0759 -19.397 44.5916 -19.8657 Q44.1072 -20.3345 43.5056 -20.5845 Q42.9041 -20.8345 42.2322 -20.8345 Q40.8259 -20.8345 39.9666 -20.0376 Q39.1072 -19.2407 38.7712 -17.9985 Q38.4353 -16.7563 38.4353 -15.397 Q38.4353 -14.3188 38.5447 -13.5142 Q38.6541 -12.7095 39.0291 -11.9438 Z"
      /><path style="stroke:none;" d="M56.7189 -9.3032 Q55.0783 -9.3032 53.7033 -10.1626 Q52.3283 -11.022 51.5392 -12.4673 Q50.7502 -13.9126 50.7502 -15.522 Q50.7502 -17.1001 51.4689 -18.522 Q52.1877 -19.9438 53.4767 -20.8267 Q54.7658 -21.7095 56.3439 -21.7095 Q57.5783 -21.7095 58.4924 -21.2876 Q59.4064 -20.8657 60.0002 -20.1313 Q60.5939 -19.397 60.8986 -18.397 Q61.2033 -17.397 61.2033 -16.1938 Q61.2033 -15.8345 60.922 -15.8345 L53.1095 -15.8345 L53.1095 -15.5532 Q53.1095 -13.3032 54.0158 -11.6938 Q54.922 -10.0845 56.9689 -10.0845 Q57.797 -10.0845 58.5002 -10.4517 Q59.2033 -10.8188 59.7267 -11.4829 Q60.2502 -12.147 60.422 -12.897 Q60.4533 -12.9907 60.5236 -13.061 Q60.5939 -13.1313 60.6877 -13.1313 L60.922 -13.1313 Q61.2033 -13.1313 61.2033 -12.7876 Q60.8283 -11.2563 59.5627 -10.2798 Q58.297 -9.3032 56.7189 -9.3032 ZM53.1408 -16.5063 L59.297 -16.5063 Q59.297 -17.522 59.0158 -18.561 Q58.7345 -19.6001 58.0705 -20.2954 Q57.4064 -20.9907 56.3439 -20.9907 Q54.8127 -20.9907 53.9767 -19.561 Q53.1408 -18.1313 53.1408 -16.5063 Z"
    /></g
    ><g style="stroke-linecap:butt; fill:rgb(38,38,38); text-rendering:geometricPrecision; image-rendering:optimizeQuality; color-rendering:optimizeQuality; stroke-linejoin:round; stroke:rgb(38,38,38); color-interpolation:linearRGB; stroke-width:0.8333;"
    ><line y2="324.1429" style="fill:none;" x1="73" x2="453" y1="324.1429"
    /></g
    ><g transform="translate(88.2,323.8053)" style="stroke-linecap:butt; fill:red; text-rendering:geometricPrecision; color-rendering:optimizeQuality; image-rendering:optimizeQuality; stroke:red; color-interpolation:linearRGB; stroke-width:2.5;"
    ><circle r="5" style="fill:none;" cx="0" cy="0"
      /><circle r="5" style="fill:none;" cx="0" transform="translate(15.2,-1.5695)" cy="0"
      /><circle r="5" style="fill:none;" cx="0" transform="translate(30.4,0.506)" cy="0"
      /><circle r="5" style="fill:none;" cx="0" transform="translate(45.6,6.4866)" cy="0"
      /><circle r="5" style="fill:none;" cx="0" transform="translate(60.8,1.8687)" cy="0"
      /><circle r="5" style="fill:none;" cx="0" transform="translate(76,-15.9249)" cy="0"
      /><circle r="5" style="fill:none;" cx="0" transform="translate(91.2,-8.4322)" cy="0"
      /><circle r="5" style="fill:none;" cx="0" transform="translate(106.4,36.6055)" cy="0"
      /><circle r="5" style="fill:none;" cx="0" transform="translate(121.6,33.2339)" cy="0"
      /><circle r="5" style="fill:none;" cx="0" transform="translate(136.8,-92.8643)" cy="0"
      /><circle r="5" style="fill:none;" cx="0" transform="translate(152,-243.3391)" cy="0"
      /><circle r="5" style="fill:none;" cx="0" transform="translate(167.2,-243.3391)" cy="0"
      /><circle r="5" style="fill:none;" cx="0" transform="translate(182.4,-92.8643)" cy="0"
      /><circle r="5" style="fill:none;" cx="0" transform="translate(197.6,33.2339)" cy="0"
      /><circle r="5" style="fill:none;" cx="0" transform="translate(212.8,36.6055)" cy="0"
      /><circle r="5" style="fill:none;" cx="0" transform="translate(228,-8.4322)" cy="0"
      /><circle r="5" style="fill:none;" cx="0" transform="translate(243.2,-15.9249)" cy="0"
      /><circle r="5" style="fill:none;" cx="0" transform="translate(258.4,1.8687)" cy="0"
      /><circle r="5" style="fill:none;" cx="0" transform="translate(273.6,6.4866)" cy="0"
      /><circle r="5" style="fill:none;" cx="0" transform="translate(288.8,0.506)" cy="0"
      /><circle r="5" style="fill:none;" cx="0" transform="translate(304,-1.5695)" cy="0"
      /><circle r="5" style="fill:none;" cx="0" transform="translate(319.2,0)" cy="0"
      /><line transform="translate(-88.2,-323.8053)" x1="88.2" x2="88.2" y1="324.1429" style="fill:none; stroke-linejoin:round;" y2="323.8053"
      /><line transform="translate(-88.2,-323.8053)" x1="103.4" x2="103.4" y1="324.1429" style="fill:none; stroke-linejoin:round;" y2="322.2357"
      /><line transform="translate(-88.2,-323.8053)" x1="118.6" x2="118.6" y1="324.1429" style="fill:none; stroke-linejoin:round;" y2="324.3112"
      /><line transform="translate(-88.2,-323.8053)" x1="133.8" x2="133.8" y1="324.1429" style="fill:none; stroke-linejoin:round;" y2="330.2919"
      /><line transform="translate(-88.2,-323.8053)" x1="149" x2="149" y1="324.1429" style="fill:none; stroke-linejoin:round;" y2="325.674"
      /><line transform="translate(-88.2,-323.8053)" x1="164.2" x2="164.2" y1="324.1429" style="fill:none; stroke-linejoin:round;" y2="307.8803"
      /><line transform="translate(-88.2,-323.8053)" x1="179.4" x2="179.4" y1="324.1429" style="fill:none; stroke-linejoin:round;" y2="315.373"
      /><line transform="translate(-88.2,-323.8053)" x1="194.6" x2="194.6" y1="324.1429" style="fill:none; stroke-linejoin:round;" y2="360.4108"
      /><line transform="translate(-88.2,-323.8053)" x1="209.8" x2="209.8" y1="324.1429" style="fill:none; stroke-linejoin:round;" y2="357.0392"
      /><line transform="translate(-88.2,-323.8053)" x1="225" x2="225" y1="324.1429" style="fill:none; stroke-linejoin:round;" y2="230.941"
      /><line transform="translate(-88.2,-323.8053)" x1="240.2" x2="240.2" y1="324.1429" style="fill:none; stroke-linejoin:round;" y2="80.4661"
      /><line transform="translate(-88.2,-323.8053)" x1="255.4" x2="255.4" y1="324.1429" style="fill:none; stroke-linejoin:round;" y2="80.4661"
      /><line transform="translate(-88.2,-323.8053)" x1="270.6" x2="270.6" y1="324.1429" style="fill:none; stroke-linejoin:round;" y2="230.941"
      /><line transform="translate(-88.2,-323.8053)" x1="285.8" x2="285.8" y1="324.1429" style="fill:none; stroke-linejoin:round;" y2="357.0392"
      /><line transform="translate(-88.2,-323.8053)" x1="301" x2="301" y1="324.1429" style="fill:none; stroke-linejoin:round;" y2="360.4108"
      /><line transform="translate(-88.2,-323.8053)" x1="316.2" x2="316.2" y1="324.1429" style="fill:none; stroke-linejoin:round;" y2="315.373"
      /><line transform="translate(-88.2,-323.8053)" x1="331.4" x2="331.4" y1="324.1429" style="fill:none; stroke-linejoin:round;" y2="307.8803"
      /><line transform="translate(-88.2,-323.8053)" x1="346.6" x2="346.6" y1="324.1429" style="fill:none; stroke-linejoin:round;" y2="325.674"
      /><line transform="translate(-88.2,-323.8053)" x1="361.8" x2="361.8" y1="324.1429" style="fill:none; stroke-linejoin:round;" y2="330.2919"
      /><line transform="translate(-88.2,-323.8053)" x1="377" x2="377" y1="324.1429" style="fill:none; stroke-linejoin:round;" y2="324.3112"
      /><line transform="translate(-88.2,-323.8053)" x1="392.2" x2="392.2" y1="324.1429" style="fill:none; stroke-linejoin:round;" y2="322.2357"
      /><line transform="translate(-88.2,-323.8053)" x1="407.4" x2="407.4" y1="324.1429" style="fill:none; stroke-linejoin:round;" y2="323.8053"
      /><circle transform="translate(0,4.4826)" style="fill:none; stroke:blue;" r="5" cx="0" cy="0"
      /><circle transform="translate(15.2,25.2511)" style="fill:none; stroke:blue;" r="5" cx="0" cy="0"
      /><circle transform="translate(30.4,-34.5488)" style="fill:none; stroke:blue;" r="5" cx="0" cy="0"
      /><circle transform="translate(45.6,-16.6876)" style="fill:none; stroke:blue;" r="5" cx="0" cy="0"
      /><circle transform="translate(60.8,48.4256)" style="fill:none; stroke:blue;" r="5" cx="0" cy="0"
      /><circle transform="translate(76,12.7348)" style="fill:none; stroke:blue;" r="5" cx="0" cy="0"
      /><circle transform="translate(91.2,-60.0267)" style="fill:none; stroke:blue;" r="5" cx="0" cy="0"
      /><circle transform="translate(106.4,-3.5452)" style="fill:none; stroke:blue;" r="5" cx="0" cy="0"
      /><circle transform="translate(121.6,81.292)" style="fill:none; stroke:blue;" r="5" cx="0" cy="0"
      /><circle transform="translate(136.8,-34.8476)" style="fill:none; stroke:blue;" r="5" cx="0" cy="0"
      /><circle transform="translate(152,-253.0307)" style="fill:none; stroke:blue;" r="5" cx="0" cy="0"
      /><circle transform="translate(167.2,-252.8082)" style="fill:none; stroke:blue;" r="5" cx="0" cy="0"
      /><circle transform="translate(182.4,-33.1869)" style="fill:none; stroke:blue;" r="5" cx="0" cy="0"
      /><circle transform="translate(197.6,84.4203)" style="fill:none; stroke:blue;" r="5" cx="0" cy="0"
      /><circle transform="translate(212.8,-2.3264)" style="fill:none; stroke:blue;" r="5" cx="0" cy="0"
      /><circle transform="translate(228,-62.7774)" style="fill:none; stroke:blue;" r="5" cx="0" cy="0"
      /><circle transform="translate(243.2,9.718)" style="fill:none; stroke:blue;" r="5" cx="0" cy="0"
      /><circle transform="translate(258.4,49.2122)" style="fill:none; stroke:blue;" r="5" cx="0" cy="0"
      /><circle transform="translate(273.6,-14.6498)" style="fill:none; stroke:blue;" r="5" cx="0" cy="0"
      /><circle transform="translate(288.8,-35.2674)" style="fill:none; stroke:blue;" r="5" cx="0" cy="0"
      /><circle transform="translate(304,26.1953)" style="fill:none; stroke:blue;" r="5" cx="0" cy="0"
      /><line transform="translate(-88.2,-323.8053)" x1="88.2" x2="88.2" y1="324.1429" style="fill:none; stroke-linejoin:round; stroke:blue;" y2="328.2879"
      /><line transform="translate(-88.2,-323.8053)" x1="103.4" x2="103.4" y1="324.1429" style="fill:none; stroke-linejoin:round; stroke:blue;" y2="349.0564"
      /><line transform="translate(-88.2,-323.8053)" x1="118.6" x2="118.6" y1="324.1429" style="fill:none; stroke-linejoin:round; stroke:blue;" y2="289.2565"
      /><line transform="translate(-88.2,-323.8053)" x1="133.8" x2="133.8" y1="324.1429" style="fill:none; stroke-linejoin:round; stroke:blue;" y2="307.1176"
      /><line transform="translate(-88.2,-323.8053)" x1="149" x2="149" y1="324.1429" style="fill:none; stroke-linejoin:round; stroke:blue;" y2="372.2309"
      /><line transform="translate(-88.2,-323.8053)" x1="164.2" x2="164.2" y1="324.1429" style="fill:none; stroke-linejoin:round; stroke:blue;" y2="336.5401"
      /><line transform="translate(-88.2,-323.8053)" x1="179.4" x2="179.4" y1="324.1429" style="fill:none; stroke-linejoin:round; stroke:blue;" y2="263.7786"
      /><line transform="translate(-88.2,-323.8053)" x1="194.6" x2="194.6" y1="324.1429" style="fill:none; stroke-linejoin:round; stroke:blue;" y2="320.2601"
      /><line transform="translate(-88.2,-323.8053)" x1="209.8" x2="209.8" y1="324.1429" style="fill:none; stroke-linejoin:round; stroke:blue;" y2="405.0972"
      /><line transform="translate(-88.2,-323.8053)" x1="225" x2="225" y1="324.1429" style="fill:none; stroke-linejoin:round; stroke:blue;" y2="288.9577"
      /><line transform="translate(-88.2,-323.8053)" x1="240.2" x2="240.2" y1="324.1429" style="fill:none; stroke-linejoin:round; stroke:blue;" y2="70.7746"
      /><line transform="translate(-88.2,-323.8053)" x1="255.4" x2="255.4" y1="324.1429" style="fill:none; stroke-linejoin:round; stroke:blue;" y2="70.9971"
      /><line transform="translate(-88.2,-323.8053)" x1="270.6" x2="270.6" y1="324.1429" style="fill:none; stroke-linejoin:round; stroke:blue;" y2="290.6184"
      /><line transform="translate(-88.2,-323.8053)" x1="285.8" x2="285.8" y1="324.1429" style="fill:none; stroke-linejoin:round; stroke:blue;" y2="408.2255"
      /><line transform="translate(-88.2,-323.8053)" x1="301" x2="301" y1="324.1429" style="fill:none; stroke-linejoin:round; stroke:blue;" y2="321.4788"
      /><line transform="translate(-88.2,-323.8053)" x1="316.2" x2="316.2" y1="324.1429" style="fill:none; stroke-linejoin:round; stroke:blue;" y2="261.0278"
      /><line transform="translate(-88.2,-323.8053)" x1="331.4" x2="331.4" y1="324.1429" style="fill:none; stroke-linejoin:round; stroke:blue;" y2="333.5232"
      /><line transform="translate(-88.2,-323.8053)" x1="346.6" x2="346.6" y1="324.1429" style="fill:none; stroke-linejoin:round; stroke:blue;" y2="373.0175"
      /><line transform="translate(-88.2,-323.8053)" x1="361.8" x2="361.8" y1="324.1429" style="fill:none; stroke-linejoin:round; stroke:blue;" y2="309.1555"
      /><line transform="translate(-88.2,-323.8053)" x1="377" x2="377" y1="324.1429" style="fill:none; stroke-linejoin:round; stroke:blue;" y2="288.5379"
      /><line transform="translate(-88.2,-323.8053)" x1="392.2" x2="392.2" y1="324.1429" style="fill:none; stroke-linejoin:round; stroke:blue;" y2="350.0006"
    /></g
    ><g style="fill:rgb(38,38,38); text-rendering:geometricPrecision; image-rendering:optimizeQuality; color-rendering:optimizeQuality; stroke-linejoin:round; stroke:rgb(38,38,38); color-interpolation:linearRGB; stroke-width:0.8333;"
    ><line y2="439" style="fill:none;" x1="73" x2="453" y1="439"
      /><line y2="37" style="fill:none;" x1="73" x2="453" y1="37"
      /><line y2="434.98" style="fill:none;" x1="73" x2="73" y1="439"
      /><line y2="434.98" style="fill:none;" x1="149" x2="149" y1="439"
      /><line y2="434.98" style="fill:none;" x1="225" x2="225" y1="439"
      /><line y2="434.98" style="fill:none;" x1="301" x2="301" y1="439"
      /><line y2="434.98" style="fill:none;" x1="377" x2="377" y1="439"
      /><line y2="434.98" style="fill:none;" x1="453" x2="453" y1="439"
      /><line y2="41.02" style="fill:none;" x1="73" x2="73" y1="37"
      /><line y2="41.02" style="fill:none;" x1="149" x2="149" y1="37"
      /><line y2="41.02" style="fill:none;" x1="225" x2="225" y1="37"
      /><line y2="41.02" style="fill:none;" x1="301" x2="301" y1="37"
      /><line y2="41.02" style="fill:none;" x1="377" x2="377" y1="37"
      /><line y2="41.02" style="fill:none;" x1="453" x2="453" y1="37"
    /></g
    ><g transform="translate(73,445.6667)" style="font-size:16.6667px; fill:rgb(38,38,38); text-rendering:geometricPrecision; image-rendering:optimizeQuality; color-rendering:optimizeQuality; font-family:'SansSerif'; stroke:rgb(38,38,38); color-interpolation:linearRGB;"
    ><path style="stroke:none;" d="M-4.2969 11 Q-4.2969 8.8438 -3.8516 7.5234 Q-3.4062 6.2031 -2.5312 5.4922 Q-1.6562 4.7812 -0.3281 4.7812 Q0.6562 4.7812 1.3906 5.1719 Q2.125 5.5625 2.6094 6.3125 Q3.0938 7.0625 3.3672 8.125 Q3.6406 9.1875 3.6406 11 Q3.6406 13.1406 3.2031 14.4531 Q2.7656 15.7656 1.8906 16.4844 Q1.0156 17.2031 -0.3281 17.2031 Q-2.0938 17.2031 -3.0938 15.9531 Q-4.2969 14.4219 -4.2969 11 ZM-2.7656 11 Q-2.7656 14 -2.0625 14.9922 Q-1.3594 15.9844 -0.3281 15.9844 Q0.7031 15.9844 1.4062 14.9844 Q2.1094 13.9844 2.1094 11 Q2.1094 8 1.4062 7.0078 Q0.7031 6.0156 -0.3438 6.0156 Q-1.375 6.0156 -1.9844 6.8906 Q-2.7656 8 -2.7656 11 Z"
    /></g
    ><g transform="translate(149,445.6667)" style="font-size:16.6667px; fill:rgb(38,38,38); text-rendering:geometricPrecision; image-rendering:optimizeQuality; color-rendering:optimizeQuality; font-family:'SansSerif'; stroke:rgb(38,38,38); color-interpolation:linearRGB;"
    ><path style="stroke:none;" d="M-4.2969 13.8125 L-2.7188 13.6719 Q-2.5469 14.8281 -1.9141 15.4062 Q-1.2812 15.9844 -0.3906 15.9844 Q0.6875 15.9844 1.4375 15.1719 Q2.1875 14.3594 2.1875 13 Q2.1875 11.7344 1.4688 10.9922 Q0.75 10.25 -0.4062 10.25 Q-1.125 10.25 -1.7109 10.5781 Q-2.2969 10.9062 -2.625 11.4375 L-4.0312 11.25 L-2.8438 5 L3.2031 5 L3.2031 6.4219 L-1.6562 6.4219 L-2.3125 9.6875 Q-1.2188 8.9375 -0.0156 8.9375 Q1.5781 8.9375 2.6797 10.0391 Q3.7812 11.1406 3.7812 12.875 Q3.7812 14.5312 2.8125 15.7344 Q1.6406 17.2031 -0.3906 17.2031 Q-2.0469 17.2031 -3.0938 16.2734 Q-4.1406 15.3438 -4.2969 13.8125 Z"
    /></g
    ><g transform="translate(225,445.6667)" style="font-size:16.6667px; fill:rgb(38,38,38); text-rendering:geometricPrecision; image-rendering:optimizeQuality; color-rendering:optimizeQuality; font-family:'SansSerif'; stroke:rgb(38,38,38); color-interpolation:linearRGB;"
    ><path style="stroke:none;" d="M-3.1719 17 L-4.6562 17 L-4.6562 7.4844 Q-5.2031 8 -6.0781 8.5078 Q-6.9531 9.0156 -7.6562 9.2812 L-7.6562 7.8281 Q-6.3906 7.25 -5.4531 6.4062 Q-4.5156 5.5625 -4.125 4.7812 L-3.1719 4.7812 L-3.1719 17 ZM0.4665 11 Q0.4665 8.8438 0.9118 7.5234 Q1.3572 6.2031 2.2322 5.4922 Q3.1072 4.7812 4.4353 4.7812 Q5.4197 4.7812 6.154 5.1719 Q6.8884 5.5625 7.3728 6.3125 Q7.8572 7.0625 8.1306 8.125 Q8.404 9.1875 8.404 11 Q8.404 13.1406 7.9665 14.4531 Q7.529 15.7656 6.654 16.4844 Q5.779 17.2031 4.4353 17.2031 Q2.6697 17.2031 1.6697 15.9531 Q0.4665 14.4219 0.4665 11 ZM1.9978 11 Q1.9978 14 2.7009 14.9922 Q3.404 15.9844 4.4353 15.9844 Q5.4665 15.9844 6.1697 14.9844 Q6.8728 13.9844 6.8728 11 Q6.8728 8 6.1697 7.0078 Q5.4665 6.0156 4.4197 6.0156 Q3.3884 6.0156 2.779 6.8906 Q1.9978 8 1.9978 11 Z"
    /></g
    ><g transform="translate(301,445.6667)" style="font-size:16.6667px; fill:rgb(38,38,38); text-rendering:geometricPrecision; image-rendering:optimizeQuality; color-rendering:optimizeQuality; font-family:'SansSerif'; stroke:rgb(38,38,38); color-interpolation:linearRGB;"
    ><path style="stroke:none;" d="M-3.1719 17 L-4.6562 17 L-4.6562 7.4844 Q-5.2031 8 -6.0781 8.5078 Q-6.9531 9.0156 -7.6562 9.2812 L-7.6562 7.8281 Q-6.3906 7.25 -5.4531 6.4062 Q-4.5156 5.5625 -4.125 4.7812 L-3.1719 4.7812 L-3.1719 17 ZM0.4665 13.8125 L2.0447 13.6719 Q2.2165 14.8281 2.8493 15.4062 Q3.4822 15.9844 4.3728 15.9844 Q5.4509 15.9844 6.2009 15.1719 Q6.9509 14.3594 6.9509 13 Q6.9509 11.7344 6.2322 10.9922 Q5.5134 10.25 4.3572 10.25 Q3.6384 10.25 3.0525 10.5781 Q2.4665 10.9062 2.1384 11.4375 L0.7322 11.25 L1.9197 5 L7.9665 5 L7.9665 6.4219 L3.1072 6.4219 L2.4509 9.6875 Q3.5447 8.9375 4.7478 8.9375 Q6.3415 8.9375 7.4431 10.0391 Q8.5447 11.1406 8.5447 12.875 Q8.5447 14.5312 7.5759 15.7344 Q6.404 17.2031 4.3728 17.2031 Q2.7165 17.2031 1.6697 16.2734 Q0.6228 15.3438 0.4665 13.8125 Z"
    /></g
    ><g transform="translate(377,445.6667)" style="font-size:16.6667px; fill:rgb(38,38,38); text-rendering:geometricPrecision; image-rendering:optimizeQuality; color-rendering:optimizeQuality; font-family:'SansSerif'; stroke:rgb(38,38,38); color-interpolation:linearRGB;"
    ><path style="stroke:none;" d="M-0.9375 15.5625 L-0.9375 17 L-8.9844 17 Q-9 16.4531 -8.8125 15.9688 Q-8.5 15.1406 -7.8281 14.3438 Q-7.1562 13.5469 -5.875 12.5 Q-3.8906 10.875 -3.1953 9.9219 Q-2.5 8.9688 -2.5 8.125 Q-2.5 7.2344 -3.1328 6.625 Q-3.7656 6.0156 -4.7812 6.0156 Q-5.8594 6.0156 -6.5078 6.6641 Q-7.1562 7.3125 -7.1719 8.4531 L-8.7031 8.2969 Q-8.5469 6.5781 -7.5156 5.6797 Q-6.4844 4.7812 -4.75 4.7812 Q-3 4.7812 -1.9766 5.75 Q-0.9531 6.7188 -0.9531 8.1562 Q-0.9531 8.8906 -1.2578 9.5938 Q-1.5625 10.2969 -2.25 11.0781 Q-2.9375 11.8594 -4.5469 13.2188 Q-5.8906 14.3594 -6.2734 14.7578 Q-6.6562 15.1562 -6.9062 15.5625 L-0.9375 15.5625 ZM0.4665 11 Q0.4665 8.8438 0.9118 7.5234 Q1.3572 6.2031 2.2322 5.4922 Q3.1072 4.7812 4.4353 4.7812 Q5.4197 4.7812 6.154 5.1719 Q6.8884 5.5625 7.3728 6.3125 Q7.8572 7.0625 8.1306 8.125 Q8.404 9.1875 8.404 11 Q8.404 13.1406 7.9665 14.4531 Q7.529 15.7656 6.654 16.4844 Q5.779 17.2031 4.4353 17.2031 Q2.6697 17.2031 1.6697 15.9531 Q0.4665 14.4219 0.4665 11 ZM1.9978 11 Q1.9978 14 2.7009 14.9922 Q3.404 15.9844 4.4353 15.9844 Q5.4665 15.9844 6.1697 14.9844 Q6.8728 13.9844 6.8728 11 Q6.8728 8 6.1697 7.0078 Q5.4665 6.0156 4.4197 6.0156 Q3.3884 6.0156 2.779 6.8906 Q1.9978 8 1.9978 11 Z"
    /></g
    ><g transform="translate(453,445.6667)" style="font-size:16.6667px; fill:rgb(38,38,38); text-rendering:geometricPrecision; image-rendering:optimizeQuality; color-rendering:optimizeQuality; font-family:'SansSerif'; stroke:rgb(38,38,38); color-interpolation:linearRGB;"
    ><path style="stroke:none;" d="M-0.9375 15.5625 L-0.9375 17 L-8.9844 17 Q-9 16.4531 -8.8125 15.9688 Q-8.5 15.1406 -7.8281 14.3438 Q-7.1562 13.5469 -5.875 12.5 Q-3.8906 10.875 -3.1953 9.9219 Q-2.5 8.9688 -2.5 8.125 Q-2.5 7.2344 -3.1328 6.625 Q-3.7656 6.0156 -4.7812 6.0156 Q-5.8594 6.0156 -6.5078 6.6641 Q-7.1562 7.3125 -7.1719 8.4531 L-8.7031 8.2969 Q-8.5469 6.5781 -7.5156 5.6797 Q-6.4844 4.7812 -4.75 4.7812 Q-3 4.7812 -1.9766 5.75 Q-0.9531 6.7188 -0.9531 8.1562 Q-0.9531 8.8906 -1.2578 9.5938 Q-1.5625 10.2969 -2.25 11.0781 Q-2.9375 11.8594 -4.5469 13.2188 Q-5.8906 14.3594 -6.2734 14.7578 Q-6.6562 15.1562 -6.9062 15.5625 L-0.9375 15.5625 ZM0.4665 13.8125 L2.0447 13.6719 Q2.2165 14.8281 2.8493 15.4062 Q3.4822 15.9844 4.3728 15.9844 Q5.4509 15.9844 6.2009 15.1719 Q6.9509 14.3594 6.9509 13 Q6.9509 11.7344 6.2322 10.9922 Q5.5134 10.25 4.3572 10.25 Q3.6384 10.25 3.0525 10.5781 Q2.4665 10.9062 2.1384 11.4375 L0.7322 11.25 L1.9197 5 L7.9665 5 L7.9665 6.4219 L3.1072 6.4219 L2.4509 9.6875 Q3.5447 8.9375 4.7478 8.9375 Q6.3415 8.9375 7.4431 10.0391 Q8.5447 11.1406 8.5447 12.875 Q8.5447 14.5312 7.5759 15.7344 Q6.404 17.2031 4.3728 17.2031 Q2.7165 17.2031 1.6697 16.2734 Q0.6228 15.3438 0.4665 13.8125 Z"
    /></g
    ><g transform="translate(263.0002,468.3333)" style="font-size:26.6667px; fill:rgb(38,38,38); text-rendering:geometricPrecision; image-rendering:optimizeQuality; color-rendering:optimizeQuality; font-family:'mwa_cmr10'; stroke:rgb(38,38,38); color-interpolation:linearRGB;"
    ><path style="stroke:none;" d="M-23.2894 22.3999 L-23.2894 21.4468 Q-21.93 21.4468 -20.6488 21.2983 Q-19.3675 21.1499 -19.3675 20.5874 L-19.3675 5.7593 Q-19.3675 5.1812 -19.6956 5.0405 Q-20.0238 4.8999 -20.7425 4.8999 L-21.8831 4.8999 Q-24.1019 4.8999 -25.0394 5.8843 Q-25.5238 6.3687 -25.7347 7.4468 Q-25.9456 8.5249 -26.1019 10.1343 L-26.8831 10.1343 L-26.3675 3.9624 L-9.8675 3.9624 L-9.3519 10.1343 L-10.1488 10.1343 Q-10.305 8.3999 -10.4925 7.3765 Q-10.68 6.353 -11.18 5.8843 Q-12.1331 4.8999 -14.3519 4.8999 L-15.4925 4.8999 Q-15.9769 4.8999 -16.2425 4.939 Q-16.5081 4.978 -16.68 5.1733 Q-16.8519 5.3687 -16.8519 5.7593 L-16.8519 20.5874 Q-16.8519 21.1499 -15.5785 21.2983 Q-14.305 21.4468 -12.9613 21.4468 L-12.9613 22.3999 L-23.2894 22.3999 Z"
      /><path style="stroke:none;" d="M-9.7367 19.7437 Q-9.7367 18.1343 -8.4711 17.1265 Q-7.2055 16.1187 -5.432 15.7046 Q-3.6586 15.2905 -2.0649 15.2905 L-2.0649 14.1812 Q-2.0649 13.4155 -2.4086 12.6812 Q-2.7524 11.9468 -3.393 11.478 Q-4.0336 11.0093 -4.8149 11.0093 Q-6.6117 11.0093 -7.5492 11.8062 Q-7.0336 11.8062 -6.6977 12.1968 Q-6.3617 12.5874 -6.3617 13.103 Q-6.3617 13.6499 -6.7445 14.0327 Q-7.1274 14.4155 -7.643 14.4155 Q-8.1899 14.4155 -8.5727 14.0327 Q-8.9555 13.6499 -8.9555 13.103 Q-8.9555 11.6812 -7.6664 10.9858 Q-6.3774 10.2905 -4.8149 10.2905 Q-3.7211 10.2905 -2.6117 10.7593 Q-1.5024 11.228 -0.7992 12.103 Q-0.0961 12.978 -0.0961 14.1343 L-0.0961 20.2124 Q-0.0961 20.7437 0.1305 21.1812 Q0.357 21.6187 0.8258 21.6187 Q1.2789 21.6187 1.4976 21.1733 Q1.7164 20.728 1.7164 20.2124 L1.7164 18.478 L2.4976 18.478 L2.4976 20.2124 Q2.4976 20.8218 2.1851 21.3687 Q1.8726 21.9155 1.3336 22.2358 Q0.7945 22.5562 0.1851 22.5562 Q-0.6117 22.5562 -1.182 21.9468 Q-1.7524 21.3374 -1.8305 20.4937 Q-2.3305 21.5093 -3.2992 22.103 Q-4.268 22.6968 -5.3774 22.6968 Q-6.4086 22.6968 -7.4086 22.3999 Q-8.4086 22.103 -9.0727 21.4468 Q-9.7367 20.7905 -9.7367 19.7437 ZM-7.5492 19.7437 Q-7.5492 20.6968 -6.8461 21.3452 Q-6.143 21.9937 -5.2055 21.9937 Q-4.3305 21.9937 -3.6195 21.5562 Q-2.9086 21.1187 -2.4867 20.3687 Q-2.0649 19.6187 -2.0649 18.7905 L-2.0649 15.978 Q-3.2836 15.978 -4.5727 16.3843 Q-5.8617 16.7905 -6.7055 17.6421 Q-7.5492 18.4937 -7.5492 19.7437 Z"
      /><path style="stroke:none;" d="M3.2216 27.6343 L3.2216 26.6968 Q4.1435 26.6968 4.7373 26.5405 Q5.331 26.3843 5.331 25.8218 L5.331 12.8218 Q5.331 12.0718 4.7998 11.8921 Q4.2685 11.7124 3.2216 11.7124 L3.2216 10.7593 L7.206 10.4624 L7.206 12.1499 Q7.956 11.3218 8.9326 10.8921 Q9.9091 10.4624 11.0185 10.4624 Q12.6123 10.4624 13.8935 11.3296 Q15.1748 12.1968 15.8935 13.603 Q16.6123 15.0093 16.6123 16.5718 Q16.6123 18.2124 15.8154 19.6187 Q15.0185 21.0249 13.6435 21.8608 Q12.2685 22.6968 10.6123 22.6968 Q8.6435 22.6968 7.2841 21.103 L7.2841 25.8218 Q7.2841 26.3843 7.8857 26.5405 Q8.4873 26.6968 9.3935 26.6968 L9.3935 27.6343 L3.2216 27.6343 ZM7.2841 19.7749 Q7.7685 20.7437 8.6123 21.3687 Q9.456 21.9937 10.456 21.9937 Q11.3935 21.9937 12.1123 21.4937 Q12.831 20.9937 13.3154 20.1499 Q13.7998 19.3062 14.0341 18.3765 Q14.2685 17.4468 14.2685 16.5718 Q14.2685 15.4937 13.8779 14.2358 Q13.4873 12.978 12.6904 12.1108 Q11.8935 11.2437 10.7529 11.2437 Q9.6591 11.2437 8.7451 11.8062 Q7.831 12.3687 7.2841 13.3218 L7.2841 19.7749 Z"
      /><path style="stroke:none;" d="M18.224 22.478 L18.224 18.0718 Q18.224 17.8687 18.474 17.8687 L18.8021 17.8687 Q18.9584 17.8687 19.0052 18.0718 Q19.7552 21.9937 22.6459 21.9937 Q23.9271 21.9937 24.7865 21.4155 Q25.6459 20.8374 25.6459 19.6187 Q25.6459 18.7437 24.974 18.1343 Q24.3021 17.5249 23.3802 17.2905 L21.5834 16.9468 Q20.6615 16.7437 19.9193 16.3374 Q19.1771 15.9312 18.7006 15.2515 Q18.224 14.5718 18.224 13.6655 Q18.224 12.478 18.8568 11.7202 Q19.4896 10.9624 20.4896 10.6265 Q21.4896 10.2905 22.6459 10.2905 Q24.0365 10.2905 25.0521 11.0405 L25.8334 10.3687 Q25.8334 10.2905 25.974 10.2905 L26.1615 10.2905 Q26.2396 10.2905 26.3099 10.3687 Q26.3802 10.4468 26.3802 10.5249 L26.3802 14.0562 Q26.3802 14.3062 26.1615 14.3062 L25.8334 14.3062 Q25.599 14.3062 25.599 14.0562 Q25.599 12.6499 24.8177 11.7905 Q24.0365 10.9312 22.6146 10.9312 Q21.4115 10.9312 20.5209 11.3765 Q19.6302 11.8218 19.6302 12.9155 Q19.6302 13.6655 20.2709 14.1499 Q20.9115 14.6343 21.7709 14.853 L23.599 15.1812 Q24.5209 15.3999 25.3177 15.8999 Q26.1146 16.3999 26.5834 17.1655 Q27.0521 17.9312 27.0521 18.8999 Q27.0521 19.8687 26.7162 20.5874 Q26.3802 21.3062 25.7787 21.7827 Q25.1771 22.2593 24.3568 22.478 Q23.5365 22.6968 22.6459 22.6968 Q20.9584 22.6968 19.7552 21.5718 L18.7709 22.6343 Q18.7709 22.6968 18.6302 22.6968 L18.474 22.6968 Q18.224 22.6968 18.224 22.478 Z"
    /></g
    ><g style="fill:white; text-rendering:optimizeSpeed; color-rendering:optimizeSpeed; image-rendering:optimizeSpeed; shape-rendering:crispEdges; stroke:white; color-interpolation:sRGB;"
    ><path style="stroke:none;" d="M440 100 L440 50 L270 50 L270 100 Z"
    /></g
    ><g transform="translate(328.8268,63.602)" style="font-size:18.3333px; text-rendering:geometricPrecision; color-rendering:optimizeQuality; image-rendering:optimizeQuality; font-family:'mwa_cmr10'; color-interpolation:linearRGB;"
    ><path style="stroke:none;" d="M4.1094 2.4781 Q4.7188 3.2593 5.6406 3.7124 Q6.5625 4.1656 7.5625 4.1656 Q8.3906 4.1656 9.1016 3.8374 Q9.8125 3.5093 10.3438 2.9156 Q10.875 2.3218 11.1641 1.5796 Q11.4531 0.8374 11.4531 0.0093 Q11.4531 -0.1313 11.6094 -0.1313 L11.8281 -0.1313 Q11.9688 -0.1313 11.9688 0.0406 Q11.9688 0.9781 11.6094 1.8531 Q11.25 2.7281 10.5938 3.3921 Q9.9375 4.0562 9.0781 4.4234 Q8.2188 4.7906 7.2812 4.7906 Q6 4.7906 4.8438 4.2671 Q3.6875 3.7437 2.8281 2.8374 Q1.9688 1.9312 1.4922 0.7359 Q1.0156 -0.4594 1.0156 -1.7563 Q1.0156 -3.0376 1.4922 -4.2329 Q1.9688 -5.4282 2.8281 -6.3423 Q3.6875 -7.2563 4.8438 -7.7719 Q6 -8.2876 7.2812 -8.2876 Q8.2031 -8.2876 9.0469 -7.8891 Q9.8906 -7.4907 10.5312 -6.7563 L11.5781 -8.2407 Q11.6875 -8.2876 11.7031 -8.2876 L11.8281 -8.2876 Q11.8906 -8.2876 11.9297 -8.2485 Q11.9688 -8.2094 11.9688 -8.1469 L11.9688 -3.2876 Q11.9688 -3.1313 11.8281 -3.1313 L11.5 -3.1313 Q11.3438 -3.1313 11.3438 -3.2876 Q11.3438 -3.8032 11.1328 -4.4438 Q10.9219 -5.0844 10.6016 -5.6626 Q10.2812 -6.2407 9.8594 -6.6782 Q8.8438 -7.6626 7.5469 -7.6626 Q6.5469 -7.6626 5.6406 -7.2094 Q4.7344 -6.7563 4.1094 -5.9751 Q3.4531 -5.1313 3.1953 -4.0532 Q2.9375 -2.9751 2.9375 -1.7563 Q2.9375 -0.5376 3.1953 0.5484 Q3.4531 1.6343 4.1094 2.4781 Z"
    /></g
    ><g transform="translate(328.8268,63.602)" style="font-size:18.3333px; text-rendering:geometricPrecision; color-rendering:optimizeQuality; image-rendering:optimizeQuality; font-family:'mwa_cmr10'; color-interpolation:linearRGB;"
    ><path style="stroke:none;" d="M13.772 4.3999 L13.772 3.7593 Q14.397 3.7593 14.7876 3.6656 Q15.1783 3.5718 15.1783 3.1968 L15.1783 -6.2563 Q15.1783 -6.7407 15.0376 -6.9516 Q14.897 -7.1626 14.6236 -7.2094 Q14.3501 -7.2563 13.772 -7.2563 L13.772 -7.8969 L16.4439 -8.0844 L16.4439 -1.8969 Q16.8345 -2.6469 17.5064 -3.1001 Q18.1783 -3.5532 18.9908 -3.5532 Q20.2408 -3.5532 20.8736 -2.9594 Q21.5064 -2.3657 21.5064 -1.1313 L21.5064 3.1968 Q21.5064 3.5718 21.897 3.6656 Q22.2876 3.7593 22.9126 3.7593 L22.9126 4.3999 L18.7876 4.3999 L18.7876 3.7593 Q19.397 3.7593 19.7954 3.6656 Q20.1939 3.5718 20.1939 3.1968 L20.1939 -1.0688 Q20.1939 -1.9594 19.9361 -2.5219 Q19.6783 -3.0844 18.897 -3.0844 Q17.8501 -3.0844 17.1783 -2.2485 Q16.5064 -1.4126 16.5064 -0.3501 L16.5064 3.1968 Q16.5064 3.5718 16.897 3.6656 Q17.2876 3.7593 17.897 3.7593 L17.897 4.3999 L13.772 4.3999 Z"
      /><path style="stroke:none;" d="M24.1447 2.6343 Q24.1447 1.5562 24.9885 0.8843 Q25.8322 0.2124 27.0119 -0.061 Q28.1916 -0.3344 29.2697 -0.3344 L29.2697 -1.0688 Q29.2697 -1.6001 29.0353 -2.0844 Q28.801 -2.5688 28.3713 -2.8813 Q27.9416 -3.1938 27.426 -3.1938 Q26.2228 -3.1938 25.6135 -2.6626 Q25.9416 -2.6626 26.1682 -2.4048 Q26.3947 -2.1469 26.3947 -1.8032 Q26.3947 -1.4438 26.1447 -1.186 Q25.8947 -0.9282 25.5353 -0.9282 Q25.176 -0.9282 24.9182 -1.186 Q24.6603 -1.4438 24.6603 -1.8032 Q24.6603 -2.7407 25.5275 -3.2016 Q26.3947 -3.6626 27.426 -3.6626 Q28.1603 -3.6626 28.8947 -3.3501 Q29.6291 -3.0376 30.0978 -2.4594 Q30.5666 -1.8813 30.5666 -1.1157 L30.5666 2.9468 Q30.5666 3.2906 30.715 3.5874 Q30.8635 3.8843 31.1916 3.8843 Q31.4885 3.8843 31.6291 3.5874 Q31.7697 3.2906 31.7697 2.9468 L31.7697 1.7906 L32.301 1.7906 L32.301 2.9468 Q32.301 3.3374 32.09 3.7046 Q31.8791 4.0718 31.5275 4.2906 Q31.176 4.5093 30.7541 4.5093 Q30.2228 4.5093 29.84 4.0952 Q29.4572 3.6812 29.426 3.1187 Q29.0822 3.8062 28.4338 4.2046 Q27.7853 4.6031 27.051 4.6031 Q26.3635 4.6031 25.6994 4.3999 Q25.0353 4.1968 24.59 3.7593 Q24.1447 3.3218 24.1447 2.6343 ZM25.6135 2.6343 Q25.6135 3.2593 26.0744 3.6968 Q26.5353 4.1343 27.176 4.1343 Q27.7541 4.1343 28.2307 3.8374 Q28.7072 3.5406 28.9885 3.0406 Q29.2697 2.5406 29.2697 1.9937 L29.2697 0.1187 Q28.4416 0.1187 27.59 0.3843 Q26.7385 0.6499 26.176 1.2202 Q25.6135 1.7906 25.6135 2.6343 Z"
      /><path style="stroke:none;" d="M33.1239 4.3999 L33.1239 3.7593 Q33.7489 3.7593 34.1395 3.6656 Q34.5302 3.5718 34.5302 3.1968 L34.5302 -1.7251 Q34.5302 -2.1938 34.3895 -2.4126 Q34.2489 -2.6313 33.9755 -2.6782 Q33.702 -2.7251 33.1239 -2.7251 L33.1239 -3.3657 L35.7333 -3.5532 L35.7333 -1.8032 Q36.0927 -2.5688 36.8036 -3.061 Q37.5145 -3.5532 38.3427 -3.5532 Q39.5927 -3.5532 40.2255 -2.9594 Q40.8583 -2.3657 40.8583 -1.1313 L40.8583 3.1968 Q40.8583 3.5718 41.2489 3.6656 Q41.6395 3.7593 42.2645 3.7593 L42.2645 4.3999 L38.1395 4.3999 L38.1395 3.7593 Q38.7489 3.7593 39.1474 3.6656 Q39.5458 3.5718 39.5458 3.1968 L39.5458 -1.0688 Q39.5458 -1.9594 39.288 -2.5219 Q39.0302 -3.0844 38.2489 -3.0844 Q37.202 -3.0844 36.5302 -2.2485 Q35.8583 -1.4126 35.8583 -0.3501 L35.8583 3.1968 Q35.8583 3.5718 36.2489 3.6656 Q36.6395 3.7593 37.2489 3.7593 L37.2489 4.3999 L33.1239 4.3999 Z"
      /><path style="stroke:none;" d="M43.3091 4.3999 L43.3091 3.7593 Q43.9341 3.7593 44.3248 3.6656 Q44.7154 3.5718 44.7154 3.1968 L44.7154 -1.7251 Q44.7154 -2.1938 44.5748 -2.4126 Q44.4341 -2.6313 44.1607 -2.6782 Q43.8873 -2.7251 43.3091 -2.7251 L43.3091 -3.3657 L45.9185 -3.5532 L45.9185 -1.8032 Q46.2779 -2.5688 46.9888 -3.061 Q47.6998 -3.5532 48.5279 -3.5532 Q49.7779 -3.5532 50.4107 -2.9594 Q51.0435 -2.3657 51.0435 -1.1313 L51.0435 3.1968 Q51.0435 3.5718 51.4341 3.6656 Q51.8248 3.7593 52.4498 3.7593 L52.4498 4.3999 L48.3248 4.3999 L48.3248 3.7593 Q48.9341 3.7593 49.3326 3.6656 Q49.731 3.5718 49.731 3.1968 L49.731 -1.0688 Q49.731 -1.9594 49.4732 -2.5219 Q49.2154 -3.0844 48.4341 -3.0844 Q47.3873 -3.0844 46.7154 -2.2485 Q46.0435 -1.4126 46.0435 -0.3501 L46.0435 3.1968 Q46.0435 3.5718 46.4341 3.6656 Q46.8248 3.7593 47.4341 3.7593 L47.4341 4.3999 L43.3091 4.3999 Z"
      /><path style="stroke:none;" d="M57.4475 4.6031 Q56.3537 4.6031 55.4318 4.0249 Q54.51 3.4468 53.9865 2.4859 Q53.4631 1.5249 53.4631 0.4468 Q53.4631 -0.6001 53.9397 -1.5532 Q54.4162 -2.5063 55.2756 -3.0844 Q56.135 -3.6626 57.1975 -3.6626 Q58.01 -3.6626 58.6272 -3.3891 Q59.2443 -3.1157 59.635 -2.6235 Q60.0256 -2.1313 60.2287 -1.4594 Q60.4318 -0.7876 60.4318 0.0093 Q60.4318 0.2437 60.2443 0.2437 L55.0412 0.2437 L55.0412 0.4312 Q55.0412 1.9312 55.6428 3.0015 Q56.2443 4.0718 57.6037 4.0718 Q58.1506 4.0718 58.6272 3.8296 Q59.1037 3.5874 59.4475 3.1421 Q59.7912 2.6968 59.9162 2.1968 Q59.9318 2.1343 59.9787 2.0874 Q60.0256 2.0406 60.0881 2.0406 L60.2443 2.0406 Q60.4318 2.0406 60.4318 2.2749 Q60.1818 3.2906 59.3381 3.9468 Q58.4943 4.6031 57.4475 4.6031 ZM55.0568 -0.2094 L59.1662 -0.2094 Q59.1662 -0.8813 58.9709 -1.5766 Q58.7756 -2.2719 58.3381 -2.7329 Q57.9006 -3.1938 57.1975 -3.1938 Q56.1662 -3.1938 55.6115 -2.2407 Q55.0568 -1.2876 55.0568 -0.2094 Z"
      /><path style="stroke:none;" d="M61.6581 4.3999 L61.6581 3.7593 Q62.2831 3.7593 62.6737 3.6656 Q63.0644 3.5718 63.0644 3.1968 L63.0644 -6.2563 Q63.0644 -6.7407 62.9237 -6.9516 Q62.7831 -7.1626 62.5097 -7.2094 Q62.2362 -7.2563 61.6581 -7.2563 L61.6581 -7.8969 L64.33 -8.0844 L64.33 3.1968 Q64.33 3.5718 64.7284 3.6656 Q65.1269 3.7593 65.7362 3.7593 L65.7362 4.3999 L61.6581 4.3999 Z"
      /><path style="stroke:none;" d="M74.1587 2.2437 L74.1587 -2.7251 L72.6587 -2.7251 L72.6587 -3.1938 Q73.8306 -3.1938 74.3853 -4.2954 Q74.94 -5.3969 74.94 -6.6782 L75.4556 -6.6782 L75.4556 -3.3657 L78.0025 -3.3657 L78.0025 -2.7251 L75.4556 -2.7251 L75.4556 2.1968 Q75.4556 2.9468 75.7056 3.5093 Q75.9556 4.0718 76.6118 4.0718 Q77.2212 4.0718 77.4946 3.4781 Q77.7681 2.8843 77.7681 2.1968 L77.7681 1.1343 L78.2993 1.1343 L78.2993 2.2437 Q78.2993 2.8062 78.0884 3.3531 Q77.8775 3.8999 77.4712 4.2515 Q77.065 4.6031 76.4868 4.6031 Q75.4087 4.6031 74.7837 3.9546 Q74.1587 3.3062 74.1587 2.2437 Z"
      /><path style="stroke:none;" d="M80.1634 2.6343 Q80.1634 1.5562 81.0071 0.8843 Q81.8509 0.2124 83.0305 -0.061 Q84.2102 -0.3344 85.2884 -0.3344 L85.2884 -1.0688 Q85.2884 -1.6001 85.054 -2.0844 Q84.8196 -2.5688 84.3899 -2.8813 Q83.9602 -3.1938 83.4446 -3.1938 Q82.2415 -3.1938 81.6321 -2.6626 Q81.9602 -2.6626 82.1868 -2.4048 Q82.4134 -2.1469 82.4134 -1.8032 Q82.4134 -1.4438 82.1634 -1.186 Q81.9134 -0.9282 81.554 -0.9282 Q81.1946 -0.9282 80.9368 -1.186 Q80.679 -1.4438 80.679 -1.8032 Q80.679 -2.7407 81.5462 -3.2016 Q82.4134 -3.6626 83.4446 -3.6626 Q84.179 -3.6626 84.9134 -3.3501 Q85.6477 -3.0376 86.1165 -2.4594 Q86.5852 -1.8813 86.5852 -1.1157 L86.5852 2.9468 Q86.5852 3.2906 86.7337 3.5874 Q86.8821 3.8843 87.2102 3.8843 Q87.5071 3.8843 87.6477 3.5874 Q87.7884 3.2906 87.7884 2.9468 L87.7884 1.7906 L88.3196 1.7906 L88.3196 2.9468 Q88.3196 3.3374 88.1087 3.7046 Q87.8977 4.0718 87.5462 4.2906 Q87.1946 4.5093 86.7727 4.5093 Q86.2415 4.5093 85.8587 4.0952 Q85.4759 3.6812 85.4446 3.1187 Q85.1009 3.8062 84.4524 4.2046 Q83.804 4.6031 83.0696 4.6031 Q82.3821 4.6031 81.718 4.3999 Q81.054 4.1968 80.6087 3.7593 Q80.1634 3.3218 80.1634 2.6343 ZM81.6321 2.6343 Q81.6321 3.2593 82.093 3.6968 Q82.554 4.1343 83.1946 4.1343 Q83.7727 4.1343 84.2493 3.8374 Q84.7259 3.5406 85.0071 3.0406 Q85.2884 2.5406 85.2884 1.9937 L85.2884 0.1187 Q84.4602 0.1187 83.6087 0.3843 Q82.7571 0.6499 82.1946 1.2202 Q81.6321 1.7906 81.6321 2.6343 Z"
      /><path style="stroke:none;" d="M89.08 7.8843 L89.08 7.2593 Q89.6894 7.2593 90.0879 7.1577 Q90.4863 7.0562 90.4863 6.6812 L90.4863 -1.9907 Q90.4863 -2.4751 90.1347 -2.6001 Q89.7832 -2.7251 89.08 -2.7251 L89.08 -3.3657 L91.7363 -3.5532 L91.7363 -2.4438 Q92.2363 -2.9907 92.8925 -3.2719 Q93.5488 -3.5532 94.2832 -3.5532 Q95.3457 -3.5532 96.1972 -2.9751 Q97.0488 -2.3969 97.5254 -1.4673 Q98.0019 -0.5376 98.0019 0.5093 Q98.0019 1.6031 97.4707 2.5406 Q96.9394 3.4781 96.0254 4.0406 Q95.1113 4.6031 94.0019 4.6031 Q92.705 4.6031 91.7988 3.5406 L91.7988 6.6812 Q91.7988 7.0562 92.1972 7.1577 Q92.5957 7.2593 93.205 7.2593 L93.205 7.8843 L89.08 7.8843 ZM91.7988 2.6499 Q92.1113 3.2906 92.6738 3.7124 Q93.2363 4.1343 93.9082 4.1343 Q94.5332 4.1343 95.0097 3.7984 Q95.4863 3.4624 95.8144 2.8999 Q96.1425 2.3374 96.291 1.7124 Q96.4394 1.0874 96.4394 0.5093 Q96.4394 -0.2094 96.1816 -1.0454 Q95.9238 -1.8813 95.3925 -2.4594 Q94.8613 -3.0376 94.1113 -3.0376 Q93.3769 -3.0376 92.7675 -2.6626 Q92.1582 -2.2876 91.7988 -1.6469 L91.7988 2.6499 Z"
      /><path style="stroke:none;" d="M99.3903 4.4468 L99.3903 1.5093 Q99.3903 1.3687 99.5465 1.3687 L99.7653 1.3687 Q99.8746 1.3687 99.9059 1.5093 Q100.4215 4.1343 102.3434 4.1343 Q103.1871 4.1343 103.7653 3.7437 Q104.3434 3.3531 104.3434 2.5406 Q104.3434 1.9624 103.8981 1.5562 Q103.4528 1.1499 102.8278 0.9937 L101.6246 0.7593 Q101.0153 0.6343 100.5231 0.3609 Q100.0309 0.0874 99.7106 -0.3657 Q99.3903 -0.8188 99.3903 -1.4126 Q99.3903 -2.2094 99.8121 -2.7173 Q100.234 -3.2251 100.8981 -3.4438 Q101.5621 -3.6626 102.3434 -3.6626 Q103.2653 -3.6626 103.9528 -3.1782 L104.4684 -3.6313 Q104.4684 -3.6626 104.5465 -3.6626 L104.6871 -3.6626 Q104.734 -3.6626 104.7809 -3.6157 Q104.8278 -3.5688 104.8278 -3.5219 L104.8278 -1.1626 Q104.8278 -0.9907 104.6871 -0.9907 L104.4684 -0.9907 Q104.3121 -0.9907 104.3121 -1.1626 Q104.3121 -2.1001 103.7887 -2.6704 Q103.2653 -3.2407 102.3278 -3.2407 Q101.5153 -3.2407 100.9215 -2.9438 Q100.3278 -2.6469 100.3278 -1.9126 Q100.3278 -1.4126 100.7496 -1.0923 Q101.1715 -0.7719 101.7496 -0.6313 L102.9684 -0.4126 Q103.5934 -0.2719 104.1246 0.064 Q104.6559 0.3999 104.9684 0.9077 Q105.2809 1.4156 105.2809 2.0562 Q105.2809 2.7124 105.0543 3.189 Q104.8278 3.6656 104.4293 3.9859 Q104.0309 4.3062 103.484 4.4546 Q102.9371 4.6031 102.3434 4.6031 Q101.2184 4.6031 100.4215 3.8531 L99.7496 4.5562 Q99.7496 4.6031 99.6559 4.6031 L99.5465 4.6031 Q99.3903 4.6031 99.3903 4.4468 Z"
    /></g
    ><g style="stroke-linecap:butt; fill:red; text-rendering:geometricPrecision; image-rendering:optimizeQuality; color-rendering:optimizeQuality; stroke-linejoin:round; stroke:red; color-interpolation:linearRGB; stroke-width:2.5;"
    ><line y2="63.602" style="fill:none;" x1="275.0065" x2="310.0523" y1="63.602"
      /><circle transform="translate(310.0523,63.602)" style="fill:none; stroke-linejoin:miter;" r="5" cx="0" cy="0"
    /></g
    ><g transform="translate(328.8268,86.398)" style="font-size:18.3333px; text-rendering:geometricPrecision; color-rendering:optimizeQuality; image-rendering:optimizeQuality; font-family:'mwa_cmr10'; color-interpolation:linearRGB;"
    ><path style="stroke:none;" d="M0.5469 4.3999 L0.5469 3.7593 Q2.4062 3.7593 2.4062 3.1968 L2.4062 -6.6938 Q2.4062 -7.2563 0.5469 -7.2563 L0.5469 -7.8969 L10.4844 -7.8969 L10.9844 -3.7719 L10.4531 -3.7719 Q10.3438 -4.9126 10.1328 -5.5688 Q9.9219 -6.2251 9.5234 -6.5923 Q9.125 -6.9594 8.4688 -7.1079 Q7.8125 -7.2563 6.6406 -7.2563 L5 -7.2563 Q4.6719 -7.2563 4.4922 -7.2329 Q4.3125 -7.2094 4.2031 -7.0844 Q4.0938 -6.9594 4.0938 -6.6938 L4.0938 -2.0532 L5.3594 -2.0532 Q6.2812 -2.0532 6.7109 -2.2173 Q7.1406 -2.3813 7.3047 -2.811 Q7.4688 -3.2407 7.4688 -4.1626 L7.9844 -4.1626 L7.9844 0.6656 L7.4688 0.6656 Q7.4688 -0.2563 7.3047 -0.686 Q7.1406 -1.1157 6.7109 -1.2798 Q6.2812 -1.4438 5.3594 -1.4438 L4.0938 -1.4438 L4.0938 3.1968 Q4.0938 3.7593 6.3906 3.7593 L6.3906 4.3999 L0.5469 4.3999 Z"
    /></g
    ><g transform="translate(328.8268,86.398)" style="font-size:18.3333px; text-rendering:geometricPrecision; color-rendering:optimizeQuality; image-rendering:optimizeQuality; font-family:'mwa_cmr10'; color-interpolation:linearRGB;"
    ><path style="stroke:none;" d="M12.9833 4.6499 L12.9833 0.4468 Q12.9833 0.3062 13.1395 0.3062 L13.3583 0.3062 Q13.4051 0.3062 13.452 0.3531 Q13.4989 0.3999 13.4989 0.4468 Q13.4989 2.2124 14.5926 3.189 Q15.6864 4.1656 17.4676 4.1656 Q18.0926 4.1656 18.6161 3.8062 Q19.1395 3.4468 19.4364 2.8609 Q19.7333 2.2749 19.7333 1.6499 Q19.7333 1.1031 19.5145 0.5874 Q19.2958 0.0718 18.8817 -0.3032 Q18.4676 -0.6782 17.952 -0.8032 L15.6083 -1.3813 Q14.452 -1.6782 13.7176 -2.6313 Q12.9833 -3.5844 12.9833 -4.7719 Q12.9833 -5.7094 13.452 -6.5298 Q13.9208 -7.3501 14.7254 -7.8188 Q15.5301 -8.2876 16.4676 -8.2876 Q18.2645 -8.2876 19.327 -7.0688 L20.077 -8.2407 Q20.1239 -8.2876 20.202 -8.2876 L20.3114 -8.2876 Q20.3739 -8.2876 20.4208 -8.2485 Q20.4676 -8.2094 20.4676 -8.1469 L20.4676 -3.9751 Q20.4676 -3.8032 20.3114 -3.8032 L20.1083 -3.8032 Q19.9364 -3.8032 19.9364 -3.9751 Q19.9364 -4.4282 19.7879 -4.9751 Q19.6395 -5.5219 19.3661 -6.0219 Q19.0926 -6.5219 18.7645 -6.8344 Q17.9051 -7.7094 16.4676 -7.7094 Q15.8583 -7.7094 15.3348 -7.3969 Q14.8114 -7.0844 14.5067 -6.5532 Q14.202 -6.0219 14.202 -5.4282 Q14.202 -4.6469 14.6786 -4.0219 Q15.1551 -3.3969 15.9364 -3.1938 L18.2645 -2.6157 Q18.8426 -2.4751 19.3583 -2.1157 Q19.8739 -1.7563 20.2176 -1.2719 Q20.5614 -0.7876 20.7567 -0.1938 Q20.952 0.3999 20.952 1.0406 Q20.952 2.0093 20.5067 2.8765 Q20.0614 3.7437 19.2411 4.2671 Q18.4208 4.7906 17.4676 4.7906 Q16.8583 4.7906 16.2333 4.6577 Q15.6083 4.5249 15.0848 4.2593 Q14.5614 3.9937 14.1239 3.5562 L13.3739 4.7437 Q13.327 4.7906 13.2489 4.7906 L13.1395 4.7906 Q12.9833 4.7906 12.9833 4.6499 Z"
      /><path style="stroke:none;" d="M22.6997 4.3999 L22.6997 3.7593 Q24.5591 3.7593 24.5591 3.1968 L24.5591 -6.6938 Q24.5591 -7.2563 22.6997 -7.2563 L22.6997 -7.8969 L32.8872 -7.8969 L33.3872 -3.7719 L32.8716 -3.7719 Q32.6685 -5.3344 32.3247 -6.0376 Q31.981 -6.7407 31.2154 -6.9985 Q30.4497 -7.2563 28.9185 -7.2563 L27.1529 -7.2563 Q26.8247 -7.2563 26.645 -7.2329 Q26.4654 -7.2094 26.356 -7.0844 Q26.2466 -6.9594 26.2466 -6.6938 L26.2466 -2.3032 L27.5747 -2.3032 Q28.481 -2.3032 28.9341 -2.4516 Q29.3872 -2.6001 29.5591 -3.0376 Q29.731 -3.4751 29.731 -4.3969 L30.2622 -4.3969 L30.2622 0.4312 L29.731 0.4312 Q29.731 -0.4751 29.5591 -0.9126 Q29.3872 -1.3501 28.9341 -1.5063 Q28.481 -1.6626 27.5747 -1.6626 L26.2466 -1.6626 L26.2466 3.1968 Q26.2466 3.5874 26.4654 3.6734 Q26.6841 3.7593 27.1529 3.7593 L29.0591 3.7593 Q30.3091 3.7593 31.0747 3.564 Q31.8404 3.3687 32.27 2.9077 Q32.6997 2.4468 32.9341 1.7124 Q33.1685 0.9781 33.3716 -0.3188 L33.8872 -0.3188 L33.1372 4.3999 L22.6997 4.3999 Z"
      /><path style="stroke:none;" d="M42.5846 2.2437 L42.5846 -2.7251 L41.0846 -2.7251 L41.0846 -3.1938 Q42.2565 -3.1938 42.8111 -4.2954 Q43.3658 -5.3969 43.3658 -6.6782 L43.8815 -6.6782 L43.8815 -3.3657 L46.4283 -3.3657 L46.4283 -2.7251 L43.8815 -2.7251 L43.8815 2.1968 Q43.8815 2.9468 44.1315 3.5093 Q44.3815 4.0718 45.0377 4.0718 Q45.6471 4.0718 45.9205 3.4781 Q46.194 2.8843 46.194 2.1968 L46.194 1.1343 L46.7252 1.1343 L46.7252 2.2437 Q46.7252 2.8062 46.5143 3.3531 Q46.3033 3.8999 45.8971 4.2515 Q45.4908 4.6031 44.9127 4.6031 Q43.8346 4.6031 43.2096 3.9546 Q42.5846 3.3062 42.5846 2.2437 Z"
      /><path style="stroke:none;" d="M48.5892 2.6343 Q48.5892 1.5562 49.433 0.8843 Q50.2767 0.2124 51.4564 -0.061 Q52.6361 -0.3344 53.7142 -0.3344 L53.7142 -1.0688 Q53.7142 -1.6001 53.4799 -2.0844 Q53.2455 -2.5688 52.8158 -2.8813 Q52.3861 -3.1938 51.8705 -3.1938 Q50.6674 -3.1938 50.058 -2.6626 Q50.3861 -2.6626 50.6127 -2.4048 Q50.8392 -2.1469 50.8392 -1.8032 Q50.8392 -1.4438 50.5892 -1.186 Q50.3392 -0.9282 49.9799 -0.9282 Q49.6205 -0.9282 49.3627 -1.186 Q49.1049 -1.4438 49.1049 -1.8032 Q49.1049 -2.7407 49.9721 -3.2016 Q50.8392 -3.6626 51.8705 -3.6626 Q52.6049 -3.6626 53.3392 -3.3501 Q54.0736 -3.0376 54.5424 -2.4594 Q55.0111 -1.8813 55.0111 -1.1157 L55.0111 2.9468 Q55.0111 3.2906 55.1596 3.5874 Q55.308 3.8843 55.6361 3.8843 Q55.933 3.8843 56.0736 3.5874 Q56.2142 3.2906 56.2142 2.9468 L56.2142 1.7906 L56.7455 1.7906 L56.7455 2.9468 Q56.7455 3.3374 56.5346 3.7046 Q56.3236 4.0718 55.9721 4.2906 Q55.6205 4.5093 55.1986 4.5093 Q54.6674 4.5093 54.2846 4.0952 Q53.9017 3.6812 53.8705 3.1187 Q53.5267 3.8062 52.8783 4.2046 Q52.2299 4.6031 51.4955 4.6031 Q50.808 4.6031 50.1439 4.3999 Q49.4799 4.1968 49.0346 3.7593 Q48.5892 3.3218 48.5892 2.6343 ZM50.058 2.6343 Q50.058 3.2593 50.5189 3.6968 Q50.9799 4.1343 51.6205 4.1343 Q52.1986 4.1343 52.6752 3.8374 Q53.1517 3.5406 53.433 3.0406 Q53.7142 2.5406 53.7142 1.9937 L53.7142 0.1187 Q52.8861 0.1187 52.0346 0.3843 Q51.183 0.6499 50.6205 1.2202 Q50.058 1.7906 50.058 2.6343 Z"
      /><path style="stroke:none;" d="M57.5059 7.8843 L57.5059 7.2593 Q58.1153 7.2593 58.5137 7.1577 Q58.9122 7.0562 58.9122 6.6812 L58.9122 -1.9907 Q58.9122 -2.4751 58.5606 -2.6001 Q58.2091 -2.7251 57.5059 -2.7251 L57.5059 -3.3657 L60.1622 -3.5532 L60.1622 -2.4438 Q60.6622 -2.9907 61.3184 -3.2719 Q61.9747 -3.5532 62.7091 -3.5532 Q63.7716 -3.5532 64.6231 -2.9751 Q65.4747 -2.3969 65.9512 -1.4673 Q66.4278 -0.5376 66.4278 0.5093 Q66.4278 1.6031 65.8966 2.5406 Q65.3653 3.4781 64.4512 4.0406 Q63.5372 4.6031 62.4278 4.6031 Q61.1309 4.6031 60.2247 3.5406 L60.2247 6.6812 Q60.2247 7.0562 60.6231 7.1577 Q61.0216 7.2593 61.6309 7.2593 L61.6309 7.8843 L57.5059 7.8843 ZM60.2247 2.6499 Q60.5372 3.2906 61.0997 3.7124 Q61.6622 4.1343 62.3341 4.1343 Q62.9591 4.1343 63.4356 3.7984 Q63.9122 3.4624 64.2403 2.8999 Q64.5684 2.3374 64.7169 1.7124 Q64.8653 1.0874 64.8653 0.5093 Q64.8653 -0.2094 64.6075 -1.0454 Q64.3497 -1.8813 63.8184 -2.4594 Q63.2872 -3.0376 62.5372 -3.0376 Q61.8028 -3.0376 61.1934 -2.6626 Q60.5841 -2.2876 60.2247 -1.6469 L60.2247 2.6499 Z"
      /><path style="stroke:none;" d="M67.8162 4.4468 L67.8162 1.5093 Q67.8162 1.3687 67.9724 1.3687 L68.1912 1.3687 Q68.3005 1.3687 68.3318 1.5093 Q68.8474 4.1343 70.7693 4.1343 Q71.613 4.1343 72.1912 3.7437 Q72.7693 3.3531 72.7693 2.5406 Q72.7693 1.9624 72.324 1.5562 Q71.8787 1.1499 71.2537 0.9937 L70.0505 0.7593 Q69.4412 0.6343 68.949 0.3609 Q68.4568 0.0874 68.1365 -0.3657 Q67.8162 -0.8188 67.8162 -1.4126 Q67.8162 -2.2094 68.238 -2.7173 Q68.6599 -3.2251 69.324 -3.4438 Q69.988 -3.6626 70.7693 -3.6626 Q71.6912 -3.6626 72.3787 -3.1782 L72.8943 -3.6313 Q72.8943 -3.6626 72.9724 -3.6626 L73.113 -3.6626 Q73.1599 -3.6626 73.2068 -3.6157 Q73.2537 -3.5688 73.2537 -3.5219 L73.2537 -1.1626 Q73.2537 -0.9907 73.113 -0.9907 L72.8943 -0.9907 Q72.738 -0.9907 72.738 -1.1626 Q72.738 -2.1001 72.2146 -2.6704 Q71.6912 -3.2407 70.7537 -3.2407 Q69.9412 -3.2407 69.3474 -2.9438 Q68.7537 -2.6469 68.7537 -1.9126 Q68.7537 -1.4126 69.1755 -1.0923 Q69.5974 -0.7719 70.1755 -0.6313 L71.3943 -0.4126 Q72.0193 -0.2719 72.5505 0.064 Q73.0818 0.3999 73.3943 0.9077 Q73.7068 1.4156 73.7068 2.0562 Q73.7068 2.7124 73.4802 3.189 Q73.2537 3.6656 72.8552 3.9859 Q72.4568 4.3062 71.9099 4.4546 Q71.363 4.6031 70.7693 4.6031 Q69.6443 4.6031 68.8474 3.8531 L68.1755 4.5562 Q68.1755 4.6031 68.0818 4.6031 L67.9724 4.6031 Q67.8162 4.6031 67.8162 4.4468 Z"
    /></g
    ><g style="stroke-linecap:butt; fill:blue; text-rendering:geometricPrecision; image-rendering:optimizeQuality; color-rendering:optimizeQuality; stroke-linejoin:round; stroke:blue; color-interpolation:linearRGB; stroke-width:2.5;"
    ><line y2="86.398" style="fill:none;" x1="275.0065" x2="310.0523" y1="86.398"
      /><circle transform="translate(310.0523,86.398)" style="fill:none; stroke-linejoin:miter;" r="5" cx="0" cy="0"
    /></g
    ><g style="stroke-linecap:butt; fill:rgb(38,38,38); text-rendering:geometricPrecision; color-rendering:optimizeQuality; image-rendering:optimizeQuality; stroke:rgb(38,38,38); color-interpolation:linearRGB; stroke-width:0.8333;"
    ><path d="M270 100 L270 50 L440 50 L440 100 Z" style="fill:none; fill-rule:evenodd;"
    /></g
  ></g
></svg
>
