ISO-10303-21;
HEADER;
/* Generated by software containing ST-Developer
 * from STEP Tools, Inc. (www.steptools.com) 
 */

FILE_DESCRIPTION(
/* description */ (''),
/* implementation_level */ '2;1');

FILE_NAME(
/* name */ 
'D:/Users/Steven/Documents/DipTrace/My Libraries/3D/LED 5mm Red.step',
/* time_stamp */ '2019-02-10T05:40:18+11:00',
/* author */ ('austfox'),
/* organization */ (''),
/* preprocessor_version */ 'ST-DEVELOPER v17.2',
/* originating_system */ 'Autodesk Translation Framework v7.6.0.251',
/* authorisation */ '');

FILE_SCHEMA (('AUTOMOTIVE_DESIGN { 1 0 10303 214 3 1 1 }'));
ENDSEC;

DATA;
#10=MECHANICAL_DESIGN_GEOMETRIC_PRESENTATION_REPRESENTATION('',(#13,#14,
#15,#16,#17),#862);
#11=SHAPE_REPRESENTATION_RELATIONSHIP('SRR','None',#869,#12);
#12=ADVANCED_BREP_SHAPE_REPRESENTATION('',(#18,#19,#20,#21,#22),#861);
#13=STYLED_ITEM('',(#879),#18);
#14=STYLED_ITEM('',(#878),#19);
#15=STYLED_ITEM('',(#878),#20);
#16=STYLED_ITEM('',(#878),#21);
#17=STYLED_ITEM('',(#878),#22);
#18=MANIFOLD_SOLID_BREP('Body1',#500);
#19=MANIFOLD_SOLID_BREP('Body2',#501);
#20=MANIFOLD_SOLID_BREP('Body3',#502);
#21=MANIFOLD_SOLID_BREP('Body4',#503);
#22=MANIFOLD_SOLID_BREP('Body5',#504);
#23=(
BOUNDED_SURFACE()
B_SPLINE_SURFACE(2,2,((#710,#711,#712,#713,#714,#715,#716,#717,#718),(#719,
#720,#721,#722,#723,#724,#725,#726,#727),(#728,#729,#730,#731,#732,#733,
#734,#735,#736)),.UNSPECIFIED.,.F.,.T.,.F.)
B_SPLINE_SURFACE_WITH_KNOTS((3,3),(3,2,2,2,3),(-2.52323414687536E-16,1.5707963267949),
(-3.14159265358979,-1.5707963267949,0.,1.5707963267949,3.14159265358979),
 .UNSPECIFIED.)
GEOMETRIC_REPRESENTATION_ITEM()
RATIONAL_B_SPLINE_SURFACE(((1.,0.707106781186548,1.,0.707106781186548,1.,
0.707106781186548,1.,0.707106781186548,1.),(0.707106781186548,0.5,0.707106781186548,
0.5,0.707106781186548,0.5,0.707106781186548,0.5,0.707106781186548),(1.,
0.707106781186548,1.,0.707106781186548,1.,0.707106781186548,1.,0.707106781186548,
1.)))
REPRESENTATION_ITEM('')
SURFACE()
);
#24=CYLINDRICAL_SURFACE('',#521,2.8);
#25=CYLINDRICAL_SURFACE('',#529,2.5);
#26=CIRCLE('',#520,2.8);
#27=CIRCLE('',#522,2.8);
#28=CIRCLE('',#523,0.3);
#29=CIRCLE('',#524,2.2);
#30=CIRCLE('',#525,2.5);
#31=CIRCLE('',#526,2.5);
#32=CIRCLE('',#527,2.5);
#33=CIRCLE('',#528,0.3);
#34=CIRCLE('',#530,2.5);
#35=CIRCLE('',#531,2.5);
#36=FACE_OUTER_BOUND('',#67,.T.);
#37=FACE_OUTER_BOUND('',#68,.T.);
#38=FACE_OUTER_BOUND('',#69,.T.);
#39=FACE_OUTER_BOUND('',#70,.T.);
#40=FACE_OUTER_BOUND('',#71,.T.);
#41=FACE_OUTER_BOUND('',#72,.T.);
#42=FACE_OUTER_BOUND('',#73,.T.);
#43=FACE_OUTER_BOUND('',#74,.T.);
#44=FACE_OUTER_BOUND('',#75,.T.);
#45=FACE_OUTER_BOUND('',#76,.T.);
#46=FACE_OUTER_BOUND('',#77,.T.);
#47=FACE_OUTER_BOUND('',#78,.T.);
#48=FACE_OUTER_BOUND('',#79,.T.);
#49=FACE_OUTER_BOUND('',#80,.T.);
#50=FACE_OUTER_BOUND('',#81,.T.);
#51=FACE_OUTER_BOUND('',#82,.T.);
#52=FACE_OUTER_BOUND('',#83,.T.);
#53=FACE_OUTER_BOUND('',#84,.T.);
#54=FACE_OUTER_BOUND('',#85,.T.);
#55=FACE_OUTER_BOUND('',#86,.T.);
#56=FACE_OUTER_BOUND('',#87,.T.);
#57=FACE_OUTER_BOUND('',#88,.T.);
#58=FACE_OUTER_BOUND('',#89,.T.);
#59=FACE_OUTER_BOUND('',#90,.T.);
#60=FACE_OUTER_BOUND('',#91,.T.);
#61=FACE_OUTER_BOUND('',#92,.T.);
#62=FACE_OUTER_BOUND('',#93,.T.);
#63=FACE_OUTER_BOUND('',#94,.T.);
#64=FACE_OUTER_BOUND('',#95,.T.);
#65=FACE_OUTER_BOUND('',#96,.T.);
#66=FACE_OUTER_BOUND('',#97,.T.);
#67=EDGE_LOOP('',(#313,#314,#315,#316,#317));
#68=EDGE_LOOP('',(#318,#319));
#69=EDGE_LOOP('',(#320,#321,#322,#323));
#70=EDGE_LOOP('',(#324,#325,#326,#327,#328,#329,#330));
#71=EDGE_LOOP('',(#331,#332,#333,#334,#335,#336,#337));
#72=EDGE_LOOP('',(#338,#339));
#73=EDGE_LOOP('',(#340,#341,#342,#343,#344));
#74=EDGE_LOOP('',(#345,#346,#347,#348));
#75=EDGE_LOOP('',(#349,#350,#351,#352));
#76=EDGE_LOOP('',(#353,#354,#355,#356));
#77=EDGE_LOOP('',(#357,#358,#359,#360));
#78=EDGE_LOOP('',(#361,#362,#363,#364));
#79=EDGE_LOOP('',(#365,#366,#367,#368));
#80=EDGE_LOOP('',(#369,#370,#371,#372));
#81=EDGE_LOOP('',(#373,#374,#375,#376));
#82=EDGE_LOOP('',(#377,#378,#379,#380));
#83=EDGE_LOOP('',(#381,#382,#383,#384));
#84=EDGE_LOOP('',(#385,#386,#387,#388));
#85=EDGE_LOOP('',(#389,#390,#391,#392));
#86=EDGE_LOOP('',(#393,#394,#395,#396));
#87=EDGE_LOOP('',(#397,#398,#399,#400));
#88=EDGE_LOOP('',(#401,#402,#403,#404));
#89=EDGE_LOOP('',(#405,#406,#407,#408));
#90=EDGE_LOOP('',(#409,#410,#411,#412));
#91=EDGE_LOOP('',(#413,#414,#415,#416));
#92=EDGE_LOOP('',(#417,#418,#419,#420));
#93=EDGE_LOOP('',(#421,#422,#423,#424));
#94=EDGE_LOOP('',(#425,#426,#427,#428));
#95=EDGE_LOOP('',(#429,#430,#431,#432));
#96=EDGE_LOOP('',(#433,#434,#435,#436));
#97=EDGE_LOOP('',(#437,#438,#439,#440));
#98=LINE('',#698,#152);
#99=LINE('',#700,#153);
#100=LINE('',#702,#154);
#101=LINE('',#704,#155);
#102=LINE('',#705,#156);
#103=LINE('',#750,#157);
#104=LINE('',#758,#158);
#105=LINE('',#760,#159);
#106=LINE('',#762,#160);
#107=LINE('',#763,#161);
#108=LINE('',#766,#162);
#109=LINE('',#768,#163);
#110=LINE('',#769,#164);
#111=LINE('',#772,#165);
#112=LINE('',#774,#166);
#113=LINE('',#775,#167);
#114=LINE('',#777,#168);
#115=LINE('',#778,#169);
#116=LINE('',#784,#170);
#117=LINE('',#786,#171);
#118=LINE('',#788,#172);
#119=LINE('',#789,#173);
#120=LINE('',#792,#174);
#121=LINE('',#794,#175);
#122=LINE('',#795,#176);
#123=LINE('',#798,#177);
#124=LINE('',#800,#178);
#125=LINE('',#801,#179);
#126=LINE('',#803,#180);
#127=LINE('',#804,#181);
#128=LINE('',#810,#182);
#129=LINE('',#812,#183);
#130=LINE('',#814,#184);
#131=LINE('',#815,#185);
#132=LINE('',#818,#186);
#133=LINE('',#820,#187);
#134=LINE('',#821,#188);
#135=LINE('',#824,#189);
#136=LINE('',#826,#190);
#137=LINE('',#827,#191);
#138=LINE('',#829,#192);
#139=LINE('',#830,#193);
#140=LINE('',#836,#194);
#141=LINE('',#838,#195);
#142=LINE('',#840,#196);
#143=LINE('',#841,#197);
#144=LINE('',#844,#198);
#145=LINE('',#846,#199);
#146=LINE('',#847,#200);
#147=LINE('',#850,#201);
#148=LINE('',#852,#202);
#149=LINE('',#853,#203);
#150=LINE('',#855,#204);
#151=LINE('',#856,#205);
#152=VECTOR('',#562,10.);
#153=VECTOR('',#563,10.);
#154=VECTOR('',#564,10.);
#155=VECTOR('',#565,10.);
#156=VECTOR('',#566,10.);
#157=VECTOR('',#589,2.5);
#158=VECTOR('',#600,10.);
#159=VECTOR('',#601,10.);
#160=VECTOR('',#602,10.);
#161=VECTOR('',#603,10.);
#162=VECTOR('',#606,10.);
#163=VECTOR('',#607,10.);
#164=VECTOR('',#608,10.);
#165=VECTOR('',#611,10.);
#166=VECTOR('',#612,10.);
#167=VECTOR('',#613,10.);
#168=VECTOR('',#616,10.);
#169=VECTOR('',#617,10.);
#170=VECTOR('',#624,10.);
#171=VECTOR('',#625,10.);
#172=VECTOR('',#626,10.);
#173=VECTOR('',#627,10.);
#174=VECTOR('',#630,10.);
#175=VECTOR('',#631,10.);
#176=VECTOR('',#632,10.);
#177=VECTOR('',#635,10.);
#178=VECTOR('',#636,10.);
#179=VECTOR('',#637,10.);
#180=VECTOR('',#640,10.);
#181=VECTOR('',#641,10.);
#182=VECTOR('',#648,10.);
#183=VECTOR('',#649,10.);
#184=VECTOR('',#650,10.);
#185=VECTOR('',#651,10.);
#186=VECTOR('',#654,10.);
#187=VECTOR('',#655,10.);
#188=VECTOR('',#656,10.);
#189=VECTOR('',#659,10.);
#190=VECTOR('',#660,10.);
#191=VECTOR('',#661,10.);
#192=VECTOR('',#664,10.);
#193=VECTOR('',#665,10.);
#194=VECTOR('',#672,10.);
#195=VECTOR('',#673,10.);
#196=VECTOR('',#674,10.);
#197=VECTOR('',#675,10.);
#198=VECTOR('',#678,10.);
#199=VECTOR('',#679,10.);
#200=VECTOR('',#680,10.);
#201=VECTOR('',#683,10.);
#202=VECTOR('',#684,10.);
#203=VECTOR('',#685,10.);
#204=VECTOR('',#688,10.);
#205=VECTOR('',#689,10.);
#206=VERTEX_POINT('',#696);
#207=VERTEX_POINT('',#697);
#208=VERTEX_POINT('',#699);
#209=VERTEX_POINT('',#701);
#210=VERTEX_POINT('',#703);
#211=VERTEX_POINT('',#737);
#212=VERTEX_POINT('',#738);
#213=VERTEX_POINT('',#740);
#214=VERTEX_POINT('',#742);
#215=VERTEX_POINT('',#744);
#216=VERTEX_POINT('',#749);
#217=VERTEX_POINT('',#756);
#218=VERTEX_POINT('',#757);
#219=VERTEX_POINT('',#759);
#220=VERTEX_POINT('',#761);
#221=VERTEX_POINT('',#765);
#222=VERTEX_POINT('',#767);
#223=VERTEX_POINT('',#771);
#224=VERTEX_POINT('',#773);
#225=VERTEX_POINT('',#782);
#226=VERTEX_POINT('',#783);
#227=VERTEX_POINT('',#785);
#228=VERTEX_POINT('',#787);
#229=VERTEX_POINT('',#791);
#230=VERTEX_POINT('',#793);
#231=VERTEX_POINT('',#797);
#232=VERTEX_POINT('',#799);
#233=VERTEX_POINT('',#808);
#234=VERTEX_POINT('',#809);
#235=VERTEX_POINT('',#811);
#236=VERTEX_POINT('',#813);
#237=VERTEX_POINT('',#817);
#238=VERTEX_POINT('',#819);
#239=VERTEX_POINT('',#823);
#240=VERTEX_POINT('',#825);
#241=VERTEX_POINT('',#834);
#242=VERTEX_POINT('',#835);
#243=VERTEX_POINT('',#837);
#244=VERTEX_POINT('',#839);
#245=VERTEX_POINT('',#843);
#246=VERTEX_POINT('',#845);
#247=VERTEX_POINT('',#849);
#248=VERTEX_POINT('',#851);
#249=EDGE_CURVE('',#206,#207,#98,.T.);
#250=EDGE_CURVE('',#208,#206,#99,.T.);
#251=EDGE_CURVE('',#209,#208,#100,.T.);
#252=EDGE_CURVE('',#210,#209,#101,.T.);
#253=EDGE_CURVE('',#207,#210,#102,.T.);
#254=EDGE_CURVE('',#210,#207,#26,.T.);
#255=EDGE_CURVE('',#206,#209,#27,.T.);
#256=EDGE_CURVE('',#211,#212,#28,.T.);
#257=EDGE_CURVE('',#212,#213,#29,.T.);
#258=EDGE_CURVE('',#213,#214,#30,.T.);
#259=EDGE_CURVE('',#214,#215,#31,.T.);
#260=EDGE_CURVE('',#215,#213,#32,.T.);
#261=EDGE_CURVE('',#212,#211,#33,.T.);
#262=EDGE_CURVE('',#214,#216,#103,.T.);
#263=EDGE_CURVE('',#208,#216,#34,.T.);
#264=EDGE_CURVE('',#216,#208,#35,.T.);
#265=EDGE_CURVE('',#217,#218,#104,.T.);
#266=EDGE_CURVE('',#217,#219,#105,.T.);
#267=EDGE_CURVE('',#220,#219,#106,.T.);
#268=EDGE_CURVE('',#218,#220,#107,.T.);
#269=EDGE_CURVE('',#218,#221,#108,.T.);
#270=EDGE_CURVE('',#222,#220,#109,.T.);
#271=EDGE_CURVE('',#221,#222,#110,.T.);
#272=EDGE_CURVE('',#221,#223,#111,.T.);
#273=EDGE_CURVE('',#224,#222,#112,.T.);
#274=EDGE_CURVE('',#223,#224,#113,.T.);
#275=EDGE_CURVE('',#223,#217,#114,.T.);
#276=EDGE_CURVE('',#219,#224,#115,.T.);
#277=EDGE_CURVE('',#225,#226,#116,.T.);
#278=EDGE_CURVE('',#225,#227,#117,.T.);
#279=EDGE_CURVE('',#228,#227,#118,.T.);
#280=EDGE_CURVE('',#226,#228,#119,.T.);
#281=EDGE_CURVE('',#226,#229,#120,.T.);
#282=EDGE_CURVE('',#230,#228,#121,.T.);
#283=EDGE_CURVE('',#229,#230,#122,.T.);
#284=EDGE_CURVE('',#229,#231,#123,.T.);
#285=EDGE_CURVE('',#232,#230,#124,.T.);
#286=EDGE_CURVE('',#231,#232,#125,.T.);
#287=EDGE_CURVE('',#231,#225,#126,.T.);
#288=EDGE_CURVE('',#227,#232,#127,.T.);
#289=EDGE_CURVE('',#233,#234,#128,.T.);
#290=EDGE_CURVE('',#233,#235,#129,.T.);
#291=EDGE_CURVE('',#236,#235,#130,.T.);
#292=EDGE_CURVE('',#234,#236,#131,.T.);
#293=EDGE_CURVE('',#234,#237,#132,.T.);
#294=EDGE_CURVE('',#238,#236,#133,.T.);
#295=EDGE_CURVE('',#237,#238,#134,.T.);
#296=EDGE_CURVE('',#237,#239,#135,.T.);
#297=EDGE_CURVE('',#240,#238,#136,.T.);
#298=EDGE_CURVE('',#239,#240,#137,.T.);
#299=EDGE_CURVE('',#239,#233,#138,.T.);
#300=EDGE_CURVE('',#235,#240,#139,.T.);
#301=EDGE_CURVE('',#241,#242,#140,.T.);
#302=EDGE_CURVE('',#241,#243,#141,.T.);
#303=EDGE_CURVE('',#244,#243,#142,.T.);
#304=EDGE_CURVE('',#242,#244,#143,.T.);
#305=EDGE_CURVE('',#242,#245,#144,.T.);
#306=EDGE_CURVE('',#246,#244,#145,.T.);
#307=EDGE_CURVE('',#245,#246,#146,.T.);
#308=EDGE_CURVE('',#245,#247,#147,.T.);
#309=EDGE_CURVE('',#248,#246,#148,.T.);
#310=EDGE_CURVE('',#247,#248,#149,.T.);
#311=EDGE_CURVE('',#247,#241,#150,.T.);
#312=EDGE_CURVE('',#243,#248,#151,.T.);
#313=ORIENTED_EDGE('',*,*,#249,.F.);
#314=ORIENTED_EDGE('',*,*,#250,.F.);
#315=ORIENTED_EDGE('',*,*,#251,.F.);
#316=ORIENTED_EDGE('',*,*,#252,.F.);
#317=ORIENTED_EDGE('',*,*,#253,.F.);
#318=ORIENTED_EDGE('',*,*,#253,.T.);
#319=ORIENTED_EDGE('',*,*,#254,.T.);
#320=ORIENTED_EDGE('',*,*,#249,.T.);
#321=ORIENTED_EDGE('',*,*,#254,.F.);
#322=ORIENTED_EDGE('',*,*,#252,.T.);
#323=ORIENTED_EDGE('',*,*,#255,.F.);
#324=ORIENTED_EDGE('',*,*,#256,.T.);
#325=ORIENTED_EDGE('',*,*,#257,.T.);
#326=ORIENTED_EDGE('',*,*,#258,.T.);
#327=ORIENTED_EDGE('',*,*,#259,.T.);
#328=ORIENTED_EDGE('',*,*,#260,.T.);
#329=ORIENTED_EDGE('',*,*,#257,.F.);
#330=ORIENTED_EDGE('',*,*,#261,.T.);
#331=ORIENTED_EDGE('',*,*,#260,.F.);
#332=ORIENTED_EDGE('',*,*,#259,.F.);
#333=ORIENTED_EDGE('',*,*,#262,.T.);
#334=ORIENTED_EDGE('',*,*,#263,.F.);
#335=ORIENTED_EDGE('',*,*,#264,.F.);
#336=ORIENTED_EDGE('',*,*,#262,.F.);
#337=ORIENTED_EDGE('',*,*,#258,.F.);
#338=ORIENTED_EDGE('',*,*,#256,.F.);
#339=ORIENTED_EDGE('',*,*,#261,.F.);
#340=ORIENTED_EDGE('',*,*,#250,.T.);
#341=ORIENTED_EDGE('',*,*,#255,.T.);
#342=ORIENTED_EDGE('',*,*,#251,.T.);
#343=ORIENTED_EDGE('',*,*,#263,.T.);
#344=ORIENTED_EDGE('',*,*,#264,.T.);
#345=ORIENTED_EDGE('',*,*,#265,.F.);
#346=ORIENTED_EDGE('',*,*,#266,.T.);
#347=ORIENTED_EDGE('',*,*,#267,.F.);
#348=ORIENTED_EDGE('',*,*,#268,.F.);
#349=ORIENTED_EDGE('',*,*,#269,.F.);
#350=ORIENTED_EDGE('',*,*,#268,.T.);
#351=ORIENTED_EDGE('',*,*,#270,.F.);
#352=ORIENTED_EDGE('',*,*,#271,.F.);
#353=ORIENTED_EDGE('',*,*,#272,.F.);
#354=ORIENTED_EDGE('',*,*,#271,.T.);
#355=ORIENTED_EDGE('',*,*,#273,.F.);
#356=ORIENTED_EDGE('',*,*,#274,.F.);
#357=ORIENTED_EDGE('',*,*,#275,.F.);
#358=ORIENTED_EDGE('',*,*,#274,.T.);
#359=ORIENTED_EDGE('',*,*,#276,.F.);
#360=ORIENTED_EDGE('',*,*,#266,.F.);
#361=ORIENTED_EDGE('',*,*,#275,.T.);
#362=ORIENTED_EDGE('',*,*,#265,.T.);
#363=ORIENTED_EDGE('',*,*,#269,.T.);
#364=ORIENTED_EDGE('',*,*,#272,.T.);
#365=ORIENTED_EDGE('',*,*,#276,.T.);
#366=ORIENTED_EDGE('',*,*,#273,.T.);
#367=ORIENTED_EDGE('',*,*,#270,.T.);
#368=ORIENTED_EDGE('',*,*,#267,.T.);
#369=ORIENTED_EDGE('',*,*,#277,.F.);
#370=ORIENTED_EDGE('',*,*,#278,.T.);
#371=ORIENTED_EDGE('',*,*,#279,.F.);
#372=ORIENTED_EDGE('',*,*,#280,.F.);
#373=ORIENTED_EDGE('',*,*,#281,.F.);
#374=ORIENTED_EDGE('',*,*,#280,.T.);
#375=ORIENTED_EDGE('',*,*,#282,.F.);
#376=ORIENTED_EDGE('',*,*,#283,.F.);
#377=ORIENTED_EDGE('',*,*,#284,.F.);
#378=ORIENTED_EDGE('',*,*,#283,.T.);
#379=ORIENTED_EDGE('',*,*,#285,.F.);
#380=ORIENTED_EDGE('',*,*,#286,.F.);
#381=ORIENTED_EDGE('',*,*,#287,.F.);
#382=ORIENTED_EDGE('',*,*,#286,.T.);
#383=ORIENTED_EDGE('',*,*,#288,.F.);
#384=ORIENTED_EDGE('',*,*,#278,.F.);
#385=ORIENTED_EDGE('',*,*,#287,.T.);
#386=ORIENTED_EDGE('',*,*,#277,.T.);
#387=ORIENTED_EDGE('',*,*,#281,.T.);
#388=ORIENTED_EDGE('',*,*,#284,.T.);
#389=ORIENTED_EDGE('',*,*,#288,.T.);
#390=ORIENTED_EDGE('',*,*,#285,.T.);
#391=ORIENTED_EDGE('',*,*,#282,.T.);
#392=ORIENTED_EDGE('',*,*,#279,.T.);
#393=ORIENTED_EDGE('',*,*,#289,.F.);
#394=ORIENTED_EDGE('',*,*,#290,.T.);
#395=ORIENTED_EDGE('',*,*,#291,.F.);
#396=ORIENTED_EDGE('',*,*,#292,.F.);
#397=ORIENTED_EDGE('',*,*,#293,.F.);
#398=ORIENTED_EDGE('',*,*,#292,.T.);
#399=ORIENTED_EDGE('',*,*,#294,.F.);
#400=ORIENTED_EDGE('',*,*,#295,.F.);
#401=ORIENTED_EDGE('',*,*,#296,.F.);
#402=ORIENTED_EDGE('',*,*,#295,.T.);
#403=ORIENTED_EDGE('',*,*,#297,.F.);
#404=ORIENTED_EDGE('',*,*,#298,.F.);
#405=ORIENTED_EDGE('',*,*,#299,.F.);
#406=ORIENTED_EDGE('',*,*,#298,.T.);
#407=ORIENTED_EDGE('',*,*,#300,.F.);
#408=ORIENTED_EDGE('',*,*,#290,.F.);
#409=ORIENTED_EDGE('',*,*,#299,.T.);
#410=ORIENTED_EDGE('',*,*,#289,.T.);
#411=ORIENTED_EDGE('',*,*,#293,.T.);
#412=ORIENTED_EDGE('',*,*,#296,.T.);
#413=ORIENTED_EDGE('',*,*,#300,.T.);
#414=ORIENTED_EDGE('',*,*,#297,.T.);
#415=ORIENTED_EDGE('',*,*,#294,.T.);
#416=ORIENTED_EDGE('',*,*,#291,.T.);
#417=ORIENTED_EDGE('',*,*,#301,.F.);
#418=ORIENTED_EDGE('',*,*,#302,.T.);
#419=ORIENTED_EDGE('',*,*,#303,.F.);
#420=ORIENTED_EDGE('',*,*,#304,.F.);
#421=ORIENTED_EDGE('',*,*,#305,.F.);
#422=ORIENTED_EDGE('',*,*,#304,.T.);
#423=ORIENTED_EDGE('',*,*,#306,.F.);
#424=ORIENTED_EDGE('',*,*,#307,.F.);
#425=ORIENTED_EDGE('',*,*,#308,.F.);
#426=ORIENTED_EDGE('',*,*,#307,.T.);
#427=ORIENTED_EDGE('',*,*,#309,.F.);
#428=ORIENTED_EDGE('',*,*,#310,.F.);
#429=ORIENTED_EDGE('',*,*,#311,.F.);
#430=ORIENTED_EDGE('',*,*,#310,.T.);
#431=ORIENTED_EDGE('',*,*,#312,.F.);
#432=ORIENTED_EDGE('',*,*,#302,.F.);
#433=ORIENTED_EDGE('',*,*,#311,.T.);
#434=ORIENTED_EDGE('',*,*,#301,.T.);
#435=ORIENTED_EDGE('',*,*,#305,.T.);
#436=ORIENTED_EDGE('',*,*,#308,.T.);
#437=ORIENTED_EDGE('',*,*,#312,.T.);
#438=ORIENTED_EDGE('',*,*,#309,.T.);
#439=ORIENTED_EDGE('',*,*,#306,.T.);
#440=ORIENTED_EDGE('',*,*,#303,.T.);
#441=PLANE('',#518);
#442=PLANE('',#519);
#443=PLANE('',#532);
#444=PLANE('',#533);
#445=PLANE('',#534);
#446=PLANE('',#535);
#447=PLANE('',#536);
#448=PLANE('',#537);
#449=PLANE('',#538);
#450=PLANE('',#539);
#451=PLANE('',#540);
#452=PLANE('',#541);
#453=PLANE('',#542);
#454=PLANE('',#543);
#455=PLANE('',#544);
#456=PLANE('',#545);
#457=PLANE('',#546);
#458=PLANE('',#547);
#459=PLANE('',#548);
#460=PLANE('',#549);
#461=PLANE('',#550);
#462=PLANE('',#551);
#463=PLANE('',#552);
#464=PLANE('',#553);
#465=PLANE('',#554);
#466=PLANE('',#555);
#467=PLANE('',#556);
#468=PLANE('',#557);
#469=ADVANCED_FACE('',(#36),#441,.F.);
#470=ADVANCED_FACE('',(#37),#442,.T.);
#471=ADVANCED_FACE('',(#38),#24,.T.);
#472=ADVANCED_FACE('',(#39),#23,.F.);
#473=ADVANCED_FACE('',(#40),#25,.T.);
#474=ADVANCED_FACE('',(#41),#443,.T.);
#475=ADVANCED_FACE('',(#42),#444,.T.);
#476=ADVANCED_FACE('',(#43),#445,.T.);
#477=ADVANCED_FACE('',(#44),#446,.T.);
#478=ADVANCED_FACE('',(#45),#447,.T.);
#479=ADVANCED_FACE('',(#46),#448,.T.);
#480=ADVANCED_FACE('',(#47),#449,.T.);
#481=ADVANCED_FACE('',(#48),#450,.T.);
#482=ADVANCED_FACE('',(#49),#451,.T.);
#483=ADVANCED_FACE('',(#50),#452,.T.);
#484=ADVANCED_FACE('',(#51),#453,.T.);
#485=ADVANCED_FACE('',(#52),#454,.T.);
#486=ADVANCED_FACE('',(#53),#455,.T.);
#487=ADVANCED_FACE('',(#54),#456,.T.);
#488=ADVANCED_FACE('',(#55),#457,.T.);
#489=ADVANCED_FACE('',(#56),#458,.T.);
#490=ADVANCED_FACE('',(#57),#459,.T.);
#491=ADVANCED_FACE('',(#58),#460,.T.);
#492=ADVANCED_FACE('',(#59),#461,.T.);
#493=ADVANCED_FACE('',(#60),#462,.T.);
#494=ADVANCED_FACE('',(#61),#463,.T.);
#495=ADVANCED_FACE('',(#62),#464,.T.);
#496=ADVANCED_FACE('',(#63),#465,.T.);
#497=ADVANCED_FACE('',(#64),#466,.T.);
#498=ADVANCED_FACE('',(#65),#467,.T.);
#499=ADVANCED_FACE('',(#66),#468,.T.);
#500=CLOSED_SHELL('',(#469,#470,#471,#472,#473,#474,#475));
#501=CLOSED_SHELL('',(#476,#477,#478,#479,#480,#481));
#502=CLOSED_SHELL('',(#482,#483,#484,#485,#486,#487));
#503=CLOSED_SHELL('',(#488,#489,#490,#491,#492,#493));
#504=CLOSED_SHELL('',(#494,#495,#496,#497,#498,#499));
#505=DERIVED_UNIT_ELEMENT(#507,1.);
#506=DERIVED_UNIT_ELEMENT(#864,3.);
#507=(
MASS_UNIT()
NAMED_UNIT(*)
SI_UNIT(.KILO.,.GRAM.)
);
#508=DERIVED_UNIT((#505,#506));
#509=MEASURE_REPRESENTATION_ITEM('density measure',
POSITIVE_RATIO_MEASURE(7850.),#508);
#510=PROPERTY_DEFINITION_REPRESENTATION(#515,#512);
#511=PROPERTY_DEFINITION_REPRESENTATION(#516,#513);
#512=REPRESENTATION('material name',(#514),#861);
#513=REPRESENTATION('density',(#509),#861);
#514=DESCRIPTIVE_REPRESENTATION_ITEM('Steel','Steel');
#515=PROPERTY_DEFINITION('material property','material name',#871);
#516=PROPERTY_DEFINITION('material property','density of part',#871);
#517=AXIS2_PLACEMENT_3D('placement',#694,#558,#559);
#518=AXIS2_PLACEMENT_3D('',#695,#560,#561);
#519=AXIS2_PLACEMENT_3D('',#706,#567,#568);
#520=AXIS2_PLACEMENT_3D('',#707,#569,#570);
#521=AXIS2_PLACEMENT_3D('',#708,#571,#572);
#522=AXIS2_PLACEMENT_3D('',#709,#573,#574);
#523=AXIS2_PLACEMENT_3D('',#739,#575,#576);
#524=AXIS2_PLACEMENT_3D('',#741,#577,#578);
#525=AXIS2_PLACEMENT_3D('',#743,#579,#580);
#526=AXIS2_PLACEMENT_3D('',#745,#581,#582);
#527=AXIS2_PLACEMENT_3D('',#746,#583,#584);
#528=AXIS2_PLACEMENT_3D('',#747,#585,#586);
#529=AXIS2_PLACEMENT_3D('',#748,#587,#588);
#530=AXIS2_PLACEMENT_3D('',#751,#590,#591);
#531=AXIS2_PLACEMENT_3D('',#752,#592,#593);
#532=AXIS2_PLACEMENT_3D('',#753,#594,#595);
#533=AXIS2_PLACEMENT_3D('',#754,#596,#597);
#534=AXIS2_PLACEMENT_3D('',#755,#598,#599);
#535=AXIS2_PLACEMENT_3D('',#764,#604,#605);
#536=AXIS2_PLACEMENT_3D('',#770,#609,#610);
#537=AXIS2_PLACEMENT_3D('',#776,#614,#615);
#538=AXIS2_PLACEMENT_3D('',#779,#618,#619);
#539=AXIS2_PLACEMENT_3D('',#780,#620,#621);
#540=AXIS2_PLACEMENT_3D('',#781,#622,#623);
#541=AXIS2_PLACEMENT_3D('',#790,#628,#629);
#542=AXIS2_PLACEMENT_3D('',#796,#633,#634);
#543=AXIS2_PLACEMENT_3D('',#802,#638,#639);
#544=AXIS2_PLACEMENT_3D('',#805,#642,#643);
#545=AXIS2_PLACEMENT_3D('',#806,#644,#645);
#546=AXIS2_PLACEMENT_3D('',#807,#646,#647);
#547=AXIS2_PLACEMENT_3D('',#816,#652,#653);
#548=AXIS2_PLACEMENT_3D('',#822,#657,#658);
#549=AXIS2_PLACEMENT_3D('',#828,#662,#663);
#550=AXIS2_PLACEMENT_3D('',#831,#666,#667);
#551=AXIS2_PLACEMENT_3D('',#832,#668,#669);
#552=AXIS2_PLACEMENT_3D('',#833,#670,#671);
#553=AXIS2_PLACEMENT_3D('',#842,#676,#677);
#554=AXIS2_PLACEMENT_3D('',#848,#681,#682);
#555=AXIS2_PLACEMENT_3D('',#854,#686,#687);
#556=AXIS2_PLACEMENT_3D('',#857,#690,#691);
#557=AXIS2_PLACEMENT_3D('',#858,#692,#693);
#558=DIRECTION('axis',(0.,0.,1.));
#559=DIRECTION('refdir',(1.,0.,0.));
#560=DIRECTION('center_axis',(-1.,0.,0.));
#561=DIRECTION('ref_axis',(0.,0.,1.));
#562=DIRECTION('',(0.,-1.,2.22044604925031E-16));
#563=DIRECTION('',(0.,-2.22044604925031E-16,-1.));
#564=DIRECTION('',(0.,-2.22044604925031E-16,-1.));
#565=DIRECTION('',(0.,1.,-2.22044604925031E-16));
#566=DIRECTION('',(0.,2.22044604925031E-16,1.));
#567=DIRECTION('center_axis',(0.,-1.,2.22044604925031E-16));
#568=DIRECTION('ref_axis',(-1.,0.,0.));
#569=DIRECTION('center_axis',(0.,-1.,2.22044604925031E-16));
#570=DIRECTION('ref_axis',(1.,0.,0.));
#571=DIRECTION('center_axis',(0.,1.,-2.22044604925031E-16));
#572=DIRECTION('ref_axis',(-1.,-2.71926214689378E-32,-1.22464679914735E-16));
#573=DIRECTION('center_axis',(0.,1.,-2.22044604925031E-16));
#574=DIRECTION('ref_axis',(1.,0.,0.));
#575=DIRECTION('center_axis',(0.,-1.,2.22044604925031E-16));
#576=DIRECTION('ref_axis',(-1.,-2.71926214689378E-32,-1.22464679914735E-16));
#577=DIRECTION('center_axis',(-1.,2.71926214689378E-32,1.22464679914735E-16));
#578=DIRECTION('ref_axis',(-1.22464679914735E-16,0.,-1.));
#579=DIRECTION('center_axis',(0.,1.,-2.22044604925031E-16));
#580=DIRECTION('ref_axis',(-1.,0.,-1.22464679914735E-16));
#581=DIRECTION('center_axis',(0.,1.,-2.22044604925031E-16));
#582=DIRECTION('ref_axis',(-1.,0.,-1.22464679914735E-16));
#583=DIRECTION('center_axis',(0.,1.,-2.22044604925031E-16));
#584=DIRECTION('ref_axis',(-1.,0.,-1.22464679914735E-16));
#585=DIRECTION('center_axis',(0.,-1.,2.22044604925031E-16));
#586=DIRECTION('ref_axis',(-1.,-2.71926214689378E-32,-1.22464679914735E-16));
#587=DIRECTION('center_axis',(0.,1.,-2.22044604925031E-16));
#588=DIRECTION('ref_axis',(1.,0.,0.));
#589=DIRECTION('',(0.,-1.,2.22044604925031E-16));
#590=DIRECTION('center_axis',(0.,-1.,2.22044604925031E-16));
#591=DIRECTION('ref_axis',(1.,0.,0.));
#592=DIRECTION('center_axis',(0.,-1.,2.22044604925031E-16));
#593=DIRECTION('ref_axis',(1.,0.,0.));
#594=DIRECTION('center_axis',(0.,1.,-2.22044604925031E-16));
#595=DIRECTION('ref_axis',(1.,0.,0.));
#596=DIRECTION('center_axis',(0.,1.,-2.22044604925031E-16));
#597=DIRECTION('ref_axis',(1.,0.,0.));
#598=DIRECTION('center_axis',(0.,0.,-1.));
#599=DIRECTION('ref_axis',(1.,0.,0.));
#600=DIRECTION('',(-1.,0.,0.));
#601=DIRECTION('',(0.,-1.,0.));
#602=DIRECTION('',(1.,0.,0.));
#603=DIRECTION('',(0.,-1.,0.));
#604=DIRECTION('center_axis',(-1.,0.,0.));
#605=DIRECTION('ref_axis',(0.,0.,-1.));
#606=DIRECTION('',(0.,0.,1.));
#607=DIRECTION('',(0.,0.,-1.));
#608=DIRECTION('',(0.,-1.,0.));
#609=DIRECTION('center_axis',(0.,0.,1.));
#610=DIRECTION('ref_axis',(-1.,0.,0.));
#611=DIRECTION('',(1.,0.,0.));
#612=DIRECTION('',(-1.,0.,0.));
#613=DIRECTION('',(0.,-1.,0.));
#614=DIRECTION('center_axis',(1.,0.,0.));
#615=DIRECTION('ref_axis',(0.,0.,1.));
#616=DIRECTION('',(0.,0.,-1.));
#617=DIRECTION('',(0.,0.,1.));
#618=DIRECTION('center_axis',(0.,1.,0.));
#619=DIRECTION('ref_axis',(1.,0.,0.));
#620=DIRECTION('center_axis',(0.,-1.,0.));
#621=DIRECTION('ref_axis',(0.,0.,-1.));
#622=DIRECTION('center_axis',(0.,0.,-1.));
#623=DIRECTION('ref_axis',(1.,0.,0.));
#624=DIRECTION('',(-1.,0.,0.));
#625=DIRECTION('',(0.,-1.,0.));
#626=DIRECTION('',(1.,0.,0.));
#627=DIRECTION('',(0.,-1.,0.));
#628=DIRECTION('center_axis',(-1.,0.,0.));
#629=DIRECTION('ref_axis',(0.,0.,-1.));
#630=DIRECTION('',(0.,0.,1.));
#631=DIRECTION('',(0.,0.,-1.));
#632=DIRECTION('',(0.,-1.,0.));
#633=DIRECTION('center_axis',(0.,0.,1.));
#634=DIRECTION('ref_axis',(-1.,0.,0.));
#635=DIRECTION('',(1.,0.,0.));
#636=DIRECTION('',(-1.,0.,0.));
#637=DIRECTION('',(0.,-1.,0.));
#638=DIRECTION('center_axis',(1.,0.,0.));
#639=DIRECTION('ref_axis',(0.,0.,1.));
#640=DIRECTION('',(0.,0.,-1.));
#641=DIRECTION('',(0.,0.,1.));
#642=DIRECTION('center_axis',(0.,1.,0.));
#643=DIRECTION('ref_axis',(1.,0.,0.));
#644=DIRECTION('center_axis',(0.,-1.,0.));
#645=DIRECTION('ref_axis',(0.,0.,-1.));
#646=DIRECTION('center_axis',(0.,0.,-1.));
#647=DIRECTION('ref_axis',(1.,0.,0.));
#648=DIRECTION('',(-1.,0.,0.));
#649=DIRECTION('',(0.,-1.,0.));
#650=DIRECTION('',(1.,0.,0.));
#651=DIRECTION('',(0.,-1.,0.));
#652=DIRECTION('center_axis',(-1.,0.,0.));
#653=DIRECTION('ref_axis',(0.,0.,-1.));
#654=DIRECTION('',(0.,0.,1.));
#655=DIRECTION('',(0.,0.,-1.));
#656=DIRECTION('',(0.,-1.,0.));
#657=DIRECTION('center_axis',(0.,0.,1.));
#658=DIRECTION('ref_axis',(-1.,0.,0.));
#659=DIRECTION('',(1.,0.,0.));
#660=DIRECTION('',(-1.,0.,0.));
#661=DIRECTION('',(0.,-1.,0.));
#662=DIRECTION('center_axis',(1.,0.,0.));
#663=DIRECTION('ref_axis',(0.,0.,1.));
#664=DIRECTION('',(0.,0.,-1.));
#665=DIRECTION('',(0.,0.,1.));
#666=DIRECTION('center_axis',(0.,1.,0.));
#667=DIRECTION('ref_axis',(1.,0.,0.));
#668=DIRECTION('center_axis',(0.,-1.,0.));
#669=DIRECTION('ref_axis',(0.,0.,-1.));
#670=DIRECTION('center_axis',(1.,0.,0.));
#671=DIRECTION('ref_axis',(0.,0.,1.));
#672=DIRECTION('',(0.,0.,-1.));
#673=DIRECTION('',(0.,-1.,0.));
#674=DIRECTION('',(0.,0.,1.));
#675=DIRECTION('',(0.,-1.,0.));
#676=DIRECTION('center_axis',(0.,0.,-1.));
#677=DIRECTION('ref_axis',(1.,0.,0.));
#678=DIRECTION('',(-1.,0.,0.));
#679=DIRECTION('',(1.,0.,0.));
#680=DIRECTION('',(0.,-1.,0.));
#681=DIRECTION('center_axis',(-1.,0.,0.));
#682=DIRECTION('ref_axis',(0.,0.,-1.));
#683=DIRECTION('',(0.,0.,1.));
#684=DIRECTION('',(0.,0.,-1.));
#685=DIRECTION('',(0.,-1.,0.));
#686=DIRECTION('center_axis',(0.,0.,1.));
#687=DIRECTION('ref_axis',(-1.,0.,0.));
#688=DIRECTION('',(1.,0.,0.));
#689=DIRECTION('',(-1.,0.,0.));
#690=DIRECTION('center_axis',(0.,1.,0.));
#691=DIRECTION('ref_axis',(1.,0.,0.));
#692=DIRECTION('center_axis',(0.,-1.,0.));
#693=DIRECTION('ref_axis',(0.,0.,-1.));
#694=CARTESIAN_POINT('',(0.,0.,0.));
#695=CARTESIAN_POINT('Origin',(2.50000004470348,3.65,-3.00000004470348));
#696=CARTESIAN_POINT('',(2.50000004470348,4.65,-1.26095193266142));
#697=CARTESIAN_POINT('',(2.50000004470348,3.65,-1.26095193266142));
#698=CARTESIAN_POINT('',(2.50000004470348,4.15,-1.26095193266142));
#699=CARTESIAN_POINT('',(2.50000004470348,4.65,-1.0325074129014E-15));
#700=CARTESIAN_POINT('',(2.50000004470348,4.65,-1.50000002235174));
#701=CARTESIAN_POINT('',(2.50000004470348,4.65,1.26095193266142));
#702=CARTESIAN_POINT('',(2.50000004470348,4.65,-1.50000002235174));
#703=CARTESIAN_POINT('',(2.50000004470348,3.65,1.26095193266142));
#704=CARTESIAN_POINT('',(2.50000004470348,4.15,1.26095193266142));
#705=CARTESIAN_POINT('',(2.50000004470348,3.65,-1.50000002235174));
#706=CARTESIAN_POINT('Origin',(5.0388408068071E-32,3.65,-8.10462807976364E-16));
#707=CARTESIAN_POINT('Origin',(5.0388408068071E-32,3.65,-8.10462807976364E-16));
#708=CARTESIAN_POINT('Origin',(5.0388408068071E-32,4.15,-9.21485110438879E-16));
#709=CARTESIAN_POINT('Origin',(5.0388408068071E-32,4.65,-1.0325074129014E-15));
#710=CARTESIAN_POINT('Ctrl Pts',(5.0388408068071E-32,10.1,-2.5));
#711=CARTESIAN_POINT('Ctrl Pts',(-2.5,10.1,-2.5));
#712=CARTESIAN_POINT('Ctrl Pts',(-2.5,10.1,-2.24265050974282E-15));
#713=CARTESIAN_POINT('Ctrl Pts',(-2.5,10.1,2.5));
#714=CARTESIAN_POINT('Ctrl Pts',(5.0388408068071E-32,10.1,2.5));
#715=CARTESIAN_POINT('Ctrl Pts',(2.5,10.1,2.5));
#716=CARTESIAN_POINT('Ctrl Pts',(2.5,10.1,-2.24265050974282E-15));
#717=CARTESIAN_POINT('Ctrl Pts',(2.5,10.1,-2.5));
#718=CARTESIAN_POINT('Ctrl Pts',(5.0388408068071E-32,10.1,-2.5));
#719=CARTESIAN_POINT('Ctrl Pts',(5.0388408068071E-32,12.3,-2.5));
#720=CARTESIAN_POINT('Ctrl Pts',(-2.5,12.3,-2.5));
#721=CARTESIAN_POINT('Ctrl Pts',(-2.5,12.3,-2.73114864057788E-15));
#722=CARTESIAN_POINT('Ctrl Pts',(-2.5,12.3,2.5));
#723=CARTESIAN_POINT('Ctrl Pts',(5.0388408068071E-32,12.3,2.5));
#724=CARTESIAN_POINT('Ctrl Pts',(2.5,12.3,2.5));
#725=CARTESIAN_POINT('Ctrl Pts',(2.5,12.3,-2.73114864057788E-15));
#726=CARTESIAN_POINT('Ctrl Pts',(2.5,12.3,-2.5));
#727=CARTESIAN_POINT('Ctrl Pts',(5.0388408068071E-32,12.3,-2.5));
#728=CARTESIAN_POINT('Ctrl Pts',(5.0388408068071E-32,12.3,-0.300000000000003));
#729=CARTESIAN_POINT('Ctrl Pts',(-0.3,12.3,-0.300000000000003));
#730=CARTESIAN_POINT('Ctrl Pts',(-0.3,12.3,-2.73114864057788E-15));
#731=CARTESIAN_POINT('Ctrl Pts',(-0.3,12.3,0.299999999999998));
#732=CARTESIAN_POINT('Ctrl Pts',(5.0388408068071E-32,12.3,0.299999999999998));
#733=CARTESIAN_POINT('Ctrl Pts',(0.3,12.3,0.299999999999998));
#734=CARTESIAN_POINT('Ctrl Pts',(0.3,12.3,-2.73114864057788E-15));
#735=CARTESIAN_POINT('Ctrl Pts',(0.3,12.3,-0.300000000000003));
#736=CARTESIAN_POINT('Ctrl Pts',(5.0388408068071E-32,12.3,-0.300000000000003));
#737=CARTESIAN_POINT('',(0.3,12.3,-2.65766983262904E-15));
#738=CARTESIAN_POINT('',(-3.67394039744205E-17,12.3,-0.300000000000002));
#739=CARTESIAN_POINT('Origin',(5.0388408068071E-32,12.3,-2.73114864057788E-15));
#740=CARTESIAN_POINT('',(-3.06161699786838E-16,10.1,-2.5));
#741=CARTESIAN_POINT('Origin',(-3.67394039744205E-17,10.1,-0.300000000000002));
#742=CARTESIAN_POINT('',(-2.5,10.1,-1.93648880995598E-15));
#743=CARTESIAN_POINT('Origin',(5.0388408068071E-32,10.1,-2.24265050974282E-15));
#744=CARTESIAN_POINT('',(2.5,10.1,-2.24265050974282E-15));
#745=CARTESIAN_POINT('Origin',(5.0388408068071E-32,10.1,-2.24265050974282E-15));
#746=CARTESIAN_POINT('Origin',(5.0388408068071E-32,10.1,-2.24265050974282E-15));
#747=CARTESIAN_POINT('Origin',(5.0388408068071E-32,12.3,-2.73114864057788E-15));
#748=CARTESIAN_POINT('Origin',(5.0388408068071E-32,7.975,-1.77080572427712E-15));
#749=CARTESIAN_POINT('',(-2.5,4.65,-7.26345713114556E-16));
#750=CARTESIAN_POINT('',(-2.5,7.975,-1.46464402449029E-15));
#751=CARTESIAN_POINT('Origin',(5.0388408068071E-32,4.65,-1.0325074129014E-15));
#752=CARTESIAN_POINT('Origin',(5.0388408068071E-32,4.65,-1.0325074129014E-15));
#753=CARTESIAN_POINT('Origin',(5.0388408068071E-32,12.3,-2.73114864057788E-15));
#754=CARTESIAN_POINT('Origin',(5.0388408068071E-32,4.65,-1.0325074129014E-15));
#755=CARTESIAN_POINT('Origin',(-1.51999994039536,3.65,-0.250000000000001));
#756=CARTESIAN_POINT('',(-1.01999994039536,3.65,-0.250000000000001));
#757=CARTESIAN_POINT('',(-1.51999994039536,3.65,-0.250000000000001));
#758=CARTESIAN_POINT('',(-1.01999994039536,3.65,-0.250000000000001));
#759=CARTESIAN_POINT('',(-1.01999994039536,-2.,-0.250000000000001));
#760=CARTESIAN_POINT('',(-1.01999994039536,3.65,-0.250000000000001));
#761=CARTESIAN_POINT('',(-1.51999994039536,-2.,-0.250000000000001));
#762=CARTESIAN_POINT('',(-1.01999994039536,-2.,-0.250000000000001));
#763=CARTESIAN_POINT('',(-1.51999994039536,3.65,-0.250000000000001));
#764=CARTESIAN_POINT('Origin',(-1.51999994039536,3.65,0.249999999999999));
#765=CARTESIAN_POINT('',(-1.51999994039536,3.65,0.249999999999999));
#766=CARTESIAN_POINT('',(-1.51999994039536,3.65,-0.250000000000001));
#767=CARTESIAN_POINT('',(-1.51999994039536,-2.,0.249999999999999));
#768=CARTESIAN_POINT('',(-1.51999994039536,-2.,-0.250000000000001));
#769=CARTESIAN_POINT('',(-1.51999994039536,3.65,0.249999999999999));
#770=CARTESIAN_POINT('Origin',(-1.01999994039536,3.65,0.249999999999999));
#771=CARTESIAN_POINT('',(-1.01999994039536,3.65,0.249999999999999));
#772=CARTESIAN_POINT('',(-1.51999994039536,3.65,0.249999999999999));
#773=CARTESIAN_POINT('',(-1.01999994039536,-2.,0.249999999999999));
#774=CARTESIAN_POINT('',(-1.51999994039536,-2.,0.249999999999999));
#775=CARTESIAN_POINT('',(-1.01999994039536,3.65,0.249999999999999));
#776=CARTESIAN_POINT('Origin',(-1.01999994039536,3.65,-0.250000000000001));
#777=CARTESIAN_POINT('',(-1.01999994039536,3.65,0.249999999999999));
#778=CARTESIAN_POINT('',(-1.01999994039536,-2.,0.249999999999999));
#779=CARTESIAN_POINT('Origin',(-1.26999994039536,3.65,-8.10462807976364E-16));
#780=CARTESIAN_POINT('Origin',(-1.26999994039536,-2.,-8.10462807976364E-16));
#781=CARTESIAN_POINT('Origin',(1.02000005960464,3.65,-0.250000000000001));
#782=CARTESIAN_POINT('',(1.52000005960464,3.65,-0.250000000000001));
#783=CARTESIAN_POINT('',(1.02000005960464,3.65,-0.250000000000001));
#784=CARTESIAN_POINT('',(1.52000005960464,3.65,-0.250000000000001));
#785=CARTESIAN_POINT('',(1.52000005960464,-2.,-0.250000000000001));
#786=CARTESIAN_POINT('',(1.52000005960464,3.65,-0.250000000000001));
#787=CARTESIAN_POINT('',(1.02000005960464,-2.,-0.250000000000001));
#788=CARTESIAN_POINT('',(1.52000005960464,-2.,-0.250000000000001));
#789=CARTESIAN_POINT('',(1.02000005960464,3.65,-0.250000000000001));
#790=CARTESIAN_POINT('Origin',(1.02000005960464,3.65,0.249999999999999));
#791=CARTESIAN_POINT('',(1.02000005960464,3.65,0.249999999999999));
#792=CARTESIAN_POINT('',(1.02000005960464,3.65,-0.250000000000001));
#793=CARTESIAN_POINT('',(1.02000005960464,-2.,0.249999999999999));
#794=CARTESIAN_POINT('',(1.02000005960464,-2.,-0.250000000000001));
#795=CARTESIAN_POINT('',(1.02000005960464,3.65,0.249999999999999));
#796=CARTESIAN_POINT('Origin',(1.52000005960464,3.65,0.249999999999999));
#797=CARTESIAN_POINT('',(1.52000005960464,3.65,0.249999999999999));
#798=CARTESIAN_POINT('',(1.02000005960464,3.65,0.249999999999999));
#799=CARTESIAN_POINT('',(1.52000005960464,-2.,0.249999999999999));
#800=CARTESIAN_POINT('',(1.02000005960464,-2.,0.249999999999999));
#801=CARTESIAN_POINT('',(1.52000005960464,3.65,0.249999999999999));
#802=CARTESIAN_POINT('Origin',(1.52000005960464,3.65,-0.250000000000001));
#803=CARTESIAN_POINT('',(1.52000005960464,3.65,0.249999999999999));
#804=CARTESIAN_POINT('',(1.52000005960464,-2.,0.249999999999999));
#805=CARTESIAN_POINT('Origin',(1.27000005960464,3.65,-8.10462807976364E-16));
#806=CARTESIAN_POINT('Origin',(1.27000005960464,-2.,-8.10462807976364E-16));
#807=CARTESIAN_POINT('Origin',(0.969977533769589,1.25,-0.250000000000001));
#808=CARTESIAN_POINT('',(1.56997753376959,1.25,-0.250000000000001));
#809=CARTESIAN_POINT('',(0.969977533769589,1.25,-0.250000000000001));
#810=CARTESIAN_POINT('',(1.56997753376959,1.25,-0.250000000000001));
#811=CARTESIAN_POINT('',(1.56997753376959,0.,-0.250000000000001));
#812=CARTESIAN_POINT('',(1.56997753376959,1.25,-0.250000000000001));
#813=CARTESIAN_POINT('',(0.969977533769589,0.,-0.250000000000001));
#814=CARTESIAN_POINT('',(1.56997753376959,0.,-0.250000000000001));
#815=CARTESIAN_POINT('',(0.969977533769589,1.25,-0.250000000000001));
#816=CARTESIAN_POINT('Origin',(0.969977533769589,1.25,0.249999999999999));
#817=CARTESIAN_POINT('',(0.969977533769589,1.25,0.249999999999999));
#818=CARTESIAN_POINT('',(0.969977533769589,1.25,-0.250000000000001));
#819=CARTESIAN_POINT('',(0.969977533769589,0.,0.249999999999999));
#820=CARTESIAN_POINT('',(0.969977533769589,0.,-0.250000000000001));
#821=CARTESIAN_POINT('',(0.969977533769589,1.25,0.249999999999999));
#822=CARTESIAN_POINT('Origin',(1.56997753376959,1.25,0.249999999999999));
#823=CARTESIAN_POINT('',(1.56997753376959,1.25,0.249999999999999));
#824=CARTESIAN_POINT('',(0.969977533769589,1.25,0.249999999999999));
#825=CARTESIAN_POINT('',(1.56997753376959,0.,0.249999999999999));
#826=CARTESIAN_POINT('',(0.969977533769589,0.,0.249999999999999));
#827=CARTESIAN_POINT('',(1.56997753376959,1.25,0.249999999999999));
#828=CARTESIAN_POINT('Origin',(1.56997753376959,1.25,-0.250000000000001));
#829=CARTESIAN_POINT('',(1.56997753376959,1.25,0.249999999999999));
#830=CARTESIAN_POINT('',(1.56997753376959,0.,0.249999999999999));
#831=CARTESIAN_POINT('Origin',(1.26997753376959,1.25,-8.10462807976364E-16));
#832=CARTESIAN_POINT('Origin',(1.26997753376959,0.,-8.10462807976364E-16));
#833=CARTESIAN_POINT('Origin',(-0.970022466230411,1.25,-0.250000000000001));
#834=CARTESIAN_POINT('',(-0.970022466230411,1.25,0.249999999999999));
#835=CARTESIAN_POINT('',(-0.970022466230411,1.25,-0.250000000000001));
#836=CARTESIAN_POINT('',(-0.970022466230411,1.25,0.249999999999999));
#837=CARTESIAN_POINT('',(-0.970022466230411,0.,0.249999999999999));
#838=CARTESIAN_POINT('',(-0.970022466230411,1.25,0.249999999999999));
#839=CARTESIAN_POINT('',(-0.970022466230411,0.,-0.250000000000001));
#840=CARTESIAN_POINT('',(-0.970022466230411,0.,0.249999999999999));
#841=CARTESIAN_POINT('',(-0.970022466230411,1.25,-0.250000000000001));
#842=CARTESIAN_POINT('Origin',(-1.57002246623041,1.25,-0.250000000000001));
#843=CARTESIAN_POINT('',(-1.57002246623041,1.25,-0.250000000000001));
#844=CARTESIAN_POINT('',(-0.970022466230411,1.25,-0.250000000000001));
#845=CARTESIAN_POINT('',(-1.57002246623041,0.,-0.250000000000001));
#846=CARTESIAN_POINT('',(-0.970022466230411,0.,-0.250000000000001));
#847=CARTESIAN_POINT('',(-1.57002246623041,1.25,-0.250000000000001));
#848=CARTESIAN_POINT('Origin',(-1.57002246623041,1.25,0.249999999999999));
#849=CARTESIAN_POINT('',(-1.57002246623041,1.25,0.249999999999999));
#850=CARTESIAN_POINT('',(-1.57002246623041,1.25,-0.250000000000001));
#851=CARTESIAN_POINT('',(-1.57002246623041,0.,0.249999999999999));
#852=CARTESIAN_POINT('',(-1.57002246623041,0.,-0.250000000000001));
#853=CARTESIAN_POINT('',(-1.57002246623041,1.25,0.249999999999999));
#854=CARTESIAN_POINT('Origin',(-0.970022466230411,1.25,0.249999999999999));
#855=CARTESIAN_POINT('',(-1.57002246623041,1.25,0.249999999999999));
#856=CARTESIAN_POINT('',(-1.57002246623041,0.,0.249999999999999));
#857=CARTESIAN_POINT('Origin',(-1.27002246623041,1.25,-8.10462807976364E-16));
#858=CARTESIAN_POINT('Origin',(-1.27002246623041,0.,-8.10462807976364E-16));
#859=UNCERTAINTY_MEASURE_WITH_UNIT(LENGTH_MEASURE(0.01),#863,
'DISTANCE_ACCURACY_VALUE',
'Maximum model space distance between geometric entities at asserted c
onnectivities');
#860=UNCERTAINTY_MEASURE_WITH_UNIT(LENGTH_MEASURE(0.01),#863,
'DISTANCE_ACCURACY_VALUE',
'Maximum model space distance between geometric entities at asserted c
onnectivities');
#861=(
GEOMETRIC_REPRESENTATION_CONTEXT(3)
GLOBAL_UNCERTAINTY_ASSIGNED_CONTEXT((#859))
GLOBAL_UNIT_ASSIGNED_CONTEXT((#863,#865,#866))
REPRESENTATION_CONTEXT('','3D')
);
#862=(
GEOMETRIC_REPRESENTATION_CONTEXT(3)
GLOBAL_UNCERTAINTY_ASSIGNED_CONTEXT((#860))
GLOBAL_UNIT_ASSIGNED_CONTEXT((#863,#865,#866))
REPRESENTATION_CONTEXT('','3D')
);
#863=(
LENGTH_UNIT()
NAMED_UNIT(*)
SI_UNIT(.MILLI.,.METRE.)
);
#864=(
LENGTH_UNIT()
NAMED_UNIT(*)
SI_UNIT($,.METRE.)
);
#865=(
NAMED_UNIT(*)
PLANE_ANGLE_UNIT()
SI_UNIT($,.RADIAN.)
);
#866=(
NAMED_UNIT(*)
SI_UNIT($,.STERADIAN.)
SOLID_ANGLE_UNIT()
);
#867=SHAPE_DEFINITION_REPRESENTATION(#868,#869);
#868=PRODUCT_DEFINITION_SHAPE('',$,#871);
#869=SHAPE_REPRESENTATION('',(#517),#861);
#870=PRODUCT_DEFINITION_CONTEXT('part definition',#875,'design');
#871=PRODUCT_DEFINITION('LED 5mm Red','LED 5mm Red v5',#872,#870);
#872=PRODUCT_DEFINITION_FORMATION('',$,#877);
#873=PRODUCT_RELATED_PRODUCT_CATEGORY('LED 5mm Red v5','LED 5mm Red v5',
(#877));
#874=APPLICATION_PROTOCOL_DEFINITION('international standard',
'automotive_design',2009,#875);
#875=APPLICATION_CONTEXT(
'Core Data for Automotive Mechanical Design Process');
#876=PRODUCT_CONTEXT('part definition',#875,'mechanical');
#877=PRODUCT('LED 5mm Red','LED 5mm Red v5',$,(#876));
#878=PRESENTATION_STYLE_ASSIGNMENT((#880));
#879=PRESENTATION_STYLE_ASSIGNMENT((#881));
#880=SURFACE_STYLE_USAGE(.BOTH.,#882);
#881=SURFACE_STYLE_USAGE(.BOTH.,#883);
#882=SURFACE_SIDE_STYLE('',(#884));
#883=SURFACE_SIDE_STYLE('',(#885));
#884=SURFACE_STYLE_FILL_AREA(#886);
#885=SURFACE_STYLE_FILL_AREA(#887);
#886=FILL_AREA_STYLE('Steel - Satin',(#888));
#887=FILL_AREA_STYLE('Plastic - Translucent Matte (Red)',(#889));
#888=FILL_AREA_STYLE_COLOUR('Steel - Satin',#890);
#889=FILL_AREA_STYLE_COLOUR('Plastic - Translucent Matte (Red)',#891);
#890=COLOUR_RGB('Steel - Satin',0.627450980392157,0.627450980392157,0.627450980392157);
#891=COLOUR_RGB('Plastic - Translucent Matte (Red)',0.905882352941176,0.12156862745098,
0.0509803921568627);
ENDSEC;
END-ISO-10303-21;
