EESchema Schematic File Version 4
EELAYER 30 0
EELAYER END
$Descr A4 11693 8268
encoding utf-8
Sheet 1 1
Title ""
Date ""
Rev ""
Comp ""
Comment1 ""
Comment2 ""
Comment3 ""
Comment4 ""
$EndDescr
$Comp
L power:GND #PWR01
U 1 1 5F62CE95
P 3000 3800
F 0 "#PWR01" H 3000 3550 50  0001 C CNN
F 1 "GND" H 3005 3627 50  0000 C CNN
F 2 "" H 3000 3800 50  0001 C CNN
F 3 "" H 3000 3800 50  0001 C CNN
	1    3000 3800
	1    0    0    -1  
$EndComp
Wire Wire Line
	2900 3700 2900 3750
Wire Wire Line
	2900 3750 3000 3750
Wire Wire Line
	3000 3750 3000 3800
Wire Wire Line
	3000 3700 3000 3750
Connection ~ 3000 3750
Wire Wire Line
	3100 3700 3100 3750
Wire Wire Line
	3100 3750 3000 3750
$Comp
L Device:LED D1
U 1 1 5F62DE4B
P 4500 1750
F 0 "D1" V 4500 1700 50  0000 R CNN
F 1 "LED/GRE" H 4650 1900 50  0000 R CNN
F 2 "LED_THT:LED_D5.0mm" H 4500 1750 50  0001 C CNN
F 3 "~" H 4500 1750 50  0001 C CNN
	1    4500 1750
	0    -1   -1   0   
$EndComp
Wire Notes Line
	1350 4300 4000 4300
Wire Notes Line
	1350 950  1350 4300
Wire Notes Line
	1350 950  4000 950 
Wire Notes Line
	4000 950  4000 4300
Text Notes 2400 1100 0    50   ~ 0
ARDUINO UNO\n
$Comp
L Device:LED D2
U 1 1 5F636C20
P 5250 1750
F 0 "D2" V 5250 1700 50  0000 R CNN
F 1 "LED/GRE" H 5400 1850 50  0000 R CNN
F 2 "LED_THT:LED_D5.0mm" H 5250 1750 50  0001 C CNN
F 3 "~" H 5250 1750 50  0001 C CNN
	1    5250 1750
	0    -1   -1   0   
$EndComp
$Comp
L Device:LED D3
U 1 1 5F636F9F
P 4900 1750
F 0 "D3" V 4900 1700 50  0000 R CNN
F 1 "LED/GRE" H 5050 1850 50  0000 R CNN
F 2 "LED_THT:LED_D5.0mm" H 4900 1750 50  0001 C CNN
F 3 "~" H 4900 1750 50  0001 C CNN
	1    4900 1750
	0    -1   -1   0   
$EndComp
$Comp
L Device:R R3
U 1 1 5F637358
P 4500 2250
F 0 "R3" H 4570 2296 50  0000 L CNN
F 1 "330" H 4570 2205 50  0000 L CNN
F 2 "Resistor_THT:R_Axial_DIN0207_L6.3mm_D2.5mm_P7.62mm_Horizontal" V 4430 2250 50  0001 C CNN
F 3 "~" H 4500 2250 50  0001 C CNN
	1    4500 2250
	1    0    0    -1  
$EndComp
$Comp
L Device:R R4
U 1 1 5F637962
P 4900 2250
F 0 "R4" H 4970 2296 50  0000 L CNN
F 1 "330" H 4970 2205 50  0000 L CNN
F 2 "Resistor_THT:R_Axial_DIN0207_L6.3mm_D2.5mm_P7.62mm_Horizontal" V 4830 2250 50  0001 C CNN
F 3 "~" H 4900 2250 50  0001 C CNN
	1    4900 2250
	1    0    0    -1  
$EndComp
$Comp
L Device:R R5
U 1 1 5F637BAE
P 5250 2250
F 0 "R5" H 5320 2296 50  0000 L CNN
F 1 "330" H 5320 2205 50  0000 L CNN
F 2 "Resistor_THT:R_Axial_DIN0207_L6.3mm_D2.5mm_P7.62mm_Horizontal" V 5180 2250 50  0001 C CNN
F 3 "~" H 5250 2250 50  0001 C CNN
	1    5250 2250
	1    0    0    -1  
$EndComp
Wire Wire Line
	4500 1900 4500 2100
Wire Wire Line
	4900 1900 4900 2100
Wire Wire Line
	5250 1900 5250 2100
Text GLabel 3600 2600 2    50   Input ~ 0
LED1
Wire Wire Line
	3500 2600 3600 2600
Text GLabel 5250 2450 3    50   Input ~ 0
LED3
Text GLabel 4900 2450 3    50   Input ~ 0
LED2
Text GLabel 4500 2450 3    50   Input ~ 0
LED1
Wire Notes Line
	5900 2800 5900 950 
Wire Notes Line
	4250 950  4250 2800
Text Notes 4650 1050 0    50   ~ 0
LEDS ON/OFF\n
$Comp
L Device:LED D4
U 1 1 5F6445B6
P 5600 1750
F 0 "D4" V 5600 1700 50  0000 R CNN
F 1 "LED/GRE" H 5750 1850 50  0000 R CNN
F 2 "LED_THT:LED_D5.0mm" H 5600 1750 50  0001 C CNN
F 3 "~" H 5600 1750 50  0001 C CNN
	1    5600 1750
	0    -1   -1   0   
$EndComp
$Comp
L Device:R R14
U 1 1 5F6445C8
P 6500 2150
F 0 "R14" H 6570 2196 50  0000 L CNN
F 1 "220" H 6570 2105 50  0000 L CNN
F 2 "Resistor_THT:R_Axial_DIN0207_L6.3mm_D2.5mm_P7.62mm_Horizontal" V 6430 2150 50  0001 C CNN
F 3 "~" H 6500 2150 50  0001 C CNN
	1    6500 2150
	1    0    0    -1  
$EndComp
$Comp
L Device:R R15
U 1 1 5F6445CE
P 5600 2250
F 0 "R15" H 5670 2296 50  0000 L CNN
F 1 "330" H 5670 2205 50  0000 L CNN
F 2 "Resistor_THT:R_Axial_DIN0207_L6.3mm_D2.5mm_P7.62mm_Horizontal" V 5530 2250 50  0001 C CNN
F 3 "~" H 5600 2250 50  0001 C CNN
	1    5600 2250
	1    0    0    -1  
$EndComp
Text GLabel 6500 2400 3    50   Input ~ 0
PWM1
Text GLabel 5600 2450 3    50   Input ~ 0
LED4
Wire Notes Line
	7000 2800 7000 950 
Wire Notes Line
	6050 950  6050 2800
Text Notes 6350 1050 0    50   ~ 0
LED PWM\n
Text GLabel 2400 2700 0    50   Input ~ 0
LED4
Text GLabel 2400 2600 0    50   Input ~ 0
PWM1
Wire Notes Line
	6050 950  7000 950 
Wire Notes Line
	7000 2800 6050 2800
$Comp
L Device:R R13
U 1 1 5F652353
P 1600 5750
F 0 "R13" H 1670 5796 50  0000 L CNN
F 1 "10K" H 1670 5705 50  0000 L CNN
F 2 "Resistor_THT:R_Axial_DIN0207_L6.3mm_D2.5mm_P7.62mm_Horizontal" V 1530 5750 50  0001 C CNN
F 3 "~" H 1600 5750 50  0001 C CNN
	1    1600 5750
	1    0    0    -1  
$EndComp
$Comp
L power:GND #PWR022
U 1 1 5F652368
P 2250 6050
F 0 "#PWR022" H 2250 5800 50  0001 C CNN
F 1 "GND" H 2255 5877 50  0000 C CNN
F 2 "" H 2250 6050 50  0001 C CNN
F 3 "" H 2250 6050 50  0001 C CNN
	1    2250 6050
	1    0    0    -1  
$EndComp
Wire Wire Line
	1600 5900 1600 6000
Wire Notes Line
	1350 4450 1350 6300
Text Notes 2700 4550 0    50   ~ 0
ADC\n
$Comp
L Sensor_Optical:LDR03 R12
U 1 1 5F653CBC
P 1600 5250
F 0 "R12" H 1670 5296 50  0000 L CNN
F 1 "LDR03" H 1670 5205 50  0000 L CNN
F 2 "shield:ldr_4mm" V 1775 5250 50  0001 C CNN
F 3 "http://www.elektronica-componenten.nl/WebRoot/StoreNL/Shops/61422969/54F1/BA0C/C664/31B9/2173/C0A8/2AB9/2AEF/LDR03IMP.pdf" H 1600 5200 50  0001 C CNN
	1    1600 5250
	1    0    0    -1  
$EndComp
Wire Wire Line
	1600 5400 1600 5500
$Comp
L power:+5V #PWR02
U 1 1 5F62AB7B
P 3200 1350
F 0 "#PWR02" H 3200 1200 50  0001 C CNN
F 1 "+5V" H 3215 1523 50  0000 C CNN
F 2 "" H 3200 1350 50  0001 C CNN
F 3 "" H 3200 1350 50  0001 C CNN
	1    3200 1350
	1    0    0    -1  
$EndComp
Text GLabel 3700 5500 2    50   Input ~ 0
ADC1
Wire Wire Line
	1650 5500 1600 5500
Connection ~ 1600 5500
Wire Wire Line
	1600 5500 1600 5600
$Comp
L power:+5V #PWR021
U 1 1 5F65F373
P 2250 4800
F 0 "#PWR021" H 2250 4650 50  0001 C CNN
F 1 "+5V" H 2265 4973 50  0000 C CNN
F 2 "" H 2250 4800 50  0001 C CNN
F 3 "" H 2250 4800 50  0001 C CNN
	1    2250 4800
	1    0    0    -1  
$EndComp
$Comp
L Device:R_POT RV1
U 1 1 5F65FFA5
P 2250 5500
F 0 "RV1" H 2150 5450 50  0000 R CNN
F 1 "10K" H 2150 5550 50  0000 R CNN
F 2 "Potentiometer_THT:Potentiometer_Runtron_RM-065_Vertical" H 2250 5500 50  0001 C CNN
F 3 "~" H 2250 5500 50  0001 C CNN
	1    2250 5500
	1    0    0    -1  
$EndComp
Wire Wire Line
	1600 4900 1600 5100
Wire Wire Line
	2250 4900 2250 5350
Text GLabel 2450 5500 2    50   Input ~ 0
ADC2
Wire Wire Line
	2450 5500 2400 5500
$Comp
L Sensor_Temperature:LM35-LP U1
U 1 1 5F6739DF
P 3200 5500
F 0 "U1" H 2900 5850 50  0000 R CNN
F 1 "LM35-LP" H 3000 5750 50  0000 R CNN
F 2 "Package_TO_SOT_THT:TO-92L_Inline_Wide" H 3250 5250 50  0001 L CNN
F 3 "http://www.ti.com/lit/ds/symlink/lm35.pdf" H 3200 5500 50  0001 C CNN
	1    3200 5500
	1    0    0    -1  
$EndComp
Wire Wire Line
	1600 4900 2250 4900
Wire Wire Line
	3200 4900 2250 4900
Connection ~ 2250 4900
Wire Wire Line
	3200 4900 3200 5200
Wire Wire Line
	3200 5800 3200 6000
Text GLabel 1650 5500 2    50   Input ~ 0
ADC3
Wire Wire Line
	3600 5500 3700 5500
Wire Wire Line
	1600 6000 2250 6000
Wire Wire Line
	2250 5650 2250 6000
Connection ~ 2250 6000
Wire Wire Line
	2250 6000 3200 6000
Wire Wire Line
	2250 6050 2250 6000
Text GLabel 3600 2700 2    50   Input ~ 0
ADC1
Text GLabel 3600 2900 2    50   Input ~ 0
ADC2
Text GLabel 3600 2800 2    50   Input ~ 0
ADC3
Wire Wire Line
	3500 2700 3600 2700
Wire Wire Line
	3500 2900 3600 2900
Wire Wire Line
	3500 2800 3600 2800
Wire Wire Line
	2250 4800 2250 4900
Wire Notes Line
	7150 950  7150 2800
Text Notes 8800 1050 0    50   ~ 0
PULSADORES\n
Wire Notes Line
	4250 4850 5550 4850
Wire Notes Line
	5550 4850 5550 3000
Wire Notes Line
	5550 3000 4250 3000
Wire Notes Line
	4250 3000 4250 4850
Text Notes 4550 3100 0    50   ~ 0
UART (BLUETOOTH)\n
Wire Notes Line
	5950 4850 7250 4850
Wire Notes Line
	7250 4850 7250 3000
Wire Notes Line
	7250 3000 5950 3000
Wire Notes Line
	5950 3000 5950 4850
Text Notes 6300 3100 0    50   ~ 0
I2C (MPU6050)
Wire Notes Line
	7650 4850 8950 4850
Wire Notes Line
	8950 4850 8950 3000
Wire Notes Line
	8950 3000 7650 3000
Wire Notes Line
	7650 3000 7650 4850
Text Notes 8100 3100 0    50   ~ 0
I2C (LCD)
$Comp
L Device:R R7
U 1 1 5F6B3713
P 7800 1650
F 0 "R7" H 7870 1696 50  0000 L CNN
F 1 "10K" H 7870 1605 50  0000 L CNN
F 2 "Resistor_THT:R_Axial_DIN0207_L6.3mm_D2.5mm_P7.62mm_Horizontal" V 7730 1650 50  0001 C CNN
F 3 "~" H 7800 1650 50  0001 C CNN
	1    7800 1650
	1    0    0    -1  
$EndComp
$Comp
L Device:C C1
U 1 1 5F6B3DF3
P 7800 2200
F 0 "C1" H 7915 2246 50  0000 L CNN
F 1 "0.1u" H 7915 2155 50  0000 L CNN
F 2 "Capacitor_THT:C_Disc_D6.0mm_W2.5mm_P5.00mm" H 7838 2050 50  0001 C CNN
F 3 "~" H 7800 2200 50  0001 C CNN
	1    7800 2200
	1    0    0    -1  
$EndComp
$Comp
L power:GND #PWR015
U 1 1 5F6B454F
P 8100 2550
F 0 "#PWR015" H 8100 2300 50  0001 C CNN
F 1 "GND" H 8105 2377 50  0000 C CNN
F 2 "" H 8100 2550 50  0001 C CNN
F 3 "" H 8100 2550 50  0001 C CNN
	1    8100 2550
	1    0    0    -1  
$EndComp
$Comp
L Device:R R6
U 1 1 5F6B6BC9
P 7600 1950
F 0 "R6" V 7393 1950 50  0000 C CNN
F 1 "1K" V 7484 1950 50  0000 C CNN
F 2 "Resistor_THT:R_Axial_DIN0207_L6.3mm_D2.5mm_P7.62mm_Horizontal" V 7530 1950 50  0001 C CNN
F 3 "~" H 7600 1950 50  0001 C CNN
	1    7600 1950
	0    1    1    0   
$EndComp
Text GLabel 7400 1900 1    50   Input ~ 0
PUSH1(int)
Wire Wire Line
	7800 1400 7800 1500
Wire Wire Line
	7800 1800 7800 1950
Wire Wire Line
	4500 2400 4500 2450
$Comp
L power:+5V #PWR010
U 1 1 5F6D2769
P 5050 1350
F 0 "#PWR010" H 5050 1200 50  0001 C CNN
F 1 "+5V" H 5065 1523 50  0000 C CNN
F 2 "" H 5050 1350 50  0001 C CNN
F 3 "" H 5050 1350 50  0001 C CNN
	1    5050 1350
	1    0    0    -1  
$EndComp
Wire Wire Line
	4500 1450 4500 1600
Wire Wire Line
	4900 1450 4900 1600
Wire Wire Line
	5250 1450 5250 1600
Wire Wire Line
	7400 1900 7400 1950
Wire Wire Line
	7400 1950 7450 1950
Wire Wire Line
	7750 1950 7800 1950
Connection ~ 7800 1950
Wire Wire Line
	7800 1950 7800 2050
Wire Wire Line
	7800 2350 7800 2450
Wire Wire Line
	7800 2450 8100 2450
Wire Wire Line
	8100 2450 8100 2550
$Comp
L Switch:SW_Push SW1
U 1 1 5F6EC8F7
P 8100 1950
F 0 "SW1" H 8250 1800 50  0000 C CNN
F 1 "SW_Push" H 8200 1900 50  0000 C CNN
F 2 "Button_Switch_THT:SW_PUSH_6mm_H5mm" H 8100 2150 50  0001 C CNN
F 3 "~" H 8100 2150 50  0001 C CNN
	1    8100 1950
	1    0    0    -1  
$EndComp
Wire Wire Line
	7900 1950 7800 1950
Wire Wire Line
	8300 1950 8400 1950
Wire Wire Line
	8400 1950 8400 2450
Connection ~ 8100 2450
Wire Wire Line
	8100 2450 8400 2450
$Comp
L Device:R R9
U 1 1 5F703D36
P 8900 1650
F 0 "R9" H 8970 1696 50  0000 L CNN
F 1 "10K" H 8970 1605 50  0000 L CNN
F 2 "Resistor_THT:R_Axial_DIN0207_L6.3mm_D2.5mm_P7.62mm_Horizontal" V 8830 1650 50  0001 C CNN
F 3 "~" H 8900 1650 50  0001 C CNN
	1    8900 1650
	1    0    0    -1  
$EndComp
$Comp
L Device:C C2
U 1 1 5F703D3C
P 8900 2200
F 0 "C2" H 9015 2246 50  0000 L CNN
F 1 "0.1u" H 9015 2155 50  0000 L CNN
F 2 "Capacitor_THT:C_Disc_D6.0mm_W2.5mm_P5.00mm" H 8938 2050 50  0001 C CNN
F 3 "~" H 8900 2200 50  0001 C CNN
	1    8900 2200
	1    0    0    -1  
$EndComp
$Comp
L power:GND #PWR018
U 1 1 5F703D42
P 9200 2550
F 0 "#PWR018" H 9200 2300 50  0001 C CNN
F 1 "GND" H 9205 2377 50  0000 C CNN
F 2 "" H 9200 2550 50  0001 C CNN
F 3 "" H 9200 2550 50  0001 C CNN
	1    9200 2550
	1    0    0    -1  
$EndComp
$Comp
L Device:R R8
U 1 1 5F703D48
P 8700 1950
F 0 "R8" V 8493 1950 50  0000 C CNN
F 1 "1K" V 8584 1950 50  0000 C CNN
F 2 "Resistor_THT:R_Axial_DIN0207_L6.3mm_D2.5mm_P7.62mm_Horizontal" V 8630 1950 50  0001 C CNN
F 3 "~" H 8700 1950 50  0001 C CNN
	1    8700 1950
	0    1    1    0   
$EndComp
Text GLabel 8500 1900 1    50   Input ~ 0
PUSH2
$Comp
L power:+5V #PWR016
U 1 1 5F703D4F
P 8900 1300
F 0 "#PWR016" H 8900 1150 50  0001 C CNN
F 1 "+5V" H 8915 1473 50  0000 C CNN
F 2 "" H 8900 1300 50  0001 C CNN
F 3 "" H 8900 1300 50  0001 C CNN
	1    8900 1300
	1    0    0    -1  
$EndComp
Wire Wire Line
	8900 1400 8900 1500
Wire Wire Line
	8900 1800 8900 1950
Wire Wire Line
	8500 1900 8500 1950
Wire Wire Line
	8500 1950 8550 1950
Wire Wire Line
	8850 1950 8900 1950
Connection ~ 8900 1950
Wire Wire Line
	8900 1950 8900 2050
Wire Wire Line
	8900 2350 8900 2450
Wire Wire Line
	8900 2450 9200 2450
Wire Wire Line
	9200 2450 9200 2550
$Comp
L Switch:SW_Push SW2
U 1 1 5F703D5F
P 9200 1950
F 0 "SW2" H 9350 1800 50  0000 C CNN
F 1 "SW_Push" H 9300 1900 50  0000 C CNN
F 2 "Button_Switch_THT:SW_PUSH_6mm_H5mm" H 9200 2150 50  0001 C CNN
F 3 "~" H 9200 2150 50  0001 C CNN
	1    9200 1950
	1    0    0    -1  
$EndComp
Wire Wire Line
	9000 1950 8900 1950
Wire Wire Line
	9400 1950 9500 1950
Wire Wire Line
	9500 1950 9500 2450
Connection ~ 9200 2450
Wire Wire Line
	9200 2450 9500 2450
$Comp
L Device:R R11
U 1 1 5F708A6C
P 10050 1650
F 0 "R11" H 10120 1696 50  0000 L CNN
F 1 "10K" H 10120 1605 50  0000 L CNN
F 2 "Resistor_THT:R_Axial_DIN0207_L6.3mm_D2.5mm_P7.62mm_Horizontal" V 9980 1650 50  0001 C CNN
F 3 "~" H 10050 1650 50  0001 C CNN
	1    10050 1650
	1    0    0    -1  
$EndComp
$Comp
L Device:C C3
U 1 1 5F708A72
P 10050 2200
F 0 "C3" H 10165 2246 50  0000 L CNN
F 1 "0.1u" H 10165 2155 50  0000 L CNN
F 2 "Capacitor_THT:C_Disc_D6.0mm_W2.5mm_P5.00mm" H 10088 2050 50  0001 C CNN
F 3 "~" H 10050 2200 50  0001 C CNN
	1    10050 2200
	1    0    0    -1  
$EndComp
$Comp
L power:GND #PWR020
U 1 1 5F708A78
P 10350 2550
F 0 "#PWR020" H 10350 2300 50  0001 C CNN
F 1 "GND" H 10355 2377 50  0000 C CNN
F 2 "" H 10350 2550 50  0001 C CNN
F 3 "" H 10350 2550 50  0001 C CNN
	1    10350 2550
	1    0    0    -1  
$EndComp
$Comp
L Device:R R10
U 1 1 5F708A7E
P 9850 1950
F 0 "R10" V 9643 1950 50  0000 C CNN
F 1 "1K" V 9734 1950 50  0000 C CNN
F 2 "Resistor_THT:R_Axial_DIN0207_L6.3mm_D2.5mm_P7.62mm_Horizontal" V 9780 1950 50  0001 C CNN
F 3 "~" H 9850 1950 50  0001 C CNN
	1    9850 1950
	0    1    1    0   
$EndComp
Text GLabel 9650 1900 1    50   Input ~ 0
PUSH3
Wire Wire Line
	10050 1400 10050 1500
Wire Wire Line
	10050 1800 10050 1950
Wire Wire Line
	9650 1900 9650 1950
Wire Wire Line
	9650 1950 9700 1950
Wire Wire Line
	10000 1950 10050 1950
Connection ~ 10050 1950
Wire Wire Line
	10050 1950 10050 2050
Wire Wire Line
	10050 2350 10050 2450
Wire Wire Line
	10050 2450 10350 2450
Wire Wire Line
	10350 2450 10350 2550
$Comp
L Switch:SW_Push SW3
U 1 1 5F708A95
P 10350 1950
F 0 "SW3" H 10500 1800 50  0000 C CNN
F 1 "SW_Push" H 10450 1900 50  0000 C CNN
F 2 "Button_Switch_THT:SW_PUSH_6mm_H5mm" H 10350 2150 50  0001 C CNN
F 3 "~" H 10350 2150 50  0001 C CNN
	1    10350 1950
	1    0    0    -1  
$EndComp
Wire Wire Line
	10150 1950 10050 1950
Wire Wire Line
	10550 1950 10650 1950
Wire Wire Line
	10650 1950 10650 2450
Connection ~ 10350 2450
Wire Wire Line
	10350 2450 10650 2450
Wire Notes Line
	7150 2800 10800 2800
Wire Notes Line
	7150 950  10800 950 
Wire Notes Line
	10800 950  10800 2800
Text GLabel 2400 2400 0    50   Input ~ 0
PUSH2
Text GLabel 2400 2500 0    50   Input ~ 0
PUSH3
Wire Wire Line
	2500 2500 2400 2500
Wire Wire Line
	2500 2600 2400 2600
Wire Wire Line
	2400 2300 2500 2300
Wire Wire Line
	2400 2400 2500 2400
$Comp
L Connector:Conn_01x04_Female J4
U 1 1 5F77FC12
P 8700 3900
F 0 "J4" H 8728 3876 50  0000 L CNN
F 1 "Conn_01x04_Female" V 8900 3500 50  0000 L CNN
F 2 "Connector_PinSocket_2.54mm:PinSocket_1x04_P2.54mm_Vertical" H 8700 3900 50  0001 C CNN
F 3 "~" H 8700 3900 50  0001 C CNN
	1    8700 3900
	1    0    0    -1  
$EndComp
$Comp
L power:GND #PWR019
U 1 1 5F78441F
P 8250 4150
F 0 "#PWR019" H 8250 3900 50  0001 C CNN
F 1 "GND" H 8255 3977 50  0000 C CNN
F 2 "" H 8250 4150 50  0001 C CNN
F 3 "" H 8250 4150 50  0001 C CNN
	1    8250 4150
	1    0    0    -1  
$EndComp
Text GLabel 8450 3800 0    50   Input ~ 0
SCL
Text GLabel 8450 3900 0    50   Input ~ 0
SDA
Wire Wire Line
	8500 4100 8250 4100
Wire Wire Line
	8250 4100 8250 4150
Wire Wire Line
	8500 3900 8450 3900
Wire Wire Line
	8500 3800 8450 3800
Text GLabel 3750 3400 2    50   Input ~ 0
SCL
Text GLabel 3750 3300 2    50   Input ~ 0
SDA
$Comp
L power:GND #PWR07
U 1 1 5F7BBDFA
P 4650 4350
F 0 "#PWR07" H 4650 4100 50  0001 C CNN
F 1 "GND" H 4655 4177 50  0000 C CNN
F 2 "" H 4650 4350 50  0001 C CNN
F 3 "" H 4650 4350 50  0001 C CNN
	1    4650 4350
	1    0    0    -1  
$EndComp
Text GLabel 5000 4400 0    50   Input ~ 0
TX
Text GLabel 5000 4500 0    50   Input ~ 0
RX
Wire Wire Line
	5000 4400 5050 4400
Wire Wire Line
	5000 4500 5050 4500
Text GLabel 2400 2000 0    50   Input ~ 0
TX
Text GLabel 2400 2100 0    50   Input ~ 0
RX
Wire Wire Line
	2400 2000 2500 2000
Wire Wire Line
	2400 2100 2500 2100
$Comp
L Connector:Conn_01x08_Female J3
U 1 1 5F7FEA3D
P 7000 3900
F 0 "J3" H 7028 3876 50  0000 L CNN
F 1 "Conn_01x08_Female" V 7200 3500 50  0000 L CNN
F 2 "shield:PinSocket_1x08_P2.54mm_Vertical" H 7000 3900 50  0001 C CNN
F 3 "~" H 7000 3900 50  0001 C CNN
	1    7000 3900
	1    0    0    -1  
$EndComp
$Comp
L power:GND #PWR014
U 1 1 5F8037A3
P 6400 3750
F 0 "#PWR014" H 6400 3500 50  0001 C CNN
F 1 "GND" H 6405 3577 50  0000 C CNN
F 2 "" H 6400 3750 50  0001 C CNN
F 3 "" H 6400 3750 50  0001 C CNN
	1    6400 3750
	1    0    0    -1  
$EndComp
$Comp
L Device:Jumper_NC_Dual JP3
U 1 1 5F81AD49
P 5000 3750
F 0 "JP3" H 5000 3989 50  0000 C CNN
F 1 "Jumper_NC_Dual" H 5000 3898 50  0000 C CNN
F 2 "Connector_PinHeader_2.54mm:PinHeader_1x03_P2.54mm_Vertical" H 5000 3750 50  0001 C CNN
F 3 "~" H 5000 3750 50  0001 C CNN
	1    5000 3750
	1    0    0    -1  
$EndComp
Wire Wire Line
	6400 3700 6400 3750
$Comp
L power:+5V #PWR013
U 1 1 5F80032B
P 6100 3550
F 0 "#PWR013" H 6100 3400 50  0001 C CNN
F 1 "+5V" H 6115 3723 50  0000 C CNN
F 2 "" H 6100 3550 50  0001 C CNN
F 3 "" H 6100 3550 50  0001 C CNN
	1    6100 3550
	1    0    0    -1  
$EndComp
Wire Wire Line
	6800 3700 6400 3700
$Comp
L Connector:Conn_01x06_Female J2
U 1 1 5F847972
P 5250 4300
F 0 "J2" H 5278 4276 50  0000 L CNN
F 1 "Conn_01x06_Female" V 5450 3950 50  0000 L CNN
F 2 "Connector_PinSocket_2.54mm:PinSocket_1x06_P2.54mm_Vertical" H 5250 4300 50  0001 C CNN
F 3 "~" H 5250 4300 50  0001 C CNN
	1    5250 4300
	1    0    0    -1  
$EndComp
Wire Wire Line
	5000 3850 5000 4100
Text GLabel 5000 4600 0    50   Input ~ 0
STATE
Wire Wire Line
	5000 4600 5050 4600
Wire Wire Line
	5000 4100 5050 4100
$Comp
L power:+5V #PWR012
U 1 1 5F8810E9
P 5400 3750
F 0 "#PWR012" H 5400 3600 50  0001 C CNN
F 1 "+5V" H 5415 3923 50  0000 C CNN
F 2 "" H 5400 3750 50  0001 C CNN
F 3 "" H 5400 3750 50  0001 C CNN
	1    5400 3750
	1    0    0    -1  
$EndComp
$Comp
L power:GND #PWR09
U 1 1 5F885375
P 4700 3750
F 0 "#PWR09" H 4700 3500 50  0001 C CNN
F 1 "GND" H 4705 3577 50  0000 C CNN
F 2 "" H 4700 3750 50  0001 C CNN
F 3 "" H 4700 3750 50  0001 C CNN
	1    4700 3750
	1    0    0    -1  
$EndComp
Wire Wire Line
	5250 3750 5400 3750
Wire Wire Line
	4700 3750 4750 3750
Text GLabel 2400 3000 0    50   Input ~ 0
STATE
Wire Wire Line
	2400 2900 2500 2900
Text GLabel 6750 3800 0    50   Input ~ 0
SCL
Text GLabel 6750 3900 0    50   Input ~ 0
SDA
Text GLabel 6750 4300 0    50   Input ~ 0
INTI2C
Wire Wire Line
	6750 3800 6800 3800
Wire Wire Line
	6750 3900 6800 3900
Wire Wire Line
	6750 4300 6800 4300
Text GLabel 1650 1600 0    50   Input ~ 0
INTI2C
Wire Notes Line
	10800 4850 10800 3000
Text Notes 9850 3100 0    50   ~ 0
SPI (MCP2515)
$Comp
L power:GND #PWR05
U 1 1 5F63CA99
P 9750 4100
F 0 "#PWR05" H 9750 3850 50  0001 C CNN
F 1 "GND" H 9755 3927 50  0000 C CNN
F 2 "" H 9750 4100 50  0001 C CNN
F 3 "" H 9750 4100 50  0001 C CNN
	1    9750 4100
	1    0    0    -1  
$EndComp
Wire Wire Line
	9750 4050 9750 4100
$Comp
L Connector:Conn_01x07_Female J1
U 1 1 5F697DE4
P 10400 4250
F 0 "J1" H 10428 4276 50  0000 L CNN
F 1 "Conn_01x07_Female" V 10550 3900 50  0000 L CNN
F 2 "Connector_PinSocket_2.54mm:PinSocket_1x07_P2.54mm_Vertical" H 10400 4250 50  0001 C CNN
F 3 "~" H 10400 4250 50  0001 C CNN
	1    10400 4250
	1    0    0    -1  
$EndComp
Wire Wire Line
	10200 4050 9750 4050
Text GLabel 10100 4250 0    50   Input ~ 0
SO
Text GLabel 10100 4350 0    50   Input ~ 0
SI
Text GLabel 10100 4450 0    50   Input ~ 0
SCK
Text GLabel 10100 4550 0    50   Input ~ 0
INTSPI
Wire Wire Line
	10100 4250 10200 4250
Wire Wire Line
	10100 4350 10200 4350
Wire Wire Line
	10100 4450 10200 4450
Wire Wire Line
	10100 4550 10200 4550
Text GLabel 2400 3200 0    50   Input ~ 0
SO
Text GLabel 2400 3100 0    50   Input ~ 0
SI
Text GLabel 2400 3300 0    50   Input ~ 0
SCK
Text GLabel 2350 1600 2    50   Input ~ 0
INTSPI
Wire Wire Line
	2400 3100 2500 3100
Wire Wire Line
	2400 3200 2500 3200
Wire Wire Line
	2400 3300 2500 3300
$Comp
L Device:R R2
U 1 1 5F701785
P 3650 3750
F 0 "R2" H 3720 3796 50  0000 L CNN
F 1 "10K" H 3720 3705 50  0000 L CNN
F 2 "Resistor_THT:R_Axial_DIN0207_L6.3mm_D2.5mm_P7.62mm_Horizontal" V 3580 3750 50  0001 C CNN
F 3 "~" H 3650 3750 50  0001 C CNN
	1    3650 3750
	1    0    0    -1  
$EndComp
$Comp
L Device:R R1
U 1 1 5F707153
P 3550 3750
F 0 "R1" H 3400 3800 50  0000 L CNN
F 1 "10K" H 3350 3700 50  0000 L CNN
F 2 "Resistor_THT:R_Axial_DIN0207_L6.3mm_D2.5mm_P7.62mm_Horizontal" V 3480 3750 50  0001 C CNN
F 3 "~" H 3550 3750 50  0001 C CNN
	1    3550 3750
	1    0    0    -1  
$EndComp
$Comp
L Device:Jumper_NC_Dual JP1
U 1 1 5F71D30B
P 2000 1600
F 0 "JP1" H 2000 1839 50  0000 C CNN
F 1 "Jumper_NC_Dual" H 2000 1748 50  0000 C CNN
F 2 "Connector_PinHeader_2.54mm:PinHeader_1x03_P2.54mm_Vertical" H 2000 1600 50  0001 C CNN
F 3 "~" H 2000 1600 50  0001 C CNN
	1    2000 1600
	1    0    0    -1  
$EndComp
Wire Wire Line
	2250 1600 2350 1600
Wire Wire Line
	1650 1600 1750 1600
$Comp
L power:+5V #PWR023
U 1 1 5F63CA73
P 6500 1300
F 0 "#PWR023" H 6500 1150 50  0001 C CNN
F 1 "+5V" H 6515 1473 50  0000 C CNN
F 2 "" H 6500 1300 50  0001 C CNN
F 3 "" H 6500 1300 50  0001 C CNN
	1    6500 1300
	1    0    0    -1  
$EndComp
Wire Wire Line
	6500 2300 6500 2400
Wire Wire Line
	4500 1450 4900 1450
Connection ~ 4900 1450
Wire Wire Line
	4900 1450 5050 1450
Wire Wire Line
	5050 1350 5050 1450
Wire Wire Line
	7800 1400 8900 1400
Connection ~ 8900 1400
Wire Wire Line
	8900 1400 10050 1400
Wire Wire Line
	8900 1300 8900 1400
Wire Wire Line
	3500 3300 3550 3300
Wire Wire Line
	3550 3600 3550 3300
Connection ~ 3550 3300
Wire Wire Line
	3550 3300 3750 3300
Wire Wire Line
	3500 3400 3650 3400
Wire Wire Line
	3650 3600 3650 3400
Connection ~ 3650 3400
Wire Wire Line
	3650 3400 3750 3400
$Comp
L power:+5V #PWR03
U 1 1 5F71F3EB
P 3600 4050
F 0 "#PWR03" H 3600 3900 50  0001 C CNN
F 1 "+5V" H 3615 4223 50  0000 C CNN
F 2 "" H 3600 4050 50  0001 C CNN
F 3 "" H 3600 4050 50  0001 C CNN
	1    3600 4050
	-1   0    0    1   
$EndComp
Wire Wire Line
	3600 4050 3600 4000
Wire Wire Line
	3550 3900 3550 4000
Wire Wire Line
	3550 4000 3600 4000
Wire Wire Line
	3650 3900 3650 4000
Wire Wire Line
	3650 4000 3600 4000
Connection ~ 3600 4000
NoConn ~ 6800 4000
NoConn ~ 6800 4100
NoConn ~ 6800 4200
Text GLabel 2400 2900 0    50   Input ~ 0
LED3
Text GLabel 2400 2800 0    50   Input ~ 0
LED2
$Comp
L MCU_Module:Arduino_UNO_R3 A1
U 1 1 5F6290E7
P 3000 2600
F 0 "A1" V 3400 3650 50  0000 C CNN
F 1 "Arduino_UNO_R3" V 3500 3650 50  0000 C CNN
F 2 "Module:Arduino_UNO_R3" H 3000 2600 50  0001 C CIN
F 3 "https://www.arduino.cc/en/Main/arduinoBoardUno" H 3000 2600 50  0001 C CNN
	1    3000 2600
	1    0    0    -1  
$EndComp
NoConn ~ 3500 3000
NoConn ~ 3500 3100
NoConn ~ 3500 2400
NoConn ~ 3500 2200
NoConn ~ 3500 2000
Wire Wire Line
	4900 2450 4900 2400
Wire Wire Line
	5250 2450 5250 2400
Wire Wire Line
	3200 1350 3200 1450
NoConn ~ 2900 1600
NoConn ~ 3100 1600
$Comp
L Device:Jumper_NC_Dual JP2
U 1 1 5F6FD07F
P 10150 3450
F 0 "JP2" H 10150 3689 50  0000 C CNN
F 1 "Jumper_NC_Dual" H 10150 3598 50  0000 C CNN
F 2 "Connector_PinHeader_2.54mm:PinHeader_1x03_P2.54mm_Vertical" H 10150 3450 50  0001 C CNN
F 3 "~" H 10150 3450 50  0001 C CNN
	1    10150 3450
	1    0    0    -1  
$EndComp
$Comp
L power:+5V #PWR011
U 1 1 5F6FD086
P 10550 3450
F 0 "#PWR011" H 10550 3300 50  0001 C CNN
F 1 "+5V" H 10565 3623 50  0000 C CNN
F 2 "" H 10550 3450 50  0001 C CNN
F 3 "" H 10550 3450 50  0001 C CNN
	1    10550 3450
	1    0    0    -1  
$EndComp
$Comp
L power:GND #PWR08
U 1 1 5F6FD08C
P 9850 3450
F 0 "#PWR08" H 9850 3200 50  0001 C CNN
F 1 "GND" H 9855 3277 50  0000 C CNN
F 2 "" H 9850 3450 50  0001 C CNN
F 3 "" H 9850 3450 50  0001 C CNN
	1    9850 3450
	1    0    0    -1  
$EndComp
Wire Wire Line
	10400 3450 10550 3450
Wire Wire Line
	9850 3450 9900 3450
Wire Wire Line
	10150 3550 10150 4150
Wire Wire Line
	10150 4150 10200 4150
Wire Wire Line
	2500 3000 2400 3000
Text GLabel 2400 2300 0    50   Input ~ 0
PUSH1(int)
Wire Wire Line
	2000 2200 2500 2200
Wire Wire Line
	2000 1700 2000 2200
$Comp
L power:PWR_FLAG #FLG0101
U 1 1 5F74F6FD
P 3100 1450
F 0 "#FLG0101" H 3100 1525 50  0001 C CNN
F 1 "PWR_FLAG" V 3100 1577 50  0001 L CNN
F 2 "" H 3100 1450 50  0001 C CNN
F 3 "~" H 3100 1450 50  0001 C CNN
	1    3100 1450
	0    -1   -1   0   
$EndComp
Connection ~ 3200 1450
Wire Wire Line
	3200 1450 3200 1600
Wire Wire Line
	3100 1450 3200 1450
$Comp
L power:PWR_FLAG #FLG0102
U 1 1 5F7595DF
P 2750 3750
F 0 "#FLG0102" H 2750 3825 50  0001 C CNN
F 1 "PWR_FLAG" V 2750 3877 50  0001 L CNN
F 2 "" H 2750 3750 50  0001 C CNN
F 3 "~" H 2750 3750 50  0001 C CNN
	1    2750 3750
	0    -1   -1   0   
$EndComp
Wire Wire Line
	2750 3750 2900 3750
Connection ~ 2900 3750
Wire Wire Line
	2400 2700 2500 2700
Wire Wire Line
	2500 2800 2400 2800
$Comp
L power:GND #PWR017
U 1 1 5F65E6FD
P 6100 4000
F 0 "#PWR017" H 6100 3750 50  0001 C CNN
F 1 "GND" H 6105 3827 50  0000 C CNN
F 2 "" H 6100 4000 50  0001 C CNN
F 3 "" H 6100 4000 50  0001 C CNN
	1    6100 4000
	1    0    0    -1  
$EndComp
Wire Wire Line
	6100 3550 6100 3600
Wire Wire Line
	6100 3950 6100 4000
Wire Wire Line
	6100 3600 6800 3600
Connection ~ 6100 3600
Wire Wire Line
	6100 3600 6100 3650
$Comp
L power:+5V #PWR024
U 1 1 5F67E10D
P 7800 3950
F 0 "#PWR024" H 7800 3800 50  0001 C CNN
F 1 "+5V" H 7815 4123 50  0000 C CNN
F 2 "" H 7800 3950 50  0001 C CNN
F 3 "" H 7800 3950 50  0001 C CNN
	1    7800 3950
	1    0    0    -1  
$EndComp
$Comp
L power:GND #PWR025
U 1 1 5F67E119
P 7800 4400
F 0 "#PWR025" H 7800 4150 50  0001 C CNN
F 1 "GND" H 7805 4227 50  0000 C CNN
F 2 "" H 7800 4400 50  0001 C CNN
F 3 "" H 7800 4400 50  0001 C CNN
	1    7800 4400
	1    0    0    -1  
$EndComp
Wire Wire Line
	7800 3950 7800 4000
Wire Wire Line
	7800 4350 7800 4400
Wire Wire Line
	7800 4000 8500 4000
Connection ~ 7800 4000
Wire Wire Line
	7800 4000 7800 4050
$Comp
L power:+5V #PWR04
U 1 1 5F69676E
P 4350 4150
F 0 "#PWR04" H 4350 4000 50  0001 C CNN
F 1 "+5V" H 4365 4323 50  0000 C CNN
F 2 "" H 4350 4150 50  0001 C CNN
F 3 "" H 4350 4150 50  0001 C CNN
	1    4350 4150
	1    0    0    -1  
$EndComp
$Comp
L power:GND #PWR06
U 1 1 5F69677A
P 4350 4600
F 0 "#PWR06" H 4350 4350 50  0001 C CNN
F 1 "GND" H 4355 4427 50  0000 C CNN
F 2 "" H 4350 4600 50  0001 C CNN
F 3 "" H 4350 4600 50  0001 C CNN
	1    4350 4600
	1    0    0    -1  
$EndComp
Wire Wire Line
	4350 4150 4350 4200
Wire Wire Line
	4350 4550 4350 4600
Wire Wire Line
	4350 4200 5050 4200
Connection ~ 4350 4200
Wire Wire Line
	4350 4200 4350 4250
Wire Wire Line
	4650 4350 4650 4300
Wire Wire Line
	4650 4300 5050 4300
Wire Wire Line
	9450 3900 9450 3950
Wire Wire Line
	9450 4300 9450 4350
$Comp
L power:GND #PWR027
U 1 1 5F6C923C
P 9450 4350
F 0 "#PWR027" H 9450 4100 50  0001 C CNN
F 1 "GND" H 9455 4177 50  0000 C CNN
F 2 "" H 9450 4350 50  0001 C CNN
F 3 "" H 9450 4350 50  0001 C CNN
	1    9450 4350
	1    0    0    -1  
$EndComp
$Comp
L power:+5V #PWR026
U 1 1 5F6C9230
P 9450 3900
F 0 "#PWR026" H 9450 3750 50  0001 C CNN
F 1 "+5V" H 9465 4073 50  0000 C CNN
F 2 "" H 9450 3900 50  0001 C CNN
F 3 "" H 9450 3900 50  0001 C CNN
	1    9450 3900
	1    0    0    -1  
$EndComp
Wire Notes Line
	9300 3000 9300 4850
Wire Notes Line
	9300 3000 10800 3000
Wire Notes Line
	9300 4850 10800 4850
Wire Wire Line
	10200 3950 9450 3950
Connection ~ 9450 3950
Wire Wire Line
	9450 3950 9450 4000
$Comp
L Device:C C7
U 1 1 5F74E77B
P 9450 4150
F 0 "C7" H 9450 4250 50  0000 L CNN
F 1 "0.1u" V 9400 3950 50  0000 L CNN
F 2 "Capacitor_THT:C_Disc_D6.0mm_W2.5mm_P5.00mm" H 9488 4000 50  0001 C CNN
F 3 "~" H 9450 4150 50  0001 C CNN
	1    9450 4150
	1    0    0    -1  
$EndComp
$Comp
L Device:C C4
U 1 1 5F74F19B
P 4350 4400
F 0 "C4" H 4350 4500 50  0000 L CNN
F 1 "0.1u" V 4300 4200 50  0000 L CNN
F 2 "Capacitor_THT:C_Disc_D6.0mm_W2.5mm_P5.00mm" H 4388 4250 50  0001 C CNN
F 3 "~" H 4350 4400 50  0001 C CNN
	1    4350 4400
	1    0    0    -1  
$EndComp
$Comp
L Device:C C5
U 1 1 5F768494
P 6100 3800
F 0 "C5" H 6100 3900 50  0000 L CNN
F 1 "0.1u" V 6050 3600 50  0000 L CNN
F 2 "Capacitor_THT:C_Disc_D6.0mm_W2.5mm_P5.00mm" H 6138 3650 50  0001 C CNN
F 3 "~" H 6100 3800 50  0001 C CNN
	1    6100 3800
	1    0    0    -1  
$EndComp
$Comp
L Device:C C6
U 1 1 5F778FA2
P 7800 4200
F 0 "C6" H 7800 4300 50  0000 L CNN
F 1 "0.1u" V 7750 4000 50  0000 L CNN
F 2 "Capacitor_THT:C_Disc_D6.0mm_W2.5mm_P5.00mm" H 7838 4050 50  0001 C CNN
F 3 "~" H 7800 4200 50  0001 C CNN
	1    7800 4200
	1    0    0    -1  
$EndComp
Wire Notes Line
	1350 4450 4000 4450
Wire Notes Line
	4000 4450 4000 6300
Wire Notes Line
	4000 6300 1350 6300
Wire Wire Line
	6500 1800 6500 2000
$Comp
L Device:LED D5
U 1 1 5F6445BC
P 6500 1650
F 0 "D5" V 6539 1532 50  0000 R CNN
F 1 "LED/RED" H 6650 1750 50  0000 R CNN
F 2 "LED_THT:LED_D5.0mm" H 6500 1650 50  0001 C CNN
F 3 "~" H 6500 1650 50  0001 C CNN
	1    6500 1650
	0    -1   -1   0   
$EndComp
Wire Wire Line
	5600 1450 5250 1450
Connection ~ 5250 1450
Wire Notes Line
	4250 2800 5900 2800
Wire Notes Line
	4250 950  5900 950 
Wire Wire Line
	6500 1300 6500 1500
Connection ~ 5050 1450
Wire Wire Line
	5050 1450 5250 1450
Wire Wire Line
	5600 2400 5600 2450
Wire Wire Line
	5600 1450 5600 1600
Wire Wire Line
	5600 1900 5600 2100
$EndSCHEMATC
